0 - 2.75 - 0.82915619758885
1 - 3.575 - 1.0219466717984849
2 - 3.575 - 1.0219466717984849
3 - 3.575 - 1.0219466717984849
4 - 3.575 - 1.0219466717984849
5 - 3.525 - 0.9743587634952539
6 - 3.375 - 1.1551515052147923
7 - 4.175 - 1.358077685554107
8 - 4.95 - 1.672572868367773
9 - 4.95 - 1.672572868367773
10 - 4.95 - 1.672572868367773
11 - 4.95 - 1.672572868367773
12 - 4.9 - 1.6703293088490065
13 - 4.75 - 1.8540496217739157
14 - 5.525 - 2.0974687125199267
15 - 6.3 - 2.4310491562286436
16 - 6.3 - 2.4310491562286436
17 - 6.3 - 2.4310491562286436
18 - 6.3 - 2.4310491562286436
19 - 6.125 - 2.368411915187052
20 - 6.2 - 2.336664289109584
21 - 6.95 - 2.6358110706194404
22 - 7.7 - 2.9681644159311658
23 - 7.7 - 2.9681644159311658
24 - 7.7 - 2.9681644159311658
25 - 7.7 - 2.9681644159311658
26 - 7.375 - 2.7900492827188557
27 - 6.85 - 3.190219428189854
28 - 7.65 - 3.4245437652335533
29 - 8.425 - 3.7275159288727386
30 - 8.425 - 3.7275159288727386
31 - 8.425 - 3.7275159288727386
32 - 8.425 - 3.7275159288727386
33 - 7.825 - 3.4560635121478884
34 - 7.625 - 3.5894811602792958
35 - 8.4 - 3.8781438859330635
36 - 9.175 - 4.18860060163296
37 - 9.175 - 4.18860060163296
38 - 9.175 - 4.18860060163296
39 - 9.175 - 4.18860060163296
40 - 8.55 - 4.061711461933259
41 - 8.275 - 4.248455601745181
42 - 9.075 - 4.507701742573482
43 - 9.8 - 4.723346271447817
44 - 9.8 - 4.723346271447817
45 - 9.8 - 4.723346271447817
46 - 9.8 - 4.723346271447817
47 - 9.075 - 4.406741993809032
48 - 8.725 - 4.472066077329358
49 - 9.525 - 4.652888887562221
50 - 10.2 - 4.770744176750626
51 - 10.2 - 4.770744176750626
52 - 10.2 - 4.770744176750626
53 - 10.2 - 4.770744176750626
54 - 9.425 - 4.504927857357985
55 - 8.7 - 4.48998886412873
56 - 9.5 - 4.5934736311423405
57 - 10.25 - 4.736823830374104
58 - 10.25 - 4.736823830374104
59 - 10.25 - 4.736823830374104
60 - 10.25 - 4.736823830374104
61 - 9.375 - 4.419770921665511
62 - 9.075 - 4.429376366939255
63 - 9.825 - 4.477094481915699
64 - 10.5 - 4.466542286825459
65 - 10.5 - 4.466542286825459
66 - 10.5 - 4.466542286825459
67 - 10.5 - 4.466542286825459
68 - 9.65 - 4.198511641046146
69 - 9.025 - 4.338706604507846
70 - 9.8 - 4.2731721238443
71 - 10.55 - 4.236448984704053
72 - 10.55 - 4.236448984704053
73 - 10.55 - 4.236448984704053
74 - 10.55 - 4.236448984704053
75 - 9.525 - 3.92420374088808
76 - 8.825 - 4.363986136549931
77 - 9.65 - 4.310162409933064
78 - 10.425 - 4.265486490425213
79 - 10.425 - 4.265486490425213
80 - 10.425 - 4.265486490425213
81 - 10.425 - 4.265486490425213
82 - 9.95 - 4.122802444939608
83 - 9.425 - 4.206468233566016
84 - 10.2 - 4.148493702538308
85 - 10.925 - 4.064403400254458
86 - 10.925 - 4.064403400254458
87 - 10.925 - 4.064403400254458
88 - 10.925 - 4.064403400254458
89 - 10.275 - 4.055782908391424
90 - 9.65 - 4.536242938820627
91 - 10.425 - 4.420902057272927
92 - 11.05 - 4.318275118609281
93 - 11.05 - 4.318275118609281
