0 - 0.0038968659937381744 - -0.004126819040599609
1 - 0.021504417061805725 - -0.007859560085717022
2 - 0.021504417061805725 - -0.005296968802319195
3 - 0.021504417061805725 - -0.0039722594153317895
4 - 0.021504417061805725 - -0.00115587908261053
5 - 0.021504417061805725 - -4.2538380196977714E-4
6 - 0.021504417061805725 - -0.011132896084885333
7 - 0.059907476883381605 - -0.016947697999069842
8 - 0.059907476883381605 - -0.018798035179812957
9 - 0.059907476883381605 - -0.006572077159726179
10 - 0.059907476883381605 - 0.0012336686885343318
11 - 0.07796241079146664 - 0.006498777396260873
12 - 0.07796241079146664 - 0.008073919376010963
13 - 0.07796241079146664 - 0.003684225441268912
14 - 0.11022924818098545 - -0.003545492780867788
15 - 0.12560421725114188 - -0.006069377956179475
16 - 0.834020908921957 - 0.01646378660926227
17 - 0.834020908921957 - 0.02378523836741806
18 - 0.834020908921957 - 0.030039560482509838
19 - 0.834020908921957 - 0.03645093798390917
20 - 0.834020908921957 - 0.03718762967521798
21 - 0.834020908921957 - 0.019170844339581286
22 - 0.834020908921957 - 0.017966699115575777
23 - 0.834020908921957 - 0.02917253354102285
24 - 0.834020908921957 - 0.031716415976073525
25 - 0.834020908921957 - 0.040355867619752336
26 - 0.8362192213535309 - 0.048339427842499075
27 - 0.8362192213535309 - 0.05400014723289738
28 - 0.8362192213535309 - 0.040336754729372225
29 - 0.8362192213535309 - 0.029715464935670743
30 - 0.8362192213535309 - 0.036091842952252276
31 - 0.8362192213535309 - 0.04791590673095924
32 - 0.8362192213535309 - 0.060217419985371355
33 - 0.8362192213535309 - 0.07096445239317142
34 - 0.8456569897631805 - 0.08686369466842735
35 - 0.8456569897631805 - 0.05217774775116898
36 - 0.8456569897631805 - 0.050067917596049186
37 - 0.8456569897631805 - 0.05979069057443363
38 - 0.8456569897631805 - 0.07045247479331009
39 - 0.8585187582919995 - 0.079446733721464
40 - 0.8585187582919995 - 0.10092202789058016
41 - 0.8585187582919995 - 0.11504244598933537
42 - 0.8585187582919995 - 0.07751253880143241
43 - 0.8585187582919995 - 0.04381605662746248
44 - 0.8585187582919995 - 0.06669858589333064
45 - 0.8585187582919995 - 0.07506714771649665
46 - 0.8585187582919995 - 0.08740509996535063
47 - 0.8585187582919995 - 0.1309914615363838
48 - 0.8661847755312919 - 0.19329037404484553
49 - 0.8764906351764996 - 0.1432341241132114
50 - 0.8764906351764996 - 0.1325966192001397
51 - 0.8764906351764996 - 0.1445236977457534
52 - 0.8764906351764996 - 0.15732514713392448
53 - 0.8764906351764996 - 0.17281840000662974
54 - 0.8764906351764996 - 0.20370482660461367
55 - 0.8764906351764996 - 0.23373431309277898
56 - 0.8764906351764996 - 0.13872121857608966
57 - 0.8764906351764996 - -0.24207826957994255
58 - 0.8764906351764996 - 0.1520650505417628
59 - 0.8764906351764996 - 0.15723298770894567
60 - 0.8764906351764996 - 0.16659719420829794
61 - 0.8764906351764996 - 0.21557444340263224
62 - 0.8764906351764996 - 0.25127461241846805
63 - 0.8764906351764996 - 0.1396984511414727
64 - 0.8764906351764996 - 0.09933181691498855
65 - 0.8764906351764996 - 0.10536799244923412
66 - 0.8764906351764996 - 0.13263355223347992
67 - 0.8764906351764996 - 0.14356028403079105
68 - 0.8764906351764996 - 0.20164916630391727
69 - 0.9321914692719777 - 0.2591104266082402
70 - 0.9321914692719777 - 0.13133277948101746
71 - 0.9321914692719777 - 0.09839159263285788
72 - 0.9321914692719777 - 0.11806100658786214
73 - 0.9321914692719777 - 0.12382041653875306
74 - 0.9321914692719777 - 0.14048214157097394
75 - 0.9321914692719777 - 0.20989512713618746
76 - 0.9321914692719777 - 0.25492737034032564
77 - 0.9321914692719777 - 0.18071446758069212
78 - 0.9321914692719777 - 0.12819933518929855
79 - 0.9321914692719777 - 0.159404010214154
80 - 0.9321914692719777 - 0.16406955107018192
