0 - 0.9540759976007055 - 0.29284704834030356
1 - 1.3924075884513927 - 0.299270146194011
2 - 1.3924075884513927 - 0.4120053457000563
3 - 1.3924075884513927 - 0.47712991788679027
4 - 1.3924075884513927 - 0.5942743140889992
5 - 1.3950019129547755 - 0.665800422100788
6 - 1.3950019129547755 - 0.6460534803147266
7 - 1.3950019129547755 - 0.542123749817895
8 - 1.3950019129547755 - 0.5116427569968935
9 - 1.3950019129547755 - 0.6039011417672311
10 - 1.3950019129547755 - 0.6194772178703282
11 - 1.3950019129547755 - 0.7077013588684442
12 - 1.3950019129547755 - 0.7516613359514613
13 - 1.3950019129547755 - 0.6844323061092129
14 - 1.3950019129547755 - 0.5636048887975541
15 - 1.3950019129547755 - 0.5918474078780835
16 - 1.398871727998801 - 0.6723660461559049
17 - 1.398871727998801 - 0.7277284742571694
18 - 1.398871727998801 - 0.7797858725762918
19 - 1.398871727998801 - 0.7927574887295703
20 - 1.398871727998801 - 0.7281376305507845
21 - 1.398871727998801 - 0.663113869176543
22 - 1.398871727998801 - 0.6505548347771983
23 - 1.400449988033187 - 0.7334457691065228
24 - 1.400449988033187 - 0.7556757183923607
25 - 1.400449988033187 - 0.8352858526018576
26 - 1.400449988033187 - 0.8495803358231212
27 - 1.400449988033187 - 0.7547429099670584
28 - 1.7245459615258958 - 0.6767292047450264
29 - 1.7245459615258958 - 0.6489052294579563
30 - 1.7245459615258958 - 0.715318498090899
31 - 1.7245459615258958 - 0.734787859448366
32 - 1.7245459615258958 - 0.8394205349660169
33 - 1.7245459615258958 - 0.8653563264848237
34 - 1.7245459615258958 - 0.796026817241122
35 - 1.7245459615258958 - 0.681108595786806
36 - 1.7245459615258958 - 0.7012421177008996
37 - 1.7401428852812004 - 0.7745660995914733
38 - 1.7401428852812004 - 0.815528129703839
39 - 1.7401428852812004 - 0.8634327595631831
40 - 1.7401428852812004 - 0.8804145808999218
41 - 1.7401428852812004 - 0.7877824734612939
42 - 1.7401428852812004 - 0.5923719982657378
43 - 1.7401428852812004 - 0.6502704107951904
44 - 1.7401428852812004 - 0.7638765886075797
45 - 1.7824775365180998 - 0.822738336861369
46 - 1.9754055603102993 - 0.8757266836524298
47 - 1.9754055603102993 - 0.8994152312436885
48 - 1.9856458565416812 - 0.840891098065985
49 - 1.979627946855657 - 0.7397203210305727
50 - 1.9615987745818695 - 0.7101357907635791
51 - 1.9615987745818695 - 0.792725307220404
52 - 1.9615987745818695 - 0.8231580178925698
53 - 2.025954411298143 - 0.8859135399739335
54 - 2.025954411298143 - 0.912191971921466
55 - 2.025954411298143 - 0.8533827072991944
56 - 2.025954411298143 - 0.7493041511148387
57 - 1.9092445437141512 - 0.7467092519985006
58 - 1.9092445437141512 - 0.8049050162117938
59 - 2.1420786022466425 - 0.8587505937184355
60 - 2.144700124666276 - 0.932152367998289
61 - 2.144726798701266 - 0.9654524980372093
62 - 2.144726798701266 - 0.8172755711171653
63 - 2.1524797964714497 - 0.7921496460763197
64 - 2.1456377189975613 - 0.7439620408555363
65 - 2.2428529822272907 - 0.8459083459719323
66 - 2.2428529822272907 - 0.8611549762728459
67 - 2.2428529822272907 - 0.8967977040693033
68 - 2.2428529822272907 - 0.929851305213788
69 - 2.2428529822272907 - 0.8776723607472933
70 - 2.2428529822272907 - 0.7805410049483001
71 - 2.0256694304493004 - 0.7337504794975589
72 - 2.0256694304493004 - 0.8188994026517513
73 - 2.0256694304493004 - 0.9102249183935026
74 - 2.295079757075357 - 0.9717528277058767
75 - 2.295079757075357 - 0.9922494220466003
76 - 2.295079757075357 - 0.9158365693244533
77 - 2.295079757075357 - 0.8000803006665851
78 - 2.2853036339364485 - 0.8473008761555493
79 - 2.2853036339364485 - 0.9054819479729318
80 - 2.2853036339364485 - 0.9262772937507991
