0 - 0.6348203684746864 - 0.2145249823432387
1 - 0.7336577427994135 - 0.2604304454231558
2 - 0.7481020414712733 - 0.33428151176275256
3 - 0.830452519718188 - 0.3846482614309314
4 - 1.312685562485387 - 0.5230712332280213
5 - 1.312685562485387 - 0.5443851465835816
6 - 1.312685562485387 - 0.5399058585082456
7 - 1.312685562485387 - 0.5201210646512012
8 - 1.312685562485387 - 0.5025013369477562
9 - 1.312685562485387 - 0.5710981036285758
10 - 1.312685562485387 - 0.6192939417447516
11 - 1.312685562485387 - 0.7331866284591685
12 - 1.312685562485387 - 0.7565454557519323
13 - 1.312685562485387 - 0.677955105513103
14 - 1.312685562485387 - 0.6666615836226829
15 - 1.312685562485387 - 0.664048280842722
16 - 1.312685562485387 - 0.7094075369930182
17 - 1.312685562485387 - 0.7338806252659571
18 - 1.312685562485387 - 0.799299478344545
19 - 1.312685562485387 - 0.8243055148528308
20 - 1.312685562485387 - 0.7068910261414877
21 - 1.312685562485387 - 0.568039143536471
22 - 1.312685562485387 - 0.679914275949199
23 - 1.312685562485387 - 0.7532482154548371
24 - 1.312685562485387 - 0.7682355208904608
25 - 1.312685562485387 - 0.8265228461189164
26 - 1.312685562485387 - 0.8368387134035074
27 - 1.312685562485387 - 0.7657319344009935
28 - 1.312685562485387 - 0.7782283829886494
29 - 1.312685562485387 - 0.7956260630462624
30 - 1.312685562485387 - 0.8057736609405266
31 - 1.312685562485387 - 0.8184225604441935
32 - 1.312685562485387 - 0.8640017085148969
33 - 1.312685562485387 - 0.8666708051654798
34 - 1.312685562485387 - 0.786528936934939
35 - 1.312685562485387 - 0.7844235837256499
36 - 1.312685562485387 - 0.7892640565875344
37 - 1.312685562485387 - 0.80309347159097
38 - 1.312685562485387 - 0.8098462761025884
39 - 1.312685562485387 - 0.8648848405866835
40 - 1.312685562485387 - 0.8861926816507019
41 - 1.312685562485387 - 0.7936158140658138
42 - 1.312685562485387 - 0.719175755364209
43 - 1.312685562485387 - 0.7885149045618814
44 - 1.312685562485387 - 0.8030808007115724
45 - 1.312685562485387 - 0.8067121594915388
46 - 1.360517027807204 - 0.8709794948109092
47 - 1.360517027807204 - 0.8780996524440559
