0 - 0.39582147331614265 - 0.0395760207015433
1 - 0.7914375908280684 - 0.06026294272033568
2 - 0.7914429468543906 - 0.07015806244816991
3 - 1.1821240042385304 - 0.08981751294545211
4 - 1.403637351487812 - 0.09765377153750246
5 - 1.4060686713770816 - 0.09771455453473418
6 - 1.4060686713770816 - 0.09771455453473418
7 - 1.7761249247350184 - 0.16695261927767785
8 - 1.7761249247350184 - 0.19716248919429358
9 - 2.0 - 0.21264807367020241
10 - 2.0 - 0.23065795490796184
11 - 2.0 - 0.24381953008100016
12 - 2.0 - 0.27361813879341745
13 - 2.0 - 0.29878274473799415
14 - 2.0 - 0.3179846460044583
15 - 2.0 - 0.34705543474403505
16 - 7.073791461906538 - 0.6431238130854362
17 - 7.073791461906538 - 0.6758605108649427
18 - 7.99429725328557 - 0.7907665582883162
19 - 8.862525703885783 - 0.8152169609589036
20 - 8.862525703885783 - 0.8152169609589036
21 - 42.711602336866285 - 1.7411733298836087
22 - 42.711602336866285 - 1.939338236456744
23 - 42.711602336866285 - 2.0334000392247003
24 - 43.30693939948687 - 2.913256523825649
25 - 43.98621759361239 - 3.0357497938002935
26 - 48.00608730988118 - 3.1546504506644375
27 - 51.895795140517386 - 3.251898048441812
28 - 51.895795140517386 - 3.147516765144762
29 - 53.59977322402754 - 3.163220005354158
30 - 53.59977322402754 - 3.25790025026512
31 - 53.59977322402754 - 3.3722991638771482
32 - 53.59977322402754 - 3.5879665091886195
33 - 58.06066622985036 - 4.038166990802201
34 - 58.06066622985036 - 4.119380569379095
35 - 58.06066622985036 - 3.012642092947711
36 - 58.06066622985036 - 3.0555749945253035
37 - 58.06066622985036 - 3.4542260842077717
38 - 69.2075497778113 - 4.180695584915141
39 - 69.2075497778113 - 4.288503487982922
40 - 69.2075497778113 - 6.889864286473061
41 - 69.2075497778113 - 7.261264913107832
42 - 69.2075497778113 - 5.430102878416952
43 - 69.2075497778113 - 4.617098642988043
44 - 69.2075497778113 - 5.287879211592626
45 - 69.2075497778113 - 5.900713019721132
46 - 70.61352178733502 - 6.420427889879808
47 - 70.61352178733502 - 6.860759625410227
48 - 70.61352178733502 - 7.598049555761054
49 - 74.86934295412348 - 5.542774192461501
50 - 74.86934295412348 - 6.778442691361578
51 - 74.86934295412348 - 7.600625555174512
52 - 79.92356791088847 - 9.777694858069834
53 - 81.03995384853039 - 10.494085739627993
54 - 81.03995384853039 - 12.519684979053256
55 - 81.03995384853039 - 13.577073680592227
56 - 81.03995384853039 - 11.181168874106227
57 - 81.03995384853039 - 11.042721231821144
58 - 81.03995384853039 - 12.612253135864213
59 - 81.03995384853039 - 12.866285888996268
60 - 81.03995384853039 - 13.38077193869621
61 - 81.03995384853039 - 15.353038592562152
62 - 81.03995384853039 - 16.313116006378507
63 - 81.03995384853039 - 13.941922197704079
64 - 81.03995384853039 - 13.129519263812236
65 - 81.03995384853039 - 13.618416231143403
66 - 81.03995384853039 - 13.69554536431419
67 - 81.03995384853039 - 14.808256043185798
68 - 103.45292581934679 - 18.59371505555749
69 - 105.05456600929564 - 19.683329946607657
70 - 112.97807953006343 - 19.487784009553817
71 - 112.97807953006343 - 17.036141810518867
72 - 112.97807953006343 - 17.703971885658866
73 - 112.97807953006343 - 17.834407758828924
74 - 112.97807953006343 - 18.60773304061879
75 - 112.97807953006343 - 20.718125714968323
76 - 112.97807953006343 - 22.272539594362833
77 - 112.97807953006343 - 19.496953559573523
78 - 112.97807953006343 - 17.102467782839277
79 - 120.31059906658373 - 17.65954340949704
80 - 127.93041507620558 - 18.983281618355193
81 - 127.93041507620558 - 20.35946331593083
82 - 127.93041507620558 - 22.833637053519528
83 - 127.93041507620558 - 23.824603858444696
84 - 127.93041507620558 - 20.74122262779336
85 - 127.93041507620558 - 17.457699786025906
86 - 127.93041507620558 - 18.324178756259307
87 - 127.96422122315353 - 18.546230445351544
88 - 127.96422122315353 - 21.736439014688195
89 - 127.96422122315353 - 24.819711631063235
90 - 127.96422122315353 - 25.947818081729633
91 - 127.96422122315353 - 22.255667721956087
92 - 127.96422122315353 - 20.369766214073728
93 - 127.96422122315353 - 21.36342701448321
94 - 127.96422122315353 - 21.533370366409166
95 - 127.96422122315353 - 23.600468649142304
96 - 127.96422122315353 - 26.693232264364934
