0 - 0.49996664543912045 - 0.19266387072215724
1 - 1.4063272839179872 - 0.23805640938221856
2 - 1.4063272839179872 - 0.36223604514259905
3 - 1.4063272839179872 - 0.41723553347231357
4 - 1.9209193968466296 - 0.620752956125205
5 - 1.9209193968466296 - 0.6455636180700672
6 - 1.9209193968466296 - 0.6035287749389304
7 - 1.9209193968466296 - 0.5277166715449939
8 - 1.9209193968466296 - 0.5944877762258093
9 - 1.9209193968466296 - 0.6384407014663802
10 - 1.9209193968466296 - 0.6875634841744691
11 - 1.9209193968466296 - 0.8051611436430346
12 - 1.9209193968466296 - 0.8242419953850335
13 - 1.9209193968466296 - 0.7528004146501256
14 - 1.9209193968466296 - 0.7234627941647729
15 - 1.9209193968466296 - 0.7169206482228389
16 - 1.9209193968466296 - 0.751902683399523
17 - 1.9209193968466296 - 0.7695082313497471
18 - 1.9209193968466296 - 0.8659707674657126
19 - 1.9209193968466296 - 0.8778945489537955
20 - 1.9209193968466296 - 0.7478532432599878
21 - 1.9209193968466296 - 0.7370473634713918
22 - 1.9209193968466296 - 0.7458997448310786
23 - 1.9209193968466296 - 0.7957334510069114
24 - 1.9209193968466296 - 0.8205257039796395
25 - 1.9209193968466296 - 0.8653285585527348
26 - 1.9209193968466296 - 0.8853333215653171
27 - 1.9209193968466296 - 0.8163448060471319
28 - 1.9209193968466296 - 0.8286545780286904
29 - 1.9209193968466296 - 0.8382420963645432
30 - 1.9209193968466296 - 0.8453322112790544
31 - 1.9209193968466296 - 0.8788609493164392
32 - 1.9209193968466296 - 0.942721352205995
33 - 1.9209193968466296 - 0.9474650377930155
34 - 1.9209193968466296 - 0.8341961811698342
35 - 1.9209193968466296 - 0.8434651233540749
36 - 1.9209193968466296 - 0.8483100585533057
37 - 1.9209193968466296 - 0.8835383612579442
38 - 1.9209193968466296 - 0.8870239790360873
39 - 1.9209193968466296 - 0.9333369262038692
40 - 1.9209193968466296 - 0.9452986732588876
41 - 1.9209193968466296 - 0.8645958984447661
42 - 1.9209193968466296 - 0.7876383792669193
43 - 1.7363033530052605 - 0.7759632685614907
44 - 1.7363033530052605 - 0.838852021206989
45 - 1.7363033530052605 - 0.8586151544599472
46 - 1.7363033530052605 - 0.9380990207454973
47 - 1.7363033530052605 - 0.9498005052748256
