0 - 0.46522070418919836 - 0.21457064739092063
1 - 0.4798421536426282 - 0.21265456434223226
2 - 0.7666141729062582 - 0.30783158078411355
3 - 0.7792462406689908 - 0.35591031475266555
4 - 1.1708992892690884 - 0.46156040580319246
5 - 1.1724107132917498 - 0.508697732374522
6 - 1.1776490710875216 - 0.49152558200284735
7 - 1.2614455743284716 - 0.43120007274267175
8 - 1.2614455743284716 - 0.43455459480026815
9 - 1.6979243286109704 - 0.5064589613875798
10 - 1.7208013365061088 - 0.5981607734189048
11 - 1.7208013365061088 - 0.6817854893947635
12 - 1.7287767460747432 - 0.7256054811778594
13 - 1.7287767460747432 - 0.6441347612654551
14 - 1.7287767460747432 - 0.5118505302821388
15 - 1.7287767460747432 - 0.5338261237301597
16 - 1.7287767460747432 - 0.6007008774302125
17 - 1.7287767460747432 - 0.6279086188191871
18 - 1.7287767460747432 - 0.7467286681904589
19 - 1.7287767460747432 - 0.7835524854739548
20 - 1.7287767460747432 - 0.7393346736211395
21 - 1.7287767460747432 - 0.605531346653045
22 - 1.7287767460747432 - 0.6104281198491889
23 - 1.7287767460747432 - 0.6717900639061704
24 - 1.7287767460747432 - 0.717683471381468
25 - 1.7512821526778846 - 0.7923458925973296
26 - 1.7512821526778846 - 0.8455538256111763
27 - 1.7512821526778846 - 0.7938061103298885
28 - 1.7512821526778846 - 0.6363289311257719
29 - 1.7658484621477986 - 0.641874651435728
30 - 2.0365210667294793 - 0.7614009618754567
31 - 2.0365210667294793 - 0.7840953940333262
32 - 2.0365210667294793 - 0.8548840694906199
33 - 2.0365210667294793 - 0.8785599036846206
34 - 2.0365210667294793 - 0.8259794962441582
35 - 2.0365210667294793 - 0.7567609245479657
36 - 1.9771546002928908 - 0.724744772094937
37 - 1.9771546002928908 - 0.8469224478474123
38 - 1.9771546002928908 - 0.8836277970923222
39 - 1.9771546002928908 - 0.927769516963358
40 - 1.9771546002928908 - 0.9416437853110367
41 - 1.8497470684559827 - 0.8130574892142614
42 - 1.8497470684559827 - 0.5839493788660627
43 - 1.8497470684559827 - 0.6809487702038457
44 - 1.850066976169132 - 0.8359586668599981
45 - 1.850066976169132 - 0.860633410209612
46 - 1.8602653694108713 - 0.9238291713215737
47 - 1.8602653694108713 - 0.9549102356148268
48 - 1.8602653694108713 - 0.8637859136784917
49 - 1.903102971339007 - 0.8127848279821945
50 - 1.9063785763599739 - 0.8082566798494414
51 - 1.9063785763599739 - 0.8716440582049716
52 - 1.9063785763599739 - 0.890021023034054
53 - 2.279231764130329 - 0.9733062027869511
54 - 2.2822732189196215 - 0.9847544345582259
55 - 2.2980633016216 - 0.9225826778157222
56 - 2.3365028790902054 - 0.7153410902121842
57 - 2.2574194730969883 - 0.7755215314422785
58 - 2.279808715554611 - 0.848289594859691
59 - 2.279808715554611 - 0.9128648052785782
60 - 2.279808715554611 - 0.9625744119645316
61 - 2.2828012478678223 - 0.9893450831114652
62 - 2.33443566500517 - 0.9260109782813423
63 - 2.2828012478678223 - 0.8510485611850311
64 - 2.274737084791568 - 0.853453260414588
65 - 2.274737084791568 - 0.940369945860027
66 - 2.318164369726774 - 0.9538192586638841
67 - 2.428679059108878 - 1.0300671653001368
68 - 2.428679059108878 - 1.037617150866013
69 - 2.428679059108878 - 0.9699460529105615
70 - 2.428679059108878 - 0.8219186763825614
71 - 2.2851725007479975 - 0.8092398027104399
72 - 2.2851725007479975 - 0.9075595239907848
73 - 2.331386355149598 - 0.9683043748379738
74 - 2.331386355149598 - 1.0708866164259272
75 - 2.331386355149598 - 1.0960891647329918
76 - 2.331386355149598 - 0.999065843033659
77 - 2.381117106041781 - 0.928477351698886
78 - 2.3429799060789636 - 0.9030540371222096
79 - 2.3429799060789636 - 0.9891759409133009
80 - 2.3429799060789636 - 1.0101908033673326
81 - 2.3429799060789636 - 1.04745419816801
82 - 2.3429799060789636 - 1.0671254537361814
83 - 2.3429799060789636 - 0.9940066399678729
84 - 2.4376178633943435 - 0.797180284387923
85 - 2.292678978677137 - 0.7666510256675255
86 - 2.433036253458735 - 0.9180972560862859
87 - 2.433036253458735 - 0.9630090161851872
88 - 2.433036253458735 - 1.0008549458529148
89 - 2.433036253458735 - 1.0376955799301253
90 - 2.433036253458735 - 1.0104295403484633
91 - 2.433036253458735 - 0.8590190352392651
92 - 2.196187915550361 - 0.8734611180129948
93 - 2.196187915550361 - 0.9264892581695057
94 - 2.196187915550361 - 0.9589299448018854
95 - 2.4781975942199153 - 0.9880959873843164
96 - 2.4781975942199153 - 1.0108010098537297
97 - 2.4781975942199153 - 0.9059988023633743
98 - 2.4781975942199153 - 0.8413484629405137
99 - 2.1847134095914553 - 0.8403625980304419
100 - 2.1847134095914553 - 0.8873271087282084
101 - 2.413931526746438 - 0.9181713611593091
102 - 2.525930185349907 - 0.9817060692913605
103 - 2.6384724426216786 - 1.0180139977449072
104 - 2.6384724426216786 - 0.9620603690748494
105 - 2.6384724426216786 - 0.8940351084638355
106 - 2.6290158313407574 - 0.8783061200720939
107 - 2.6290158313407574 - 0.9450635501561386
108 - 2.6290158313407574 - 0.9849096174644622
109 - 2.6290158313407574 - 1.0453199512073055
110 - 2.6290158313407574 - 1.0569097477434322
111 - 2.6290158313407574 - 0.9600400282886168
112 - 2.6290158313407574 - 0.9141035037349168
113 - 2.5553766918981173 - 0.8960300317778425
114 - 2.5553766918981173 - 0.9606449257282937
115 - 2.6206050532385645 - 0.992056644920894
116 - 2.6206050532385645 - 1.0445343852847055
117 - 2.6206050532385645 - 1.0812740806936962
118 - 2.6206050532385645 - 0.9969260445581224
119 - 2.6206050532385645 - 0.8634688068946795
120 - 2.381489186829209 - 0.8359760789105742
121 - 2.381489186829209 - 0.9061102811503398
122 - 2.467272751944937 - 0.9535267163130168
123 - 2.467272751944937 - 1.0085682220772223
124 - 2.467272751944937 - 1.0668575773436006
125 - 2.4991819235047203 - 0.924841469587052
126 - 2.467272751944937 - 0.8706974564391045
127 - 2.3654360908379495 - 0.8511157625638678
128 - 2.6998126884963183 - 0.9314808492986337
129 - 2.6998126884963183 - 0.9470805827053944
