0 - 2.0 - 0.0
1 - 2.975 - 0.15612494995995996
2 - 2.975 - 0.15612494995995996
3 - 2.975 - 0.15612494995995996
4 - 2.975 - 0.15612494995995996
5 - 2.8 - 0.45825756949558405
6 - 3.025 - 0.6118619125260207
7 - 3.95 - 0.5454356057317855
8 - 4.85 - 0.6144102863722256
9 - 4.85 - 0.6144102863722256
10 - 4.85 - 0.6144102863722256
11 - 4.85 - 0.6144102863722256
12 - 4.475 - 0.8656644846590397
13 - 4.8 - 1.382027496108526
14 - 5.725 - 1.2646639869941738
15 - 6.65 - 1.2359207094308278
16 - 6.65 - 1.2359207094308278
17 - 6.65 - 1.2359207094308278
18 - 6.65 - 1.2359207094308278
19 - 5.875 - 1.165922381636102
20 - 6.1 - 1.562049935181331
21 - 7.075 - 1.5872539179349974
22 - 7.975 - 1.5081031131855673
23 - 7.975 - 1.5081031131855673
24 - 7.975 - 1.5081031131855673
25 - 7.975 - 1.5081031131855673
26 - 7.075 - 1.4210471491122312
27 - 7.0 - 1.7888543819998317
28 - 7.975 - 1.7956544767855538
29 - 8.9 - 1.7291616465790582
30 - 8.9 - 1.7291616465790582
31 - 8.9 - 1.7291616465790582
32 - 8.9 - 1.7291616465790582
33 - 8.2 - 1.9646882704388502
34 - 7.85 - 1.9306734576307818
35 - 8.825 - 1.9734170871865884
36 - 9.725 - 1.9998437438960073
37 - 9.725 - 1.9998437438960073
38 - 9.725 - 1.9998437438960073
39 - 9.725 - 1.9998437438960073
40 - 8.775 - 2.2077986774160365
41 - 8.325 - 2.3063770290219243
42 - 9.325 - 2.3063770290219243
43 - 10.25 - 2.299456457513384
44 - 10.25 - 2.299456457513384
45 - 10.25 - 2.299456457513384
46 - 10.25 - 2.299456457513384
47 - 9.25 - 2.342541355024496
48 - 9.05 - 2.3339880033967617
49 - 10.0 - 2.3021728866442674
50 - 10.975 - 2.3397382332218277
51 - 10.975 - 2.3397382332218277
52 - 10.975 - 2.3397382332218277
53 - 10.975 - 2.3397382332218277
54 - 9.85 - 2.068211787994643
55 - 9.225 - 2.018508112443445
56 - 10.175 - 1.9734170871865884
57 - 11.05 - 1.9742087022399635
58 - 11.05 - 1.9742087022399635
59 - 11.05 - 1.9742087022399635
60 - 11.05 - 1.9742087022399635
61 - 9.95 - 2.0118399538730714
62 - 9.175 - 2.5287101455089704
63 - 10.1 - 2.4979991993593593
64 - 11.025 - 2.4848289679573523
65 - 11.025 - 2.4848289679573523
66 - 11.025 - 2.4848289679573523
67 - 11.025 - 2.4848289679573523
68 - 9.85 - 2.6976841920432424
69 - 9.4 - 2.896549671592048
70 - 10.325 - 2.805240631389756
71 - 11.225 - 2.724770632548729
72 - 11.225 - 2.724770632548729
73 - 11.225 - 2.724770632548729
74 - 11.225 - 2.724770632548729
75 - 9.95 - 2.568559907808265
76 - 9.375 - 2.7448816003609338
77 - 10.3 - 2.6476404589747453
78 - 11.225 - 2.5737861216503592
79 - 11.225 - 2.5737861216503592
80 - 11.225 - 2.5737861216503592
81 - 11.225 - 2.5737861216503592
