0 - 0.21826814413070653 - 0.01091325594031291
1 - 1.0 - 0.06739703430117286
2 - 1.9547930458317635 - 0.1217307771772822
3 - 1.9547930458317635 - 0.1326423730785427
4 - 1.9643520049426872 - 0.13413446497746614
5 - 1.9643520049426872 - 0.13413449610469613
6 - 1.9643520049426872 - 0.13413449610469613
7 - 1.9643685543018834 - 0.17942958973662215
8 - 1.9643864895986471 - 0.2281809121868946
9 - 1.9643864895986471 - 0.2590276450815214
10 - 1.9643864895986471 - 0.3004600482779221
11 - 1.9643864895986471 - 0.3300044319438717
12 - 1.9643864895986471 - 0.3306519682857167
13 - 1.9643864895986471 - 0.34288825801423556
14 - 2.9650741731343055 - 0.4004162385991844
15 - 4.2716415288291225 - 0.4654384056040034
16 - 4.2716415288291225 - 0.4947188968889681
17 - 4.2716415288291225 - 0.5032976453667327
18 - 4.2716415288291225 - 0.5236461272319043
19 - 4.2716415288291225 - 0.5239077524400857
20 - 4.2716415288291225 - 0.6091704522815027
21 - 4.2716415288291225 - 0.6294508481451877
22 - 5.275535138016161 - 0.6997702572176006
23 - 5.275535138016161 - 0.7696288112916425
24 - 5.5760568903840095 - 0.7894987461888447
25 - 6.094752428842627 - 0.8308658739096504
26 - 6.094752428842627 - 0.8443022416888832
27 - 6.094752428842627 - 0.8468586216566456
28 - 6.094752428842627 - 0.8900099631260703
29 - 6.094752428842627 - 0.9033768826447964
30 - 6.094752428842627 - 1.0587765084599747
31 - 6.094752428842627 - 1.185316229305177
32 - 6.401776468494663 - 1.289443072671367
33 - 6.401776483784551 - 1.3178616750430119
34 - 6.401776483784551 - 1.5070287926871135
35 - 6.401777535417805 - 1.5599832676686618
36 - 6.401797756941422 - 1.6662669278056694
37 - 8.0 - 1.7460857533340963
38 - 8.0 - 1.7916180095955423
39 - 9.0 - 1.8901595430567206
40 - 9.0 - 1.9129424731934392
41 - 9.0 - 1.9140997667457698
42 - 9.0 - 1.9990227284566582
43 - 9.0 - 2.0493790589657577
44 - 9.0 - 2.0933103040589467
45 - 9.0 - 2.1141361447789837
46 - 9.0 - 2.195900216662003
47 - 9.0 - 2.244596482513939
48 - 9.0 - 2.2500263617433505
49 - 9.0 - 2.2798744800129787
50 - 9.0 - 2.2450126618606805
51 - 9.0 - 2.2721658834091327
52 - 9.0 - 2.4157427122354163
53 - 27.305006127984914 - 2.9364898158442094
54 - 29.625091562271116 - 3.1789833439738726
55 - 30.230227083155995 - 3.248163592587118
56 - 30.230227083155995 - 2.955439409903884
57 - 30.230227083155995 - 2.9310067646439224
58 - 30.230227083155995 - 3.004392000867512
59 - 30.230227083155995 - 3.128765564796454
60 - 30.230227083155995 - 3.230125883687368
61 - 31.001709392949174 - 3.3442429490630636
62 - 31.001709392949174 - 3.364817893471264
63 - 31.001709392949174 - 3.359158301565645
64 - 31.001709392949174 - 3.446748793516651
65 - 31.001709392949174 - 3.4585138906437067
66 - 31.001709392949174 - 3.5491197956984
67 - 31.001709392949174 - 3.6479840747531527
68 - 31.001709392949174 - 4.261412842540414
69 - 31.001709392949174 - 4.320493860673456
70 - 31.001709392949174 - 4.038509057919262
71 - 31.001709392949174 - 3.9225141808771324
72 - 31.001709392949174 - 4.126452294231042
73 - 31.001709392949174 - 4.428227338604141
74 - 31.07370427859458 - 4.832631459701702
75 - 31.07370427859458 - 5.558320637302948
76 - 31.07370427859458 - 5.712870167180368
77 - 31.07370427859458 - 5.29472228174911
78 - 31.07370427859458 - 4.978267901919208
79 - 31.07370427859458 - 5.026355177503443
80 - 31.07370427859458 - 5.047968937414348
81 - 32.625 - 5.138449018553056
82 - 32.625 - 5.8305127204642
83 - 32.625 - 5.9879503361014645
84 - 32.625 - 5.701642586527991
85 - 32.625 - 5.196137052179742
86 - 32.625 - 5.287832517698543
87 - 32.625 - 5.308693501430787
88 - 34.12076930773887 - 5.4830838535141035
89 - 34.12076930773887 - 6.0468232314351065
90 - 34.265337495803834 - 6.173052566896496
91 - 34.265337495803834 - 6.014674852914355
92 - 34.265337495803834 - 5.852094990129413
93 - 34.265337495803834 - 5.9547670436750995
94 - 34.265337495803834 - 5.985572677545782
95 - 34.265337495803834 - 6.101347681727333
96 - 34.265337495803834 - 6.44543657989756
97 - 34.265337495803834 - 6.658514344120246
98 - 34.265337495803834 - 6.23515782820796
99 - 34.265337495803834 - 5.615859570080553
100 - 34.265337495803834 - 5.634559582632693
101 - 34.265337495803834 - 5.984610215615902
102 - 34.265337495803834 - 6.077991541164802
103 - 34.265337495803834 - 6.716055474354027
104 - 34.265337495803834 - 6.826966904217213
105 - 34.265337495803834 - 6.463823337036812
106 - 34.265337495803834 - 6.13894039137019
107 - 34.265337495803834 - 6.184871485199861
108 - 34.265337495803834 - 6.199262623444779
109 - 34.265337495803834 - 6.239581199383943
110 - 34.265337495803834 - 6.724948476199257
111 - 34.265337495803834 - 6.945294502255675
112 - 34.265337495803834 - 6.543100046138609
113 - 34.265337495803834 - 6.219176802116183
114 - 34.265337495803834 - 6.430326421740117
115 - 34.265337495803834 - 6.46195774470546
116 - 36.35671141624451 - 6.580571902194848
117 - 36.52933174133301 - 7.049449238953519
118 - 36.52933174133301 - 7.148905996232891
119 - 36.52933174133301 - 7.017582850228161
120 - 36.52933174133301 - 6.86481646770382
121 - 36.52933174133301 - 6.991789671883717
122 - 36.52933174133301 - 7.045132383363663
123 - 36.52933174133301 - 7.18953924602137
124 - 36.52933174133301 - 7.584112425360134
125 - 36.52933174133301 - 7.8178139957284545
126 - 36.52933174133301 - 7.374941494486178
127 - 36.52933174133301 - 6.780229670497443
128 - 36.52933174133301 - 6.917076788330142
129 - 36.52933174133301 - 6.9792722763601365
130 - 36.52933174133301 - 7.488538096665972
131 - 36.52933174133301 - 8.094246289378288
132 - 36.52933174133301 - 8.246218136288315
133 - 36.52933174133301 - 7.9709050216185675
134 - 36.52933174133301 - 7.722310295387111
135 - 36.52933174133301 - 7.805863283060134
136 - 38.9211960220337 - 7.890937330328645
137 - 38.9211960220337 - 7.937264862216686
138 - 38.9211960220337 - 8.538849853085697
139 - 38.9211960220337 - 8.815630983462349
140 - 38.9211960220337 - 8.269345164991112
141 - 38.9211960220337 - 7.944119360119122
142 - 38.9211960220337 - 8.113049320954598
143 - 38.9211960220337 - 8.216146812294706
144 - 44.7438757801056 - 8.441398672480194
145 - 44.7438757801056 - 9.257185423108357
146 - 44.7438757801056 - 9.560334936940771
147 - 44.7438757801056 - 8.828818148652362
148 - 44.7438757801056 - 8.443847472137566
149 - 44.7438757801056 - 8.465413650030278
150 - 44.7438757801056 - 8.765334975368022
151 - 44.7438757801056 - 8.801996478618126
152 - 44.7438757801056 - 9.594581003922865
153 - 44.7438757801056 - 10.019796736046528
154 - 44.7438757801056 - 9.714575086668178
155 - 44.7438757801056 - 9.323570407604617
156 - 44.7438757801056 - 9.372950060481324
157 - 44.7438757801056 - 9.49203680207589
158 - 44.94289186477661 - 9.533675908458303
159 - 44.94289186477661 - 10.20286843958129
160 - 44.94289186477661 - 10.500458156614432
161 - 44.94289186477661 - 9.62414990973953
162 - 44.94289186477661 - 9.05407739424151
163 - 44.94289186477661 - 9.08477744189467
164 - 44.94289186477661 - 9.138960374772354
165 - 44.94289186477661 - 9.6305146804039
166 - 44.94289186477661 - 10.593776710210424
167 - 44.94289186477661 - 11.027202538914024
168 - 44.94289186477661 - 10.517580797734528
169 - 44.94289186477661 - 10.316115875162025
170 - 44.94289186477661 - 10.495756756941326
171 - 49.59310222625733 - 10.6677231991895
172 - 49.59310222625733 - 10.726305995280056
173 - 49.59310222625733 - 11.352917529969485
174 - 49.59310222625733 - 11.839088276742746
175 - 49.59310222625733 - 11.047901551456912
176 - 49.59310222625733 - 10.448617906224635
177 - 49.59310222625733 - 10.4935734946786
178 - 49.59310222625733 - 10.498591115687198
179 - 49.59310222625733 - 10.576920385307524
180 - 49.59310222625733 - 11.401439697842715
181 - 49.59310222625733 - 11.850675485457279
182 - 49.59310222625733 - 11.278272186633505
183 - 49.59310222625733 - 10.625236832919361
184 - 49.59310222625733 - 10.670506773888825
185 - 49.59310222625733 - 10.696280043497008
186 - 49.59310222625733 - 10.782030908436335
187 - 49.59310222625733 - 11.652655166727163
188 - 49.59310222625733 - 11.976121293606491
189 - 49.59310222625733 - 11.343429175896139
190 - 56.82443147659303 - 10.738847316643051
191 - 56.82443147659303 - 10.785643636794816
192 - 56.82443147659303 - 10.785708048710365
193 - 64.92347414970396 - 11.133701077640278
194 - 64.92347414970396 - 12.01623510630209
195 - 64.92347414970396 - 12.512471011101182
196 - 64.92347414970396 - 11.79588582038417
197 - 64.92347414970396 - 10.634513352027463
198 - 64.92347414970396 - 10.685437897005434
199 - 64.92347414970396 - 10.734507597974298
200 - 64.92347414970396 - 10.778315094037971
201 - 64.92347414970396 - 12.004824974761743
202 - 64.92347414970396 - 12.912749058553462
203 - 64.92347414970396 - 11.532799991591897
204 - 64.92347414970396 - 10.939152571325407
205 - 64.92347414970396 - 10.977256156614455
206 - 64.92347414970396 - 11.03833894348115
207 - 64.92347414970396 - 11.23298784840043
208 - 64.92347414970396 - 12.171476258000363
209 - 64.92347414970396 - 12.947161471055509
210 - 64.92347414970396 - 11.791834528546685
211 - 64.92347414970396 - 11.610511411233373
212 - 64.92347414970396 - 11.752506180537882
213 - 64.92347414970396 - 11.873702172285146
214 - 64.92347414970396 - 11.891541765134043
215 - 64.92347414970396 - 12.542617271141001
216 - 64.92347414970396 - 12.742355343303604
217 - 64.92347414970396 - 11.805337750158442
218 - 64.92347414970396 - 11.19720046912244
219 - 64.92347414970396 - 11.247526306709542
220 - 64.92347414970396 - 11.249741832303972
221 - 64.92347414970396 - 11.281277152446178
222 - 64.92347414970396 - 12.330382129530179
223 - 64.92347414970396 - 12.796632701094028
224 - 64.92347414970396 - 11.966264244528537
225 - 64.92347414970396 - 10.884731519933645
226 - 64.92347414970396 - 11.019943645098133
227 - 64.92347414970396 - 11.242145772317244
228 - 64.92347414970396 - 11.286404485043759
229 - 64.92347414970396 - 12.462623864269316
230 - 64.92347414970396 - 12.893457121750654
231 - 64.92347414970396 - 12.373250222329748
232 - 64.92347414970396 - 11.36049505690129
233 - 64.92347414970396 - 11.636059005383318
234 - 64.92347414970396 - 11.669377925654377
235 - 67.23095274925234 - 11.92047472076246
236 - 67.23095274925234 - 12.949944524966885
237 - 67.23095274925234 - 13.300054991981657
238 - 67.23095274925234 - 12.751929215622473
239 - 67.23095274925234 - 11.437103281180722
240 - 67.23095274925234 - 11.774321772935789
241 - 67.23095274925234 - 11.899114802005702
242 - 67.23095274925234 - 11.968299038091327
243 - 67.23095274925234 - 13.193519269984003
244 - 67.23095274925234 - 13.581054973759516
245 - 67.23095274925234 - 12.593803103817777
246 - 67.23095274925234 - 12.147741870261205
247 - 67.23095274925234 - 12.270104003662071
248 - 67.23095274925234 - 12.354077644428537
249 - 67.23095274925234 - 12.517324196287088
250 - 67.23095274925234 - 13.72879613178634
251 - 67.23095274925234 - 14.220605878582536
252 - 67.23095274925234 - 13.390040015914462
253 - 67.23095274925234 - 12.423669970706303
254 - 67.23095274925234 - 12.467969455799205
255 - 67.23095274925234 - 12.512458446797522
256 - 67.23095274925234 - 12.834989228599863
257 - 67.23095274925234 - 14.249552561219307
258 - 67.23095274925234 - 14.92162752261672
259 - 67.23095274925234 - 14.198590452367522
260 - 67.23095274925234 - 13.165582017373575
261 - 67.23095274925234 - 13.319310845975414
262 - 67.23095274925234 - 13.49451533262066
263 - 67.23095274925234 - 13.54049480756633
264 - 67.23095274925234 - 14.495294994531184
265 - 67.23095274925234 - 14.843712098316871
266 - 67.23095274925234 - 14.241108356385258
267 - 67.23095274925234 - 13.501945019093222
268 - 67.23095274925234 - 13.551039598473315
269 - 67.23095274925234 - 13.554322474233803
270 - 67.23095274925234 - 13.560980698103947
271 - 67.23095274925234 - 14.901133171988548
272 - 67.23095274925234 - 15.395970042936856
273 - 67.23095274925234 - 14.542207747205051
274 - 67.23095274925234 - 13.361824029421845
275 - 67.23095274925234 - 13.413833764486096
276 - 67.23095274925234 - 13.537542843781802
277 - 68.6911137676239 - 13.696129267482856
278 - 68.6911137676239 - 14.882388114748434
279 - 68.6911137676239 - 15.311116482317015
280 - 68.6911137676239 - 14.691786356007714
281 - 68.6911137676239 - 14.275612019956373
282 - 68.6911137676239 - 14.307733338693003
283 - 68.6911137676239 - 14.34904389165286
284 - 68.6911137676239 - 14.504616902689866
285 - 68.6911137676239 - 15.782691090853907
286 - 68.6911137676239 - 16.144039887385635
287 - 68.6911137676239 - 15.17580833267839
288 - 68.6911137676239 - 13.355497301622359
289 - 68.6911137676239 - 14.021786786632964
290 - 68.6911137676239 - 14.080905132853555
291 - 68.6911137676239 - 14.694904069921515
292 - 68.6911137676239 - 15.789390994745412
293 - 68.6911137676239 - 16.313955617991294
294 - 68.6911137676239 - 15.351537990922656
295 - 68.6911137676239 - 14.68341331482693
296 - 68.6911137676239 - 14.76320152971185
297 - 68.6911137676239 - 14.782037050676944
298 - 68.6911137676239 - 14.88829952236494
299 - 68.6911137676239 - 16.00597986612391
300 - 68.6911137676239 - 16.4658986483076
301 - 68.75099939346315 - 15.423196678186002
302 - 68.75099939346315 - 15.030411223758904
303 - 68.75099939346315 - 15.12505108941735
304 - 68.75099939346315 - 15.306374268342472
305 - 68.75099939346315 - 15.572584946518237
306 - 68.75099939346315 - 16.687758411108856
307 - 68.75099939346315 - 17.136977017208256
308 - 68.75099939346315 - 16.21038511577479
309 - 68.75099939346315 - 15.211663322223213
310 - 68.75099939346315 - 15.254643013480983
311 - 68.75099939346315 - 15.294195049407557
312 - 68.75099939346315 - 15.330095060154402
313 - 68.75099939346315 - 16.610986756358955
314 - 68.75099939346315 - 17.26052560697602
315 - 68.75099939346315 - 16.079236024507555
316 - 68.75099939346315 - 15.433766014618104
317 - 68.75099939346315 - 15.508429970715804
318 - 68.75099939346315 - 15.51377116883113
319 - 68.75099939346315 - 15.670798850035144
320 - 68.75099939346315 - 16.75954100102569
321 - 68.75099939346315 - 17.39110715653068
322 - 68.75099939346315 - 16.700529262247017
323 - 68.75099939346315 - 15.73614054754125
324 - 68.75099939346315 - 15.765648492997064
325 - 68.75099939346315 - 15.813937132848249
326 - 68.75099939346315 - 16.13475642780449
327 - 68.75099939346315 - 17.236219354361985
328 - 68.75099939346315 - 17.864669804511568
329 - 68.75099939346315 - 17.03588612540414
330 - 68.75099939346315 - 16.050504921961622
331 - 68.75099939346315 - 16.157661139969164
332 - 68.75099939346315 - 16.28372312529971
333 - 68.75099939346315 - 16.432931492160773
334 - 68.75099939346315 - 17.79627294133585
335 - 68.75099939346315 - 18.14007951237918
336 - 68.75099939346315 - 17.107804780505695
337 - 68.75099939346315 - 16.61709719473545
338 - 68.75099939346315 - 16.63938487231284
339 - 68.75099939346315 - 16.769732603365885
340 - 68.75099939346315 - 16.86433196575015
341 - 68.75099939346315 - 18.30637572848328
342 - 68.75099939346315 - 18.952132596598712
343 - 68.75099939346315 - 17.653750421031212
344 - 68.75099939346315 - 16.495811574979932
345 - 68.75099939346315 - 16.853356980343303
346 - 70.54110410690308 - 16.950372452202974
347 - 70.54110410690308 - 17.193863163408288
348 - 71.76706332206727 - 18.619812083307863
349 - 71.76706332206727 - 19.460089479492883
350 - 71.76706332206727 - 18.703078883495678
351 - 73.57265540558356 - 17.435405706156565
352 - 74.54761596679687 - 17.67938085354618
353 - 74.54761596679687 - 17.758431604433376
354 - 74.54761596679687 - 17.817766794559066
355 - 74.54761596679687 - 19.199790232033248
356 - 74.54761596679687 - 19.771678721171263
357 - 74.54761596679687 - 18.72826457813228
358 - 74.54761596679687 - 17.735251548213967
359 - 74.54761596679687 - 17.892434542949573
360 - 74.54761596679687 - 17.913932302580662
361 - 74.54761596679687 - 18.106271748877127
362 - 74.54761596679687 - 19.231119437921954
363 - 74.54761596679687 - 20.073606602900902
364 - 74.54761596679687 - 19.13175178902872
365 - 74.54761596679687 - 17.85616270856614
366 - 74.54761596679687 - 17.944004833430206
367 - 74.54761596679687 - 18.139740796052813
368 - 74.54761596679687 - 18.338648577670465
369 - 74.54761596679687 - 19.638457267865668
370 - 74.54761596679687 - 20.20945907469355
371 - 74.54761596679687 - 18.959321476865448
372 - 74.54761596679687 - 17.891935199840958
373 - 74.54761596679687 - 17.948034150116385
374 - 74.54761596679687 - 17.99196922216718
375 - 74.54761596679687 - 18.051630507020043
376 - 74.54761596679687 - 19.5864905655206
377 - 74.54761596679687 - 20.27362693379143
378 - 74.54761596679687 - 18.809439518310732
379 - 74.54761596679687 - 17.662249153462245
380 - 74.54761596679687 - 17.90826916693745
381 - 74.54761596679687 - 17.915601884100997
382 - 74.54761596679687 - 18.001647049982243
383 - 74.54761596679687 - 19.455525174831894
384 - 74.54761596679687 - 20.05640781511429
385 - 74.54761596679687 - 18.604390633635933
386 - 74.54761596679687 - 17.439355453570613
387 - 74.54761596679687 - 17.544390160536555
388 - 74.54761596679687 - 17.54804840099916
389 - 74.54761596679687 - 17.805553959209302
390 - 74.54761596679687 - 19.430656492598004
391 - 74.54761596679687 - 20.252994185621052
392 - 74.54761596679687 - 19.06644580645733
393 - 74.54761596679687 - 18.071908574520045
394 - 74.54761596679687 - 18.118172685312597
395 - 74.54761596679687 - 18.17438967429292
396 - 74.54761596679687 - 18.198148093445297
397 - 74.54761596679687 - 19.558975983809383
398 - 74.54761596679687 - 20.370025878437747
399 - 74.54761596679687 - 19.574718297817192
400 - 74.54761596679687 - 18.322990174962374
401 - 74.54761596679687 - 18.477812914731608
402 - 74.54761596679687 - 18.488267345795403
403 - 74.54761596679687 - 18.54428392102644
404 - 74.54761596679687 - 19.93441654634929
405 - 74.54761596679687 - 20.530764249429662
406 - 74.54761596679687 - 19.228144280750023
407 - 74.54761596679687 - 18.487971509602684
408 - 74.54761596679687 - 18.538960033980917
409 - 74.54761596679687 - 18.55280816471417
410 - 74.54761596679687 - 18.63743017348603
411 - 74.54761596679687 - 20.166382482645798
412 - 74.54761596679687 - 20.730948229839942
413 - 74.54761596679687 - 20.006474385397965
414 - 74.54761596679687 - 19.07282946057224
415 - 74.54761596679687 - 19.14590324463375
416 - 74.54761596679687 - 19.146088076273642
417 - 74.54761596679687 - 19.261857132269892
418 - 74.54761596679687 - 20.451390924549024
419 - 74.54761596679687 - 20.934295355814918
420 - 74.54761596679687 - 20.12665749274236
421 - 74.54761596679687 - 19.268279857766892
422 - 74.54761596679687 - 19.448385770246453
423 - 74.54761596679687 - 19.53568178558
424 - 74.54761596679687 - 19.89250182403901
425 - 74.54761596679687 - 21.254378226526452
426 - 74.54761596679687 - 21.70094848406614
427 - 74.54761596679687 - 20.75524986030068
428 - 74.54761596679687 - 19.961876596062428
429 - 74.54761596679687 - 20.013358544819287
430 - 74.54761596679687 - 20.04580680389842
431 - 74.54761596679687 - 20.050381139378878
432 - 74.54761596679687 - 21.218341761902582
433 - 74.54761596679687 - 21.726001997712594
434 - 74.54761596679687 - 20.41404389382516
435 - 74.54761596679687 - 19.768575942920002
436 - 74.54761596679687 - 19.802195392437977
437 - 74.54761596679687 - 20.01107441173877
438 - 74.54761596679687 - 20.12641145696583
439 - 74.54761596679687 - 21.4399739873154
440 - 74.54761596679687 - 22.09142924180601
441 - 74.54761596679687 - 20.84497288945916
442 - 74.54761596679687 - 19.80217133251426
443 - 74.54761596679687 - 19.930365305788868
444 - 74.54761596679687 - 20.02434062876713
445 - 74.54761596679687 - 20.12718198113541
446 - 74.54761596679687 - 21.39325811181478
447 - 74.54761596679687 - 21.851332205670328
448 - 74.54761596679687 - 20.6173993863471
449 - 74.54761596679687 - 19.348998863915618
450 - 74.54761596679687 - 19.641423299358177
451 - 74.54761596679687 - 19.699000572501397
452 - 74.54761596679687 - 20.13401099726596
453 - 74.54761596679687 - 20.979037682073184
454 - 74.54761596679687 - 21.240627059442378
455 - 74.54761596679687 - 20.23259889334959
456 - 74.54761596679687 - 19.043696611627972
457 - 74.54761596679687 - 19.18172895009391
458 - 74.54761596679687 - 19.27083917468456
459 - 74.54761596679687 - 19.494186213495595
460 - 74.54761596679687 - 20.71467605826043
461 - 74.54761596679687 - 21.266338690668547
462 - 74.54761596679687 - 20.071115797055054
463 - 74.54761596679687 - 19.19127194529495
464 - 74.54761596679687 - 19.252767021660613
465 - 74.54761596679687 - 19.430697639040396
466 - 74.54761596679687 - 19.690415905997654
467 - 74.54761596679687 - 20.85215848554738
468 - 74.54761596679687 - 21.495631567579967
469 - 74.54761596679687 - 20.166005306109334
470 - 74.54761596679687 - 19.28681336920508
471 - 74.54761596679687 - 19.366062183121585
472 - 74.54761596679687 - 19.471013693520874
473 - 74.54761596679687 - 19.569384157740053
474 - 74.54761596679687 - 20.8071888812803
475 - 74.54761596679687 - 21.572353010272455
476 - 74.54761596679687 - 20.696403925701485
477 - 74.54761596679687 - 19.36433236244085
478 - 74.54761596679687 - 19.424709430758845
479 - 74.54761596679687 - 19.432386634417337
480 - 74.54761596679687 - 19.66288953416244
481 - 74.54761596679687 - 21.420899555660434
482 - 74.54761596679687 - 22.009715835666324
483 - 74.54761596679687 - 20.737965808989493
484 - 74.54761596679687 - 19.81667124266726
485 - 74.54761596679687 - 19.818901914518847
486 - 74.54761596679687 - 19.83676832224277
487 - 74.54761596679687 - 19.927720915160236
488 - 74.54761596679687 - 21.40707960557757
489 - 74.54761596679687 - 22.095472661109092
490 - 74.54761596679687 - 20.91489261645939
491 - 74.54761596679687 - 20.102441937674087
492 - 74.54761596679687 - 20.1228055836467
493 - 74.54761596679687 - 20.14984104459544
494 - 74.54761596679687 - 20.591462576812077
495 - 74.54761596679687 - 21.75526627380061
496 - 74.54761596679687 - 22.26372038989792
497 - 74.54761596679687 - 21.309647937981385
498 - 74.54761596679687 - 19.949346059058183
499 - 74.54761596679687 - 19.951697243682794
500 - 74.54761596679687 - 20.07870258262926
501 - 74.54761596679687 - 20.097085345830997
502 - 74.54761596679687 - 21.80487591339631
503 - 74.54761596679687 - 22.190388091196862
504 - 74.54761596679687 - 21.332058139085568
505 - 74.54761596679687 - 20.21009952286797
506 - 74.54761596679687 - 20.33448441230079
507 - 74.54761596679687 - 20.33569880493304
508 - 74.54761596679687 - 20.356371149735182
509 - 74.54761596679687 - 21.81333907925883
510 - 74.54761596679687 - 22.353296987048115
511 - 74.54761596679687 - 21.10240607342545
512 - 74.54761596679687 - 20.17799817209158
513 - 74.54761596679687 - 20.335467797133653
514 - 74.54761596679687 - 20.392356002838238
515 - 74.54761596679687 - 20.757161798149212
516 - 74.54761596679687 - 22.178361696493354
517 - 74.54761596679687 - 22.66466080636837
518 - 74.54761596679687 - 21.720527461198305
519 - 74.54761596679687 - 20.039206935487243
520 - 74.54761596679687 - 20.0868769582011
521 - 74.54761596679687 - 20.14250006289131
522 - 74.54761596679687 - 20.144692631528365
523 - 74.54761596679687 - 22.213150411297686
524 - 74.54761596679687 - 22.738904616152144
525 - 74.54761596679687 - 21.816429447700628
526 - 74.54761596679687 - 20.617948666092225
527 - 74.54761596679687 - 20.678464617134402
528 - 74.54761596679687 - 20.768499773445733
529 - 74.54761596679687 - 20.79545208583162
530 - 74.54761596679687 - 22.28563254453026
531 - 74.54761596679687 - 22.8560681443969
532 - 74.54761596679687 - 21.44960858475107
533 - 74.54761596679687 - 20.185440116260676
534 - 74.54761596679687 - 20.209562262921537
535 - 74.54761596679687 - 20.21051350125967
536 - 74.54761596679687 - 20.590012289735693
537 - 74.54761596679687 - 22.32263091236282
538 - 74.54761596679687 - 23.0406606837195
539 - 74.54761596679687 - 21.970440541911596
540 - 74.54761596679687 - 20.676129645888786
541 - 74.54761596679687 - 20.700993752984537
542 - 74.54761596679687 - 20.789241786964322
543 - 74.54761596679687 - 20.803513870411518
544 - 74.54761596679687 - 22.336181067073923
545 - 74.54761596679687 - 23.064440211407867
546 - 74.54761596679687 - 21.938592873599212
547 - 74.54761596679687 - 20.778316830260643
548 - 74.54761596679687 - 20.858713433247058
549 - 74.54761596679687 - 20.87986105754152
550 - 74.54761596679687 - 20.921783183785056
551 - 74.54761596679687 - 22.543826671010596
552 - 74.54761596679687 - 23.131628921776354
553 - 74.54761596679687 - 22.41294500755607
554 - 74.54761596679687 - 20.924590373911393
555 - 74.54761596679687 - 21.00597027220466
556 - 74.54761596679687 - 21.1866994158806
557 - 74.54761596679687 - 21.235053386580603
558 - 74.54761596679687 - 22.735863114908305
559 - 74.54761596679687 - 23.438934761472773
560 - 74.54761596679687 - 21.827396860336126
561 - 74.54761596679687 - 21.1226730913161
562 - 74.54761596679687 - 21.21914614906182
563 - 74.54761596679687 - 21.32198555248762
564 - 74.54761596679687 - 21.409449169684258
565 - 74.54761596679687 - 22.612572166927578
566 - 74.54761596679687 - 23.31399316160937
567 - 74.54761596679687 - 21.702411544675876
568 - 74.54761596679687 - 20.289560572282976
569 - 74.54761596679687 - 20.390702086144476
570 - 74.54761596679687 - 20.49140937256137
571 - 74.54761596679687 - 20.5972147903988
572 - 74.54761596679687 - 22.357380958127735
573 - 74.54761596679687 - 23.18685496078455
574 - 74.54761596679687 - 21.655938420467532
575 - 74.54761596679687 - 20.602110053200583
576 - 74.54761596679687 - 20.75159470161087
