0 - 1.0 - 0.049879036242735104
1 - 1.0094736839595595 - 0.07697498421335197
2 - 1.785881922119542 - 0.12630707213635697
3 - 1.785975969778864 - 0.17370461590158157
4 - 1.8516888248293029 - 0.18915841204626788
5 - 1.8516888248293029 - 0.18968154650056843
6 - 1.8516888248293029 - 0.18968154650056843
7 - 2.407545703335812 - 0.3235703884201482
8 - 3.644625086533396 - 0.3664342121733912
9 - 3.644625086533396 - 0.39500208919479707
10 - 4.128988364809438 - 0.41000078893466674
11 - 4.454811444094305 - 0.4761909527668367
12 - 4.454811444094305 - 0.47619155528744683
13 - 4.454811444094305 - 0.4761922790721383
14 - 4.454811444094305 - 0.43924224676641827
15 - 5.9640349708105385 - 0.5683470286810433
16 - 5.9640349708105385 - 0.5982836324968505
17 - 5.9640349708105385 - 0.6299659641839955
18 - 6.100263097097998 - 0.6642250135005913
19 - 6.100263097097998 - 0.6749597594453924
20 - 6.100263097097998 - 0.7154658667659113
21 - 6.100263097097998 - 0.8021402386650959
22 - 7.615929989312825 - 0.922599976860974
23 - 7.615929989312825 - 0.9589854525571129
24 - 7.615929989312825 - 0.9878330634357306
25 - 9.0 - 1.1056664918496417
26 - 9.0 - 1.1570881397157513
27 - 9.0 - 1.1570882419808517
28 - 9.0 - 1.21667726211141
29 - 9.0 - 1.159048377668978
30 - 9.650226048858544 - 1.2230853193234366
31 - 9.650226048858544 - 1.279179809151708
32 - 9.650226048858544 - 1.3098957585024613
33 - 9.650226048858544 - 1.3842392850661396
34 - 9.650226048858544 - 1.4345372246087225
35 - 9.650226048858544 - 1.3699775449407707
36 - 9.650226048858544 - 1.4588713881412745
37 - 9.650226048858544 - 1.5374587450102764
38 - 42.781689303291564 - 2.553895653934169
39 - 42.781689303291564 - 2.6786764413211555
40 - 46.79676825968843 - 3.3831082270824524
41 - 46.79676825968843 - 3.493875251454617
42 - 46.79676825968843 - 3.5529151588829415
43 - 46.79676825968843 - 3.5971045234316654
44 - 48.78015326274069 - 3.856788698587734
45 - 48.78015326274069 - 3.888784696413091
46 - 48.81142987495974 - 3.971344122468478
47 - 56.09279410613211 - 4.509334204716846
48 - 56.09279410613211 - 4.610723916276547
49 - 59.299165832117986 - 4.925812977937158
50 - 59.299165832117986 - 4.615370004756506
51 - 59.299165832117986 - 4.659007780751925
52 - 59.39189709362231 - 4.790157998750177
53 - 59.39189709362231 - 5.388961887240794
54 - 59.39189709362231 - 7.122672388350613
55 - 59.39189709362231 - 7.300309620304695
56 - 59.39189709362231 - 6.775863988472627
57 - 59.39189709362231 - 6.776990234226558
58 - 59.39189709362231 - 6.871118697475841
59 - 59.39189709362231 - 6.961048452272796
60 - 61.29541052065399 - 7.3308903200364455
61 - 61.29541052065399 - 8.101822622862533
62 - 61.29541052065399 - 8.396978436354997
63 - 61.29541052065399 - 6.838538281460503
64 - 61.29541052065399 - 6.817665103662426
65 - 61.29541052065399 - 6.985299844303313
66 - 61.29541052065399 - 7.034047241755523
67 - 61.29541052065399 - 8.641481861898614
68 - 61.29541052065399 - 9.048408301700993
69 - 61.29541052065399 - 9.434729505435916
70 - 61.29541052065399 - 9.85472273906501
71 - 61.29541052065399 - 9.485352856922493
72 - 61.29541052065399 - 10.106114134652978
73 - 61.29541052065399 - 10.186021570856003
74 - 61.29541052065399 - 10.623328411228503
75 - 61.29541052065399 - 11.421548936827005
76 - 61.29541052065399 - 12.152099877772311
77 - 61.29541052065399 - 10.735064204356263
78 - 61.29541052065399 - 10.291193480092764
79 - 61.749884983112935 - 10.672465290419874
80 - 61.749884983112935 - 10.71661362311563
81 - 61.749884983112935 - 10.949930865787705
82 - 61.749884983112935 - 12.0713967417986
83 - 61.749884983112935 - 13.06117777514439
84 - 61.749884983112935 - 12.27298191374096
85 - 61.749884983112935 - 11.868499429307551
86 - 62.11597706895125 - 11.962604766958666
87 - 62.11597706895125 - 12.316860713591575
88 - 62.11597706895125 - 12.466189698913244
89 - 62.11597706895125 - 13.191632437394125
90 - 62.11597706895125 - 13.526142949830424
91 - 62.11597706895125 - 12.742392654961671
92 - 62.11597706895125 - 12.350044273753957
93 - 62.11597706895125 - 12.521283122581536
94 - 62.11597706895125 - 12.774439535737592
95 - 62.11597706895125 - 12.919015935962273
96 - 62.11597706895125 - 14.156183275288186
