0 - 0.7513985942502465 - 0.2517870272439975
1 - 1.280260158883799 - 0.3341462025791317
2 - 1.3529128742006555 - 0.39448808124754686
3 - 1.7557419875291405 - 0.45433258774989344
4 - 1.7557419875291405 - 0.5867610372939307
5 - 1.7557419875291405 - 0.6038300844700875
6 - 1.7557419875291405 - 0.5669984268461287
7 - 1.7557419875291405 - 0.6034337708412861
8 - 1.7557419875291405 - 0.6030782594180081
9 - 1.7557419875291405 - 0.6620817463762412
10 - 1.7557419875291405 - 0.6755326471691914
11 - 1.7557419875291405 - 0.730079708620751
12 - 1.7557419875291405 - 0.7719118407132004
13 - 1.7557419875291405 - 0.6939025927725015
14 - 1.7557419875291405 - 0.6414261844589626
15 - 1.7557419875291405 - 0.6575278669121469
16 - 1.9194088539869287 - 0.6955899600603012
17 - 1.9194088539869287 - 0.7254489795787483
18 - 1.9194088539869287 - 0.8019655610813157
19 - 1.9194088539869287 - 0.8202448178742777
20 - 1.9194088539869287 - 0.733428059426527
21 - 1.9194088539869287 - 0.664769111356273
22 - 1.9194088539869287 - 0.7311793796653893
23 - 1.9194088539869287 - 0.7592481767990311
24 - 2.1315864289654263 - 0.8115869910259453
25 - 2.1315864289654263 - 0.8664918785828244
26 - 2.1315864289654263 - 0.8812883607533761
27 - 2.1315864289654263 - 0.8268737885536162
28 - 2.1315864289654263 - 0.826461956414285
29 - 2.1315864289654263 - 0.8695840536631426
30 - 2.1315864289654263 - 0.8958793616897933
31 - 2.1315864289654263 - 0.9088910423901815
32 - 2.1315864289654263 - 0.9848234572437118
33 - 2.1315864289654263 - 0.9943519789443988
34 - 2.1315864289654263 - 0.8720037246398077
35 - 2.1315864289654263 - 0.8011646224867401
36 - 2.1315864289654263 - 0.8248590171632717
37 - 2.1315864289654263 - 0.888835749953792
38 - 2.1315864289654263 - 0.8906512727214496
39 - 2.1315864289654263 - 0.9316314384496451
40 - 2.1315864289654263 - 0.95952340588707
41 - 2.1315864289654263 - 0.893489164656877
42 - 2.1315864289654263 - 0.8635294331189307
43 - 2.011397956071945 - 0.8724334104276231
44 - 2.011397956071945 - 0.9102524653294489
45 - 2.011397956071945 - 0.9301393187172836
46 - 2.3632834125595923 - 1.0243623387855083
47 - 2.3632834125595923 - 1.030230211373786
48 - 2.3632834125595923 - 0.9329269918758765
49 - 2.3632834125595923 - 0.8982027746992685
50 - 2.3632834125595923 - 0.9202824871975412
51 - 2.3632834125595923 - 0.9660387830414583
52 - 2.3632834125595923 - 0.9692263473891372
53 - 2.3632834125595923 - 1.042949738547042
54 - 2.3632834125595923 - 1.0486531543547715
55 - 2.3632834125595923 - 0.9763612337696488
56 - 2.3632834125595923 - 0.9024755393826928
57 - 2.3632834125595923 - 0.9211152633648098
58 - 2.3632834125595923 - 0.9674583287212342
59 - 2.3632834125595923 - 0.9901321083913773
60 - 2.3632834125595923 - 1.0422157914477994
61 - 2.3632834125595923 - 1.0529360325773516
62 - 2.3632834125595923 - 0.9661011003964204
63 - 2.3632834125595923 - 0.9049604163330874
64 - 2.3632834125595923 - 0.9254785678405512
65 - 2.3632834125595923 - 0.9886526462954951
66 - 2.3632834125595923 - 1.0021293954142005
67 - 2.3632834125595923 - 1.0398034513593797
68 - 2.3632834125595923 - 1.0533766660745483
69 - 2.3632834125595923 - 0.9797216241361009
70 - 2.3632834125595923 - 0.9474574769880956
71 - 2.3632834125595923 - 0.9400533545134516
72 - 2.3632834125595923 - 0.9680201212714437
73 - 2.3632834125595923 - 1.006961884267437
74 - 2.3632834125595923 - 1.0647783506966162
75 - 2.3632834125595923 - 1.093880144189074
76 - 2.3632834125595923 - 1.006385111667924
77 - 2.3632834125595923 - 0.9641112492219627
78 - 2.3632834125595923 - 0.9459463306085869
79 - 2.3632834125595923 - 1.0291334661537879
80 - 2.3632834125595923 - 1.043698618559562
81 - 2.397227821593182 - 1.089223272558064
82 - 2.397227821593182 - 1.0974016944755622
83 - 2.397227821593182 - 0.9802044015809379
84 - 2.397227821593182 - 0.9003401093520512
85 - 2.397227821593182 - 0.9107484251823008
86 - 2.397227821593182 - 0.9728148940919654
87 - 2.397227821593182 - 1.0277495622800807
88 - 2.7641203248968513 - 1.1085053221717502
89 - 2.7641203248968513 - 1.115267999538421
90 - 2.7641203248968513 - 1.0553774614009506
91 - 2.7641203248968513 - 1.0542166766422751
92 - 2.7641203248968513 - 1.0780885955804638
93 - 2.7641203248968513 - 1.1160469622442557
94 - 2.7641203248968513 - 1.1393708949597756
95 - 2.7641203248968513 - 1.1987611807670648
96 - 2.7641203248968513 - 1.219158501490723
97 - 2.7641203248968513 - 1.090143951882289
98 - 2.8348948324050736 - 1.0311068261954086
99 - 2.8348948324050736 - 1.0518103099884537
100 - 2.8348948324050736 - 1.0721813851675903
101 - 2.8348948324050736 - 1.103217577543301
102 - 2.8348948324050736 - 1.1358734620361177
103 - 2.8348948324050736 - 1.1551561823360008
104 - 2.8348948324050736 - 1.1057488232444332
105 - 2.8348948324050736 - 1.03896993013448
106 - 2.8348948324050736 - 1.0762915996816915
107 - 2.8348948324050736 - 1.1493466313265155
108 - 2.8348948324050736 - 1.1507284782699994
