0 - 2.0 - 0.0
1 - 2.9875 - 0.11110243021644485
2 - 2.9875 - 0.11110243021644485
3 - 2.9875 - 0.11110243021644485
4 - 2.9875 - 0.11110243021644485
5 - 2.825 - 0.46837484987988
6 - 3.1625 - 0.679038842777054
7 - 4.1375 - 0.6845390785046536
8 - 5.0625 - 0.5988269783501742
9 - 5.0625 - 0.5988269783501742
10 - 5.0625 - 0.5988269783501742
11 - 5.0625 - 0.5988269783501742
12 - 4.55 - 1.0943034314119646
13 - 4.775 - 1.4914338738274648
14 - 5.7 - 1.5198684153570667
15 - 6.6625 - 1.4911719384430495
16 - 6.6625 - 1.4911719384430495
17 - 6.6625 - 1.4911719384430495
18 - 6.6625 - 1.4911719384430495
19 - 5.9625 - 1.426917569448215
20 - 6.2875 - 1.8110338897988634
21 - 7.25 - 1.799305421544658
22 - 8.1375 - 1.7229607511490213
23 - 8.1375 - 1.7229607511490213
24 - 8.1375 - 1.7229607511490213
25 - 8.1375 - 1.7229607511490213
26 - 7.45 - 1.8901058171435796
27 - 7.35 - 2.2918333272731686
28 - 8.3125 - 2.2726292592501753
29 - 9.225 - 2.2303306929690945
30 - 9.225 - 2.2303306929690945
31 - 9.225 - 2.2303306929690945
32 - 9.225 - 2.2303306929690945
33 - 8.375 - 2.5118469300496797
34 - 8.3375 - 2.683019520987501
35 - 9.3 - 2.699073915253156
36 - 10.2375 - 2.6983501903941227
37 - 10.2375 - 2.6983501903941227
38 - 10.2375 - 2.6983501903941227
39 - 10.2375 - 2.6983501903941227
40 - 9.2375 - 2.5896126640870443
41 - 8.7875 - 2.90126588750497
42 - 9.75 - 2.934706118165838
43 - 10.7125 - 2.9334013959906686
44 - 10.7125 - 2.9334013959906686
45 - 10.7125 - 2.9334013959906686
46 - 10.7125 - 2.9334013959906686
47 - 9.6875 - 3.0355961111452228
48 - 9.65 - 3.049999999999999
49 - 10.5875 - 3.0442312247922296
50 - 11.525 - 2.991550601276869
51 - 11.525 - 2.991550601276869
52 - 11.525 - 2.991550601276869
53 - 11.525 - 2.991550601276869
54 - 10.6875 - 3.108833181436405
55 - 10.0875 - 3.0298256963066366
56 - 11.025 - 2.957934245381395
57 - 11.875 - 2.8825986539926087
58 - 11.875 - 2.8825986539926087
59 - 11.875 - 2.8825986539926087
60 - 11.875 - 2.8825986539926087
61 - 10.7875 - 2.986192182362012
62 - 10.4625 - 3.3088659311008652
63 - 11.3875 - 3.2268163489730854
64 - 12.2125 - 3.101184249605301
65 - 12.2125 - 3.101184249605301
66 - 12.2125 - 3.101184249605301
67 - 12.2125 - 3.101184249605301
68 - 11.2875 - 3.2488219018591953
69 - 11.0 - 3.278719262151
70 - 11.9375 - 3.245549837854905
71 - 12.7125 - 3.058568905550437
72 - 12.7125 - 3.058568905550437
73 - 12.7125 - 3.058568905550437
74 - 12.7125 - 3.058568905550437
75 - 11.4875 - 3.2518984839628686
76 - 10.975 - 3.622757927325534
77 - 11.8125 - 3.4499773549981456
78 - 12.575 - 3.239502276585094
79 - 12.575 - 3.239502276585094
