0 - 2.675 - 1.3301785594423028
1 - 3.525 - 1.4489220130842102
2 - 3.525 - 1.4489220130842102
3 - 3.525 - 1.4489220130842102
4 - 3.525 - 1.4489220130842102
5 - 3.525 - 1.4489220130842102
6 - 3.325 - 1.4728798321655439
7 - 4.125 - 1.6153559979150107
8 - 4.925 - 1.8355857375780624
9 - 4.925 - 1.8355857375780624
10 - 4.925 - 1.8355857375780624
11 - 4.925 - 1.8355857375780624
12 - 4.8 - 1.8193405398660252
13 - 4.55 - 2.024228247999716
14 - 5.375 - 2.254855871225476
15 - 6.15 - 2.515452245621053
16 - 6.15 - 2.515452245621053
17 - 6.15 - 2.515452245621053
18 - 6.15 - 2.515452245621053
19 - 5.925 - 2.3915214822367785
20 - 5.825 - 2.4787849846245233
21 - 6.65 - 2.7069355367278334
22 - 7.475 - 2.9663740492392394
23 - 7.475 - 2.9663740492392394
24 - 7.475 - 2.9663740492392394
25 - 7.475 - 2.9663740492392394
26 - 7.2 - 2.882707061079915
27 - 6.7 - 2.9
28 - 7.55 - 3.1460292433478743
29 - 8.325 - 3.4741006030338277
30 - 8.325 - 3.4741006030338277
31 - 8.325 - 3.4741006030338277
32 - 8.325 - 3.4741006030338277
33 - 8.025 - 3.3725917333706437
34 - 7.775 - 3.6639289021486214
35 - 8.625 - 3.8450455133847248
36 - 9.475 - 4.049614179153367
37 - 9.475 - 4.049614179153367
38 - 9.475 - 4.049614179153367
39 - 9.475 - 4.049614179153367
40 - 8.8 - 3.749666651850534
41 - 8.65 - 3.7586566749305526
42 - 9.5 - 3.9560080889704965
43 - 10.35 - 4.174625731727336
44 - 10.35 - 4.174625731727336
45 - 10.35 - 4.174625731727336
46 - 10.35 - 4.174625731727336
47 - 9.775 - 3.9146359984039383
48 - 9.15 - 4.269367634673781
49 - 9.975 - 4.502707518815763
50 - 10.75 - 4.6944115712195496
51 - 10.75 - 4.6944115712195496
52 - 10.75 - 4.6944115712195496
53 - 10.75 - 4.6944115712195496
54 - 9.925 - 4.401065211968576
55 - 9.7 - 4.6808118953873805
56 - 10.45 - 4.748420790115383
57 - 11.125 - 4.791594202350613
58 - 11.125 - 4.791594202350613
59 - 11.125 - 4.791594202350613
60 - 11.125 - 4.791594202350613
61 - 10.3 - 4.439594576084623
62 - 10.45 - 4.289230700253834
63 - 11.125 - 4.273098992534575
64 - 11.8 - 4.290687590584988
65 - 11.8 - 4.290687590584988
66 - 11.8 - 4.290687590584988
67 - 11.8 - 4.290687590584988
68 - 10.775 - 4.015516778697356
69 - 10.275 - 4.30108997813345
70 - 11.1 - 4.27668095606862
71 - 11.925 - 4.285950886326161
72 - 11.925 - 4.285950886326161
73 - 11.925 - 4.285950886326161
74 - 11.925 - 4.285950886326161
75 - 10.775 - 4.009286096052512
76 - 10.125 - 4.231946951463357
77 - 10.95 - 4.194937425039854
78 - 11.75 - 4.115519408288582
79 - 11.75 - 4.115519408288582
80 - 11.75 - 4.115519408288582
81 - 11.75 - 4.115519408288582
82 - 10.925 - 3.945804734144862
83 - 10.45 - 4.283398183685472
84 - 11.275 - 4.177244905437075
85 - 11.975 - 4.052699717472292
86 - 11.975 - 4.052699717472292
87 - 11.975 - 4.052699717472292
88 - 11.975 - 4.052699717472292
89 - 11.25 - 3.9035240488563665
90 - 10.8 - 4.001249804748511
91 - 11.6 - 3.871692136521188
92 - 12.3 - 3.762977544445355
93 - 12.3 - 3.762977544445355
94 - 12.3 - 3.762977544445355
95 - 12.3 - 3.762977544445355
96 - 11.625 - 3.7059917700933984
97 - 11.225 - 3.850243498793291
98 - 11.975 - 3.6775501356201796
99 - 12.65 - 3.4680686267719683
100 - 12.65 - 3.4680686267719683
101 - 12.65 - 3.4680686267719683
102 - 12.65 - 3.4680686267719683
103 - 12.0 - 3.6193922141707713
104 - 11.125 - 4.49548384492704
105 - 11.775 - 4.309799879344747
106 - 12.375 - 4.205279419967239
107 - 12.375 - 4.205279419967239
108 - 12.375 - 4.205279419967239
109 - 12.375 - 4.205279419967239
110 - 11.6 - 4.12189276910499
111 - 11.275 - 4.129088882550241
112 - 11.975 - 3.9146359984039374
113 - 12.675 - 3.7442455848942386
114 - 12.675 - 3.7442455848942386
115 - 12.675 - 3.7442455848942386
116 - 12.675 - 3.7442455848942386
117 - 12.05 - 3.761316258971054
118 - 11.575 - 4.170656423154514
119 - 12.225 - 4.021737808460418
120 - 12.85 - 3.902242944769072
121 - 12.85 - 3.902242944769072
122 - 12.85 - 3.902242944769072
123 - 12.85 - 3.902242944769072
124 - 12.2 - 3.8288379438153304
125 - 11.325 - 4.557342975901639
126 - 12.025 - 4.373142462806351
127 - 12.625 - 4.30515679156985
128 - 12.625 - 4.30515679156985
129 - 12.625 - 4.30515679156985
130 - 12.625 - 4.30515679156985
131 - 11.925 - 4.143594454094174
132 - 11.65 - 4.4189930979805805
133 - 12.35 - 4.251764339659478
134 - 12.925 - 4.0211161385864
135 - 12.925 - 4.0211161385864
136 - 12.925 - 4.0211161385864
137 - 12.925 - 4.0211161385864
138 - 12.425 - 4.042817705511838
139 - 12.25 - 4.163832369344376
140 - 12.9 - 3.9799497484264807
141 - 13.425 - 3.7475825541273946
142 - 13.425 - 3.7475825541273946
143 - 13.425 - 3.7475825541273946
144 - 13.425 - 3.7475825541273946
145 - 12.625 - 3.746248123122653
146 - 11.8 - 4.467661580737736
147 - 12.4 - 4.323193264243457
148 - 12.85 - 4.228179277183029
149 - 12.85 - 4.228179277183029
150 - 12.85 - 4.228179277183029
151 - 12.85 - 4.228179277183029
152 - 12.225 - 4.269001639727959
153 - 12.025 - 4.239619676338903
154 - 12.65 - 4.003436024217198
155 - 13.15 - 3.7983549070617393
156 - 13.15 - 3.7983549070617393
157 - 13.15 - 3.7983549070617393
158 - 13.15 - 3.7983549070617393
159 - 12.375 - 3.9540327515082625
160 - 11.725 - 4.652888887562221
161 - 12.325 - 4.401065211968575
162 - 12.825 - 4.188600601632961
163 - 12.825 - 4.188600601632961
164 - 12.825 - 4.188600601632961
165 - 12.825 - 4.188600601632961
166 - 12.25 - 4.247057805116384
167 - 11.975 - 4.384560981443865
168 - 12.525 - 4.092600029321213
169 - 13.0 - 3.82099463490856
170 - 13.0 - 3.82099463490856
171 - 13.0 - 3.82099463490856
172 - 13.0 - 3.82099463490856
173 - 12.45 - 3.840247387864485
174 - 11.575 - 4.587414849345981
175 - 12.175 - 4.4770944819156995
176 - 12.7 - 4.354308211415447
177 - 12.7 - 4.354308211415447
178 - 12.7 - 4.354308211415447
179 - 12.7 - 4.354308211415447
180 - 12.025 - 4.32138577310566
181 - 11.7 - 4.473253849269008
182 - 12.375 - 4.281865831620603
183 - 12.975 - 4.071163838511047
184 - 12.975 - 4.071163838511047
185 - 12.975 - 4.071163838511047
186 - 12.975 - 4.071163838511047
187 - 12.225 - 4.02794923006733
188 - 11.5 - 4.494441010848846
189 - 12.2 - 4.313930922024599
190 - 12.775 - 4.065018450142631
191 - 12.775 - 4.065018450142631
192 - 12.775 - 4.065018450142631
193 - 12.775 - 4.065018450142631
194 - 11.95 - 4.055551750378733
195 - 11.325 - 4.601018908893986
196 - 12.025 - 4.412978019433136
197 - 12.6 - 4.152107898405339
198 - 12.6 - 4.152107898405339
199 - 12.6 - 4.152107898405339
200 - 12.6 - 4.152107898405339
201 - 11.8 - 4.069397989875161
202 - 11.375 - 4.270172713134681
203 - 12.05 - 4.043204174908806
204 - 12.65 - 3.785168424258028
205 - 12.65 - 3.785168424258028
206 - 12.65 - 3.785168424258028
207 - 12.65 - 3.785168424258028
208 - 12.0 - 3.794733192202055
209 - 11.325 - 4.457507711715147
210 - 11.95 - 4.183001314845599
211 - 12.55 - 3.923964831646686
212 - 12.55 - 3.923964831646686
213 - 12.55 - 3.923964831646686
214 - 12.55 - 3.923964831646686
215 - 11.9 - 3.903844259188627
216 - 11.4 - 4.426059195266146
217 - 12.025 - 4.239619676338904
218 - 12.575 - 4.116354576564076
219 - 12.575 - 4.116354576564076
220 - 12.575 - 4.116354576564076
221 - 12.575 - 4.116354576564076
222 - 11.875 - 4.19635258289863
223 - 11.475 - 4.582507501357745
224 - 12.05 - 4.358612164439502
225 - 12.575 - 4.134534435701317
226 - 12.575 - 4.134534435701317
227 - 12.575 - 4.134534435701317
228 - 12.575 - 4.134534435701317
229 - 11.925 - 4.1975439247255055
230 - 11.5 - 4.560701700396552
231 - 12.1 - 4.363484845854285
232 - 12.65 - 4.168632869418942
233 - 12.65 - 4.168632869418942
234 - 12.65 - 4.168632869418942
235 - 12.65 - 4.168632869418942
236 - 11.925 - 4.268415982539659
237 - 11.45 - 4.700797804628485
238 - 12.025 - 4.401633219612919
239 - 12.55 - 4.09237095092808
240 - 12.55 - 4.09237095092808
241 - 12.55 - 4.09237095092808
242 - 12.55 - 4.09237095092808
243 - 12.0 - 4.123105625617661
244 - 11.575 - 4.488248544811217
245 - 12.175 - 4.1945649357233705
246 - 12.75 - 3.9163120406831733
247 - 12.75 - 3.9163120406831733
248 - 12.75 - 3.9163120406831733
249 - 12.75 - 3.9163120406831733
250 - 12.175 - 3.986775012463082
251 - 11.575 - 4.571036534529122
252 - 12.175 - 4.2830333876821465
253 - 12.75 - 4.010922587136281
254 - 12.75 - 4.010922587136281
255 - 12.75 - 4.010922587136281
256 - 12.75 - 4.010922587136281
257 - 11.975 - 4.02794923006733
258 - 11.475 - 4.522098517281551
259 - 12.075 - 4.303414342124168
260 - 12.6 - 4.22965719651132
261 - 12.6 - 4.22965719651132
262 - 12.6 - 4.22965719651132
263 - 12.6 - 4.22965719651132
264 - 11.85 - 4.198511641046146
265 - 11.525 - 4.347341141433462
266 - 12.175 - 4.091989125107739
267 - 12.775 - 3.830714685277409
268 - 12.775 - 3.830714685277409
269 - 12.775 - 3.830714685277409
270 - 12.775 - 3.830714685277409
271 - 12.125 - 3.815674907536018
272 - 11.6 - 4.152107898405339
273 - 12.25 - 3.9099232729044697
274 - 12.85 - 3.664355332115051
275 - 12.85 - 3.664355332115051
276 - 12.85 - 3.664355332115051
277 - 12.85 - 3.664355332115051
278 - 12.175 - 3.720803004728953
279 - 11.65 - 4.216337273036872
280 - 12.275 - 4.043436038816492
281 - 12.85 - 3.876531955240406
282 - 12.85 - 3.876531955240406
283 - 12.85 - 3.876531955240406
284 - 12.85 - 3.876531955240406
285 - 12.15 - 3.8700775186034706
286 - 11.65 - 4.192552921550305
287 - 12.3 - 4.044749683231337
288 - 12.875 - 3.8806410552897055
289 - 12.875 - 3.8806410552897055
290 - 12.875 - 3.8806410552897055
291 - 12.875 - 3.8806410552897055
292 - 11.975 - 3.977986299624472
293 - 11.55 - 4.341370751272
294 - 12.225 - 4.13211507584191
295 - 12.825 - 3.8979962801418875
296 - 12.825 - 3.8979962801418875
297 - 12.825 - 3.8979962801418875
298 - 12.825 - 3.8979962801418875
299 - 12.175 - 3.9362894964674537
300 - 11.75 - 4.223446459942401
301 - 12.35 - 4.034538387473838
302 - 12.875 - 3.9191038516477206
303 - 12.875 - 3.9191038516477206
304 - 12.875 - 3.9191038516477206
305 - 12.875 - 3.9191038516477206
306 - 12.325 - 3.958456138445897
307 - 11.65 - 4.430293444005713
308 - 12.275 - 4.183225430215303
309 - 12.825 - 3.9108023473451063
310 - 12.825 - 3.9108023473451063
311 - 12.825 - 3.9108023473451063
312 - 12.825 - 3.9108023473451063
313 - 12.225 - 3.952768017478384
314 - 11.65 - 4.574658457196559
315 - 12.25 - 4.391753636077507
316 - 12.775 - 4.192180220362669
317 - 12.775 - 4.192180220362669
318 - 12.775 - 4.192180220362669
319 - 12.775 - 4.192180220362669
320 - 12.125 - 4.14238759654381
321 - 11.725 - 4.353087984408309
322 - 12.3 - 4.226109321823087
323 - 12.775 - 4.065018450142631
324 - 12.775 - 4.065018450142631
325 - 12.775 - 4.065018450142631
326 - 12.775 - 4.065018450142631
327 - 12.15 - 4.083809496046552
328 - 11.675 - 4.361120842168901
329 - 12.3 - 4.112177038990418
330 - 12.8 - 3.880721582386452
331 - 12.8 - 3.880721582386452
332 - 12.8 - 3.880721582386452
333 - 12.8 - 3.880721582386452
334 - 12.35 - 3.934145396398054
335 - 11.95 - 4.277557714397318
336 - 12.525 - 3.9999218742370446
337 - 13.05 - 3.721222917267924
338 - 13.05 - 3.721222917267924
339 - 13.05 - 3.721222917267924
340 - 13.05 - 3.721222917267924
341 - 12.4 - 3.839270764090493
342 - 11.875 - 4.399928976699511
343 - 12.475 - 4.1891974171671595
344 - 13.0 - 4.0
345 - 13.0 - 4.0
346 - 13.0 - 4.0
347 - 13.0 - 4.0
348 - 12.225 - 4.027949230067329
349 - 12.15 - 4.168632869418941
350 - 12.75 - 3.929058411375428
351 - 13.3 - 3.64828726939094
352 - 13.3 - 3.64828726939094
353 - 13.3 - 3.64828726939094
354 - 13.3 - 3.64828726939094
355 - 12.65 - 3.6506848672543626
356 - 11.775 - 4.441213235141947
357 - 12.45 - 4.248234927590515
358 - 12.95 - 3.9493670378935413
359 - 12.95 - 3.9493670378935413
360 - 12.95 - 3.9493670378935413
361 - 12.95 - 3.9493670378935413
362 - 12.225 - 3.9590876474258554
363 - 11.8 - 4.382921400162226
364 - 12.45 - 4.165033013074445
365 - 12.95 - 3.859727969689056
366 - 12.95 - 3.859727969689056
367 - 12.95 - 3.859727969689056
368 - 12.95 - 3.859727969689056
369 - 11.95 - 3.9808918598726093
370 - 11.275 - 4.6367418517748
371 - 11.95 - 4.415597354832074
372 - 12.5 - 4.11703777004778
373 - 12.5 - 4.11703777004778
374 - 12.5 - 4.11703777004778
375 - 12.5 - 4.11703777004778
376 - 11.85 - 4.059248698958958
377 - 11.375 - 4.4254237085278065
378 - 12.05 - 4.200892762258992
379 - 12.625 - 3.9222920594978645
380 - 12.625 - 3.9222920594978645
381 - 12.625 - 3.9222920594978645
382 - 12.625 - 3.9222920594978645
383 - 11.875 - 3.963505392957098
384 - 11.275 - 4.3759998857404
385 - 11.975 - 4.168258029441074
386 - 12.575 - 3.9044045640788827
387 - 12.575 - 3.9044045640788827
388 - 12.575 - 3.9044045640788827
389 - 12.575 - 3.9044045640788827
390 - 11.825 - 3.9489713850571264
391 - 11.2 - 4.523273151159457
392 - 11.9 - 4.31740662898458
393 - 12.475 - 4.031051351694741
394 - 12.475 - 4.031051351694741
395 - 12.475 - 4.031051351694741
396 - 12.475 - 4.031051351694741
397 - 11.675 - 4.052082797772029
398 - 11.125 - 4.6324264700046776
399 - 11.825 - 4.426553399655311
400 - 12.375 - 4.115139730312933
401 - 12.375 - 4.115139730312933
402 - 12.375 - 4.115139730312933
403 - 12.375 - 4.115139730312933
404 - 11.75 - 4.048147724577254
405 - 11.1 - 4.603259714593562
406 - 11.8 - 4.3943145085439665
407 - 12.35 - 4.0776831657204555
408 - 12.35 - 4.0776831657204555
409 - 12.35 - 4.0776831657204555
410 - 12.35 - 4.0776831657204555
411 - 11.65 - 4.022126303337577
412 - 11.175 - 4.426553399655312
413 - 11.875 - 4.214187347520278
414 - 12.475 - 3.9432695824657995
415 - 12.475 - 3.9432695824657995
416 - 12.475 - 3.9432695824657995
417 - 12.475 - 3.9432695824657995
418 - 11.725 - 3.96854822321715
419 - 11.1 - 4.581484475582123
420 - 11.8 - 4.371498598878879
421 - 12.425 - 4.128483377706636
422 - 12.425 - 4.128483377706636
423 - 12.425 - 4.128483377706636
424 - 12.425 - 4.128483377706636
425 - 11.8 - 4.057092555020159
426 - 11.2 - 4.534313619501854
427 - 11.875 - 4.382850100106094
428 - 12.425 - 4.241977722713782
429 - 12.425 - 4.241977722713782
430 - 12.425 - 4.241977722713782
431 - 12.425 - 4.241977722713782
432 - 11.725 - 4.230765297200969
433 - 11.475 - 4.165258095244519
434 - 12.15 - 3.9341453963980526
435 - 12.75 - 3.672533185690771
436 - 12.75 - 3.672533185690771
437 - 12.75 - 3.672533185690771
438 - 12.75 - 3.672533185690771
439 - 12.025 - 3.6978879106863145
440 - 11.5 - 4.171330722922842
441 - 12.125 - 4.013648589500581
442 - 12.675 - 3.8365837668425806
443 - 12.675 - 3.8365837668425806
444 - 12.675 - 3.8365837668425806
445 - 12.675 - 3.8365837668425806
446 - 11.8 - 4.1182520563948
447 - 11.325 - 4.4124114721997545
448 - 11.95 - 4.212778180725874
449 - 12.5 - 4.012480529547776
450 - 12.5 - 4.012480529547776
451 - 12.5 - 4.012480529547776
452 - 12.5 - 4.012480529547776
453 - 11.8 - 4.063249930782009
454 - 11.15 - 4.650537603331469
455 - 11.825 - 4.420902057272927
456 - 12.425 - 4.158650622497639
457 - 12.425 - 4.158650622497639
458 - 12.425 - 4.158650622497639
459 - 12.425 - 4.158650622497639
460 - 11.8 - 4.226109321823088
461 - 11.625 - 4.102971484180703
462 - 12.225 - 3.9018425134800103
463 - 12.75 - 3.793085815006035
464 - 12.75 - 3.793085815006035
465 - 12.75 - 3.793085815006035
466 - 12.75 - 3.793085815006035
467 - 12.0 - 3.866522985836241
468 - 11.1 - 4.3920382511995495
469 - 11.775 - 4.144197751073179
470 - 12.425 - 3.910802347345107
471 - 12.425 - 3.910802347345107
472 - 12.425 - 3.910802347345107
473 - 12.425 - 3.910802347345107
474 - 11.75 - 4.060480267160524
475 - 11.35 - 4.180610003336833
476 - 12.0 - 3.9560080889704965
477 - 12.6 - 3.8196858509568554
478 - 12.6 - 3.8196858509568554
479 - 12.6 - 3.8196858509568554
480 - 12.6 - 3.8196858509568554
481 - 11.875 - 3.7827734534333404
482 - 10.9 - 4.346262762420145
483 - 11.65 - 4.168632869418942
484 - 12.375 - 4.004294569584011
485 - 12.375 - 4.004294569584011
486 - 12.375 - 4.004294569584011
487 - 12.375 - 4.004294569584011
488 - 11.5 - 3.930648801406709
489 - 10.95 - 4.312481884019921
490 - 11.7 - 4.136423575989287
491 - 12.35 - 3.984658078179356
492 - 12.35 - 3.984658078179356
493 - 12.35 - 3.984658078179356
494 - 12.35 - 3.984658078179356
495 - 11.5 - 3.943348830626071
496 - 10.95 - 4.194937425039854
497 - 11.65 - 4.126439142893059
498 - 12.275 - 4.1169618652593805
499 - 12.275 - 4.1169618652593805
500 - 12.275 - 4.1169618652593805
501 - 12.275 - 4.1169618652593805
502 - 11.4 - 4.103656905736638
503 - 10.975 - 4.31559671424474
504 - 11.7 - 4.112177038990418
505 - 12.35 - 3.959482289390874
506 - 12.35 - 3.959482289390874
507 - 12.35 - 3.959482289390874
508 - 12.35 - 3.959482289390874
509 - 11.575 - 3.986775012463082
510 - 11.2 - 4.2731721238443
511 - 11.875 - 4.050848676512121
512 - 12.475 - 3.885791425179689
513 - 12.475 - 3.885791425179689
514 - 12.475 - 3.885791425179689
515 - 12.475 - 3.885791425179689
516 - 11.525 - 3.987402036414186
517 - 11.025 - 4.338706604507846
518 - 11.775 - 4.101752674162595
519 - 12.4 - 3.858756276314947
520 - 12.4 - 3.858756276314947
521 - 12.4 - 3.858756276314947
522 - 12.4 - 3.858756276314947
523 - 11.6 - 3.9924929555354254
524 - 11.2 - 4.214261501141096
525 - 11.925 - 3.9521354986892847
526 - 12.55 - 3.619046835839513
527 - 12.55 - 3.619046835839513
528 - 12.55 - 3.619046835839513
529 - 12.55 - 3.619046835839513
530 - 11.675 - 3.803863167886037
531 - 11.25 - 4.169832130913665
532 - 11.925 - 3.983638412306017
533 - 12.475 - 3.748249591476
534 - 12.475 - 3.748249591476
535 - 12.475 - 3.748249591476
536 - 12.475 - 3.748249591476
537 - 11.675 - 3.8947881842277376
538 - 10.95 - 4.200892762258995
539 - 11.675 - 3.920379445921019
540 - 12.3 - 3.682390527904394
541 - 12.3 - 3.682390527904394
542 - 12.3 - 3.682390527904394
543 - 12.3 - 3.682390527904394
544 - 11.525 - 3.827450195626325
545 - 11.0 - 4.306971093471606
546 - 11.675 - 4.064403400254458
547 - 12.3 - 3.809199390948182
548 - 12.3 - 3.809199390948182
549 - 12.3 - 3.809199390948182
550 - 12.3 - 3.809199390948182
551 - 11.525 - 3.94960441057076
552 - 11.15 - 4.204461915632011
553 - 11.85 - 3.908644266238615
554 - 12.475 - 3.660515674054681
555 - 12.475 - 3.660515674054681
556 - 12.475 - 3.660515674054681
557 - 12.475 - 3.660515674054681
558 - 11.7 - 3.7828560638755473
559 - 11.075 - 4.326589303365874
560 - 11.775 - 4.034151087899411
561 - 12.4 - 3.786819245752297
562 - 12.4 - 3.786819245752297
563 - 12.4 - 3.786819245752297
564 - 12.4 - 3.786819245752297
565 - 11.575 - 3.8787079034131975
566 - 10.95 - 4.460661385938189
567 - 11.7 - 4.226109321823088
568 - 12.35 - 3.921415560738239
569 - 12.35 - 3.921415560738239
570 - 12.35 - 3.921415560738239
571 - 12.35 - 3.921415560738239
572 - 11.5 - 3.96232255123179
573 - 10.925 - 4.513244398434457
574 - 11.7 - 4.308131845707604
575 - 12.325 - 4.070549717175802
576 - 12.325 - 4.070549717175802
