kate(22840)/Kate (Indentation) KateAutoIndent::setMode: mode "xml" does not exist 
kate(22840)/Kate (Indentation) KateAutoIndent::setMode: mode "xml" does not exist 
kate(22840)/Kate (Indentation) KateAutoIndent::setMode: mode "xml" does not exist 
kate(22840)/Kate (Indentation) KateAutoIndent::setMode: mode "xml" does not exist 
kate(22840)/Kate (Indentation) KateAutoIndent::setMode: mode "xml" does not exist 
kate(22840)/Kate (Indentation) KateAutoIndent::setMode: mode "xml" does not exist 
kate(22840)/Kate (Indentation) KateAutoIndent::setMode: mode "xml" does not exist 
kate(22840)/Kate (Indentation) KateAutoIndent::setMode: mode "xml" does not exist 
kate(22840)/Kate (Indentation) KateAutoIndent::setMode: mode "xml" does not exist 
kate(22840)/Kate (Indentation) KateAutoIndent::setMode: mode "xml" does not exist 
kate(22840)/Kate (Indentation) KateAutoIndent::setMode: mode "xml" does not exist 
kate(22840)/Kate (Indentation) KateAutoIndent::setMode: mode "xml" does not exist 
kate(22840)/Kate (Indentation) KateAutoIndent::setMode: mode "xml" does not exist 
kate(22840)/Kate (Indentation) KateAutoIndent::setMode: mode "xml" does not exist 
kate(22840)/Kate (Indentation) KateAutoIndent::setMode: mode "xml" does not exist 
kate(22840)/Kate (Indentation) KateAutoIndent::setMode: mode "xml" does not exist 
kate(22840)/Kate (Indentation) KateAutoIndent::setMode: mode "xml" does not exist 
kate(22840)/Kate (Indentation) KateAutoIndent::setMode: mode "xml" does not exist 
kate(22840)/Kate (Indentation) KateAutoIndent::setMode: mode "xml" does not exist 
kate(22840)/Kate (Indentation) KateAutoIndent::setMode: mode "xml" does not exist 
kate(22840)/Kate (Indentation) KateAutoIndent::setMode: mode "xml" does not exist 
kate(22840)/Kate (Indentation) KateAutoIndent::setMode: mode "xml" does not exist 
kate(22840)/Kate (Indentation) KateAutoIndent::setMode: mode "xml" does not exist 
kate(22840)/Kate (Indentation) KateAutoIndent::setMode: mode "xml" does not exist 
kate(22840)/Kate (Indentation) KateAutoIndent::setMode: mode "xml" does not exist 
kate(22840)/Kate (Indentation) KateAutoIndent::setMode: mode "xml" does not exist 
kate(22840)/Kate (Indentation) KateAutoIndent::setMode: mode "xml" does not exist 
kate(22840)/Kate (Indentation) KateAutoIndent::setMode: mode "xml" does not exist 
kate(22840)/Kate (Indentation) KateAutoIndent::setMode: mode "xml" does not exist 
kate(22840)/Kate (Indentation) KateAutoIndent::setMode: mode "xml" does not exist 
kate(22840)/Kate (Indentation) KateAutoIndent::setMode: mode "xml" does not exist 
kate(22840)/Kate (Indentation) KateAutoIndent::setMode: mode "xml" does not exist 
kate(22840)/Kate (Indentation) KateAutoIndent::setMode: mode "xml" does not exist 
kate(22840)/Kate (Indentation) KateAutoIndent::setMode: mode "xml" does not exist 
QThreadStorage: Thread 0x1ed6f50 exited after QThreadStorage 2147483611 destroyed
QThreadStorage: Thread 0x1ed6f50 exited after QThreadStorage 2147483612 destroyed
QThreadStorage: Thread 0x1ed6f50 exited after QThreadStorage 2147483613 destroyed
QThreadStorage: Thread 0x1ed6f50 exited after QThreadStorage 2147483614 destroyed
QThreadStorage: Thread 0x1ed6f50 exited after QThreadStorage 2147483615 destroyed
QThreadStorage: Thread 0x1ed6f50 exited after QThreadStorage 2147483616 destroyed
QThreadStorage: Thread 0x1ed6f50 exited after QThreadStorage 2147483617 destroyed
QThreadStorage: Thread 0x1ed6f50 exited after QThreadStorage 2147483618 destroyed
QThreadStorage: Thread 0x1ed6f50 exited after QThreadStorage 2147483619 destroyed
QThreadStorage: Thread 0x1ed6f50 exited after QThreadStorage 2147483620 destroyed
QThreadStorage: Thread 0x1ed6f50 exited after QThreadStorage 2147483621 destroyed
QThreadStorage: Thread 0x1ed6f50 exited after QThreadStorage 2147483622 destroyed
QThreadStorage: Thread 0x1ed6f50 exited after QThreadStorage 2147483623 destroyed
QThreadStorage: Thread 0x1ed6f50 exited after QThreadStorage 2147483624 destroyed
QThreadStorage: Thread 0x1ed6f50 exited after QThreadStorage 2147483625 destroyed
QThreadStorage: Thread 0x1ed6f50 exited after QThreadStorage 2147483641 destroyed
