0 - 0.48558530106761155 - 0.1696420053087822
1 - 0.6492203217335258 - 0.2567035501898189
2 - 0.9042571091973634 - 0.3917901242656023
3 - 0.9042571091973634 - 0.42248625823676067
4 - 1.762200588267627 - 0.5263205566154238
5 - 1.762200588267627 - 0.5368280227140994
6 - 1.762200588267627 - 0.504437801265637
7 - 1.762200588267627 - 0.511941993662421
8 - 1.762200588267627 - 0.5049864805118816
9 - 1.762200588267627 - 0.6165555159032025
10 - 1.762200588267627 - 0.6756491097824184
11 - 1.762200588267627 - 0.7749555254897984
12 - 1.762200588267627 - 0.7957751477491649
13 - 1.762200588267627 - 0.707680207030166
14 - 1.762200588267627 - 0.6296780637922595
15 - 1.762200588267627 - 0.6533583423847313
16 - 1.762200588267627 - 0.6969993115552324
17 - 1.762200588267627 - 0.7371294062069189
18 - 1.762200588267627 - 0.846136080986256
19 - 1.762200588267627 - 0.8591207994323495
20 - 1.762200588267627 - 0.7505354891511241
21 - 1.762200588267627 - 0.7339126358487557
22 - 1.762200588267627 - 0.7549095571225587
23 - 1.762200588267627 - 0.795401428561674
24 - 1.762200588267627 - 0.8264283026868826
25 - 1.762200588267627 - 0.8798679234848003
26 - 1.762200588267627 - 0.9056126246936295
27 - 1.762200588267627 - 0.8021743782466595
28 - 1.762200588267627 - 0.7343435423470468
29 - 1.762200588267627 - 0.7427306022443771
30 - 2.0524111046893383 - 0.7961156967979789
31 - 2.0524111046893383 - 0.8195210896337543
32 - 2.0524111046893383 - 0.8948030610276294
33 - 2.0524111046893383 - 0.9189212464202761
34 - 2.0524111046893383 - 0.8712250067670583
35 - 2.0524111046893383 - 0.8426235585123045
36 - 2.0524111046893383 - 0.8732177271125592
37 - 2.0524111046893383 - 0.9021174072771883
38 - 2.0524111046893383 - 0.9269447745870287
39 - 2.0524111046893383 - 0.9834430562207755
40 - 2.0524111046893383 - 0.9913115279808276
41 - 2.0524111046893383 - 0.8765369840486894
42 - 2.0524111046893383 - 0.8578348815852079
43 - 2.0524111046893383 - 0.8584308759741383
44 - 2.0524111046893383 - 0.9068595875195783
45 - 2.0524111046893383 - 0.9244850665159989
46 - 2.0524111046893383 - 0.9727233120156065
47 - 2.0524111046893383 - 1.0166993777117974
48 - 2.0524111046893383 - 0.8998927150265137
49 - 2.0524111046893383 - 0.8313597561371788
50 - 2.0524111046893383 - 0.873222518241494
51 - 2.0524111046893383 - 0.8935634899554629
52 - 2.0524111046893383 - 0.9193603003998495
53 - 2.0524111046893383 - 0.9919985492553696
54 - 2.0524111046893383 - 1.0114431056774518
55 - 2.0524111046893383 - 0.925310475928784
56 - 2.0524111046893383 - 0.8801909866158564
57 - 2.0524111046893383 - 0.8834685676215152
58 - 2.0524111046893383 - 0.9145322862915227
59 - 2.0524111046893383 - 0.9381226839412136
60 - 2.0524111046893383 - 0.989750364396429
61 - 2.0524111046893383 - 1.0041194926271684
62 - 2.0524111046893383 - 0.92337374062635
63 - 2.0524111046893383 - 0.8802306585404176
64 - 2.0524111046893383 - 0.9050766431346899
65 - 2.0524111046893383 - 0.9565040505841692
66 - 2.0524111046893383 - 0.9697899605897289
67 - 2.0524111046893383 - 1.034295909641621
68 - 2.0524111046893383 - 1.0500359178849434
69 - 2.0524111046893383 - 0.983713820048778
70 - 2.0524111046893383 - 0.9155438432992821
71 - 2.0524111046893383 - 0.9252906812884106
72 - 2.0524111046893383 - 0.9495871397051365
73 - 2.0524111046893383 - 0.9754326565278978
74 - 2.217940078324389 - 1.0747101178710499
75 - 2.217940078324389 - 1.0900689793838476
76 - 2.217940078324389 - 0.9516395868133459
77 - 2.217940078324389 - 0.72586206393209
78 - 2.217940078324389 - 0.8392399773467073
79 - 2.217940078324389 - 0.9028528169113453
80 - 2.217940078324389 - 0.9225895417287961
81 - 2.217940078324389 - 0.9693102348944127
82 - 2.217940078324389 - 0.9865840977534601
83 - 2.217940078324389 - 0.9235361209300686
84 - 2.217940078324389 - 0.9234506922459673
85 - 2.217940078324389 - 0.9286869627506963
86 - 2.217940078324389 - 0.9568571344604082
87 - 2.217940078324389 - 0.9636173302066118
88 - 2.217940078324389 - 1.0385803492390928
89 - 2.217940078324389 - 1.0605463381318598
90 - 2.217940078324389 - 0.9384143199428797
91 - 2.217940078324389 - 0.8992134804661719
92 - 2.217940078324389 - 0.9593747784946608
93 - 2.217940078324389 - 0.993351501873958
94 - 2.217940078324389 - 1.011697305300967
95 - 2.217940078324389 - 1.063389950914238
96 - 2.217940078324389 - 1.079316727677292
97 - 2.217940078324389 - 0.9734008329868242
98 - 2.217940078324389 - 0.9482108975339484
99 - 2.217940078324389 - 0.9896259050964332
100 - 2.217940078324389 - 1.0148024496210497
101 - 2.217940078324389 - 1.0371829943476774
102 - 2.217940078324389 - 1.0694477862997434
103 - 2.217940078324389 - 1.0993555899787673
104 - 2.217940078324389 - 0.9958472729166006
105 - 2.217940078324389 - 0.9311709901832422
106 - 2.217940078324389 - 0.9600340244147656
107 - 2.217940078324389 - 1.0121593093663643
108 - 2.217940078324389 - 1.0449753828439001
