0 - 0.528414591519456 - 0.016398555916167883
1 - 1.1850304045175253 - 0.06711408264600802
2 - 2.3389581972046902 - 0.13226155312818433
3 - 2.3389581972046902 - 0.13886746645746564
4 - 2.5635584693205984 - 0.15869790519613886
5 - 2.5635584693205984 - 0.15872389958560382
6 - 2.5635584693205984 - 0.15872391281626638
7 - 2.5635584693205984 - 0.2325798640463844
8 - 2.5635584693205984 - 0.27787143249039814
9 - 2.5635584693205984 - 0.30873831830776466
10 - 5.115211195945735 - 0.4859469917066524
11 - 5.215271871133056 - 0.6266490345635449
12 - 5.215271871133056 - 0.6288072200032195
13 - 5.215271871133056 - 0.6354134679863515
14 - 6.750567851066584 - 0.8030088082773326
15 - 6.750567851066584 - 0.8768274787006236
16 - 6.750567851066584 - 1.0592847426924508
17 - 7.540187368392943 - 1.109851910872154
18 - 50.015389270782464 - 2.392423516311713
19 - 53.28523510456085 - 2.505378061448698
20 - 53.28523510456085 - 2.506608452510955
21 - 53.28523510456085 - 2.5832802562001063
22 - 57.42930072784422 - 2.6624466337963293
23 - 57.42930072784422 - 2.708534646935142
24 - 57.42930072784422 - 2.749424605031577
25 - 57.42930072784422 - 3.5073565474088113
26 - 57.42930072784422 - 3.630834950760625
27 - 57.42930072784422 - 3.6504261076480065
28 - 57.42930072784422 - 3.501563580605368
29 - 57.42930072784422 - 3.3146607432672917
30 - 57.42930072784422 - 3.6235898500971784
31 - 57.42930072784422 - 3.673198230574936
32 - 57.42930072784422 - 4.1534735501852245
33 - 57.42930072784422 - 4.78125644584465
34 - 57.42930072784422 - 4.967672940797263
35 - 57.42930072784422 - 5.11399236245306
36 - 60.08274363517759 - 5.024789737303131
37 - 60.08274363517759 - 5.2473279251748774
38 - 60.08274363517759 - 5.358219316379946
39 - 60.08274363517759 - 6.384246989657387
40 - 60.08274363517759 - 6.861225958930535
41 - 60.08274363517759 - 6.954064277029289
42 - 60.08274363517759 - 6.316044902884348
43 - 60.08274363517759 - 6.3968809359984675
44 - 60.08274363517759 - 6.441070793380031
45 - 60.08274363517759 - 6.996612165696616
46 - 60.08274363517759 - 7.88014172785604
47 - 60.08274363517759 - 8.451226825570743
48 - 60.08274363517759 - 8.68032979760936
49 - 60.08274363517759 - 7.907089461293701
50 - 60.08274363517759 - 7.288599731691965
51 - 60.08274363517759 - 7.297709354955641
52 - 60.08274363517759 - 7.3292567793636945
53 - 64.2060346508026 - 7.772458389467405
54 - 81.68708207130427 - 9.40505035029982
55 - 81.68708207130427 - 10.709106395048755
56 - 81.68708207130427 - 9.638337155329726
57 - 81.68708207130427 - 9.510509996347364
58 - 81.68708207130427 - 9.524071931358863
59 - 81.68708207130427 - 10.611588748876734
60 - 81.68708207130427 - 10.936459258209393
61 - 81.68708207130427 - 12.038685201609983
62 - 81.68708207130427 - 12.70572049645023
63 - 81.68708207130427 - 10.709438136933027
64 - 81.68708207130427 - 10.506423735166152
65 - 81.68708207130427 - 10.63310570892863
66 - 81.68708207130427 - 10.742672121707894
67 - 81.68708207130427 - 11.115604950631626
68 - 81.68708207130427 - 12.410355671385853
69 - 81.68708207130427 - 13.061352745033497
70 - 81.68708207130427 - 12.50822872250259
71 - 81.68708207130427 - 10.70598586483846
72 - 81.68708207130427 - 11.198345214770084
73 - 81.68708207130427 - 11.252508463048137
74 - 81.68708207130427 - 12.497523927952795
75 - 81.68708207130427 - 14.856389798211978
76 - 81.68708207130427 - 15.485386471319558
77 - 81.68708207130427 - 13.32177285997291
78 - 81.68708207130427 - 12.104280759141567
79 - 81.68708207130427 - 12.200891674540905
80 - 81.68708207130427 - 12.289525971573998
81 - 81.68708207130427 - 12.620283929866396
82 - 81.68708207130427 - 14.797388690887706
83 - 81.68708207130427 - 15.23529597723056
84 - 81.68708207130427 - 13.492696070526009
85 - 83.30665490627285 - 12.929363275466471
86 - 83.30665490627285 - 13.024277579602103
87 - 83.30665490627285 - 13.222617744850343
88 - 83.30665490627285 - 13.80488461320327
89 - 83.30665490627285 - 16.32493081336214
90 - 83.30665490627285 - 16.92278663296367
91 - 83.30665490627285 - 14.834617764650464
92 - 83.30665490627285 - 14.500405253258673
93 - 83.30665490627285 - 14.606402904896143
94 - 83.30665490627285 - 14.607549312864219
95 - 83.30665490627285 - 14.880260502947996
96 - 83.30665490627285 - 16.976250171695384
97 - 83.30665490627285 - 17.577383883660712
98 - 83.30665490627285 - 17.111654310953554
99 - 83.30665490627285 - 15.34966300734987
100 - 83.30665490627285 - 15.825760472467152
101 - 83.30665490627285 - 15.949932429260368
102 - 83.30665490627285 - 16.15542937603618
103 - 83.30665490627285 - 17.987460534575114
104 - 83.30665490627285 - 18.609780852701064
105 - 83.30665490627285 - 16.489146181532284
106 - 83.30665490627285 - 16.51886968125492
107 - 83.30665490627285 - 16.549197111374085
108 - 83.30665490627285 - 16.658754171001107
109 - 83.30665490627285 - 16.89927919294596
110 - 83.30665490627285 - 19.27756005976189
111 - 83.30665490627285 - 20.216448047418687
112 - 83.31963937759397 - 17.81118971730357
113 - 83.31963937759397 - 15.693158264659028
114 - 83.31963937759397 - 17.388074738714526
115 - 83.31963937759397 - 17.49985384783578
116 - 83.31963937759397 - 18.199256347219464
117 - 83.31963937759397 - 20.238188347162826
118 - 83.31963937759397 - 21.204227594452114
119 - 83.31963937759397 - 19.100668582821854
120 - 83.31963937759397 - 17.580628714220627
121 - 83.31963937759397 - 17.59111243835185
122 - 83.31963937759397 - 17.847164627319017
123 - 83.31963937759397 - 18.967286028399357
124 - 83.31963937759397 - 21.433048858268098
125 - 83.31963937759397 - 22.594987309559357
126 - 83.31963937759397 - 20.724511735326423
127 - 83.31963937759397 - 18.887877077708378
128 - 83.31963937759397 - 19.04232437366524
129 - 83.31963937759397 - 19.329186581603228
130 - 83.31963937759397 - 19.545105591314815
131 - 83.31963937759397 - 21.23233225725508
132 - 83.31963937759397 - 22.91158076323439
133 - 83.31963937759397 - 21.546209461071594
134 - 83.31963937759397 - 19.275095073594287
135 - 83.31963937759397 - 19.307418098184762
136 - 83.31963937759397 - 19.816116335827562
137 - 83.31963937759397 - 20.303307225171107
138 - 83.31963937759397 - 23.099294567806602
139 - 83.31963937759397 - 24.234526494422365
140 - 83.31963937759397 - 21.87657198044043
141 - 83.31963937759397 - 20.42053688680167
142 - 83.31963937759397 - 20.559048982640327
143 - 83.31963937759397 - 20.981981835609314
144 - 83.31963937759397 - 22.054601696190993
145 - 83.31963937759397 - 25.118911569293033
146 - 83.31963937759397 - 25.96090844974817
147 - 83.31963937759397 - 24.13690322470562
148 - 83.31963937759397 - 21.90484856275249
149 - 83.31963937759397 - 22.786238810894353
150 - 83.31963937759397 - 23.17777721669855
151 - 83.31963937759397 - 23.711292570539424
152 - 83.31963937759397 - 25.93177202782253
153 - 83.31963937759397 - 27.21528892392113
154 - 83.31963937759397 - 24.37588159686134
155 - 83.31963937759397 - 22.65701796251377
156 - 83.31963937759397 - 22.80209793014337
157 - 83.31963937759397 - 22.802785983793594
158 - 83.31963937759397 - 22.87635133716519
159 - 83.31963937759397 - 25.737883608365472
160 - 83.31963937759397 - 27.040354335365073
161 - 83.31963937759397 - 24.664693726472386
162 - 83.31963937759397 - 20.849620077909098
163 - 83.31963937759397 - 20.899727349473274
164 - 83.31963937759397 - 21.372028207598653
165 - 83.31963937759397 - 21.615079923061074
166 - 83.31963937759397 - 24.585105555174614
167 - 83.31963937759397 - 25.71011204181811
168 - 83.31963937759397 - 24.076554748558337
169 - 83.31963937759397 - 21.39948955404704
170 - 83.31963937759397 - 21.73260664633073
171 - 83.31963937759397 - 21.775337228526347
172 - 83.31963937759397 - 22.527168135329667
173 - 83.31963937759397 - 25.443045722827836
174 - 83.31963937759397 - 26.965656758500405
175 - 83.31963937759397 - 24.286461660406964
176 - 83.31963937759397 - 22.016622961456548
177 - 83.31963937759397 - 22.616962877865788
178 - 83.31963937759397 - 22.775923494953396
179 - 83.31963937759397 - 23.098776285662986
180 - 83.31963937759397 - 25.9169555226878
181 - 83.31963937759397 - 27.11840048830637
182 - 83.31963937759397 - 25.048975368393272
183 - 83.31963937759397 - 23.19389385946172
184 - 83.31963937759397 - 23.206877607391466
185 - 83.31963937759397 - 23.394880258536705
186 - 83.31963937759397 - 23.78258538311507
187 - 83.31963937759397 - 26.284365497603005
188 - 83.31963937759397 - 28.43524029259715
189 - 83.31963937759397 - 25.898766878587708
190 - 83.31963937759397 - 23.75843500084897
191 - 87.91797548294066 - 24.231032375485803
192 - 87.91797548294066 - 24.560635370870422
193 - 87.91797548294066 - 24.74984577187168
194 - 87.91797548294066 - 27.442219163878043
195 - 87.91797548294066 - 28.865361145817133
196 - 87.91797548294066 - 27.02195085332364
197 - 87.91797548294066 - 25.09870537548726
198 - 87.91797548294066 - 25.577726011999378
199 - 87.91797548294066 - 25.583643284932798
200 - 87.91797548294066 - 26.380926807992388
201 - 87.91797548294066 - 29.44035673158213
202 - 87.91797548294066 - 30.72688201903698
203 - 87.91797548294066 - 27.47639212017209
204 - 87.91797548294066 - 25.944072301619933
205 - 87.91797548294066 - 26.13761708764714
206 - 87.91797548294066 - 26.26790977403592
207 - 87.91797548294066 - 26.68348149058399
208 - 87.91797548294066 - 29.81294718054351
209 - 87.91797548294066 - 31.465985804872503
210 - 87.91797548294066 - 27.810583809577004
211 - 87.91797548294066 - 25.38926272084765
212 - 87.91797548294066 - 25.700913391938617
213 - 87.91797548294066 - 26.287689876421155
214 - 87.91797548294066 - 27.183121531992903
215 - 87.91797548294066 - 31.206776731693036
216 - 87.91797548294066 - 33.05198296076002
217 - 87.91797548294066 - 28.991708222233786
218 - 87.91797548294066 - 26.628961621555817
219 - 87.91797548294066 - 27.17509252517531
220 - 87.91797548294066 - 27.463381706805983
221 - 87.91797548294066 - 28.078092911477093
222 - 87.91797548294066 - 31.858339849931934
223 - 87.91797548294066 - 33.27808935933686
224 - 87.91797548294066 - 28.610439975551753
225 - 87.91797548294066 - 24.543846784497195
226 - 87.91797548294066 - 24.697766041640605
227 - 87.91797548294066 - 25.378171517749227
228 - 87.91797548294066 - 27.545825884683275
229 - 87.91797548294066 - 31.566482953510416
230 - 87.91797548294066 - 33.54928604361118
231 - 87.91797548294066 - 30.584813579865056
232 - 87.91797548294066 - 27.69741557932222
233 - 87.91797548294066 - 27.821171653599833
234 - 87.91797548294066 - 28.14200288617413
235 - 87.91797548294066 - 28.431257603317476
236 - 87.91797548294066 - 31.911389469287997
237 - 87.91797548294066 - 33.41243355198033
238 - 87.91797548294066 - 30.75476236872218
239 - 87.91797548294066 - 28.356447134725606
240 - 87.91797548294066 - 29.192335279575452
241 - 87.91797548294066 - 29.461459371541093
242 - 87.91797548294066 - 30.17054644898287
243 - 87.91797548294066 - 33.775113214285895
244 - 87.91797548294066 - 35.5522079437008
245 - 87.91797548294066 - 32.428337915702386
246 - 87.91797548294066 - 29.57836550097819
247 - 87.91797548294066 - 29.693500472076533
248 - 87.91797548294066 - 29.96710552265974
249 - 87.91797548294066 - 30.349184375641244
250 - 87.91797548294066 - 34.22705462540141
251 - 87.91797548294066 - 35.63449131743164
252 - 87.91797548294066 - 32.53787016472094
253 - 87.91797548294066 - 29.89578170104939
254 - 87.91797548294066 - 30.159799303178136
255 - 87.91797548294066 - 30.397270771949103
256 - 87.91797548294066 - 30.82577039608297
257 - 87.91797548294066 - 35.32012066750329
258 - 87.91797548294066 - 36.67388849246132
259 - 87.91797548294066 - 33.30781835093824
260 - 87.91797548294066 - 30.44617090018432
261 - 87.91797548294066 - 31.011230364834283
262 - 87.91797548294066 - 31.14527559493816
263 - 87.91797548294066 - 31.831053213264045
264 - 87.91797548294066 - 35.823590036791636
265 - 87.91797548294066 - 37.56404597829517
266 - 87.91797548294066 - 33.81277709611636
267 - 87.91797548294066 - 31.252134030890026
268 - 87.91797548294066 - 31.577228476369566
269 - 87.91797548294066 - 31.95315432963276
270 - 87.91797548294066 - 33.042466916244294
271 - 87.91797548294066 - 36.41482913036561
272 - 87.91797548294066 - 38.78483640585054
273 - 87.91797548294066 - 34.88513645788944
274 - 87.91797548294066 - 32.55557879350173
275 - 90.15852955341339 - 33.04838156587156
276 - 90.15852955341339 - 33.139299568128635
277 - 90.15852955341339 - 33.41010973205297
278 - 90.15852955341339 - 36.83681030780339
279 - 90.15852955341339 - 38.09669178690372
280 - 90.15852955341339 - 34.03018703437816
281 - 90.15852955341339 - 32.010181649459305
282 - 90.15852955341339 - 32.30188353583412
283 - 90.15852955341339 - 32.40927215605996
284 - 90.15852955341339 - 33.77802355286487
285 - 90.15852955341339 - 36.75440946816772
286 - 90.15852955341339 - 38.80631744650066
287 - 90.15852955341339 - 35.926668740090534
288 - 90.15852955341339 - 32.6746714947932
289 - 90.15852955341339 - 33.204310445222035
290 - 90.15852955341339 - 33.54658331725212
291 - 90.15852955341339 - 33.99119652696122
292 - 90.15852955341339 - 37.6818920532519
293 - 90.15852955341339 - 39.0405225861208
294 - 90.15852955341339 - 35.94092460703987
295 - 90.15852955341339 - 34.08581765921745
296 - 90.15852955341339 - 34.3492660350366
297 - 90.15852955341339 - 34.41483424948056
298 - 90.15852955341339 - 34.56256273994169
299 - 90.15852955341339 - 37.934213805298185
300 - 90.15852955341339 - 41.24696858077222
301 - 90.15852955341339 - 37.84360799311437
302 - 90.15852955341339 - 34.324454427270936
303 - 90.15852955341339 - 35.3319894922723
