[ GENERATION 0 ]
Best individual(s) (2)
[[(0.0, 1.0, 1.0, 1.0, 1.0, 1.0, 1.0, 3.0, 1.0, 0.0, 0.0, 0.0, 2.0, 3.0, 1.0, 2.0, 0.0, 0.0, 0.0, 0.0, 0.0, 0.6305260680140681, 0.7016894695157603, 0.6304679184379561, 0.28781931903275537, 0.790455696097404, 0.1314642591776034, 0.05716406150831477, 0.725800761953412, 0.8547795439096865, 0.3968267712478719, 0.32642374769937155, 0.6362022658407587, 270.9062095057219, 93.3418773809014, 326.0475195128692, 269.7103590728451, 1.9343146606032935, 203.63465737831567, 0.4646418988348967, 0.23824295985260002, -0.23468236759460992, -0.13012270014674066, -0.04193292714280805, 0.08637025181574542, 0.0, 0.0, 0.0, 0.0, 0.0, 0.0] - 0.5766633927950849, [(0.0, 1.0, 1.0, 1.0, 1.0, 1.0, 3.0, 0.0, 2.0, 0.0, 0.0, 1.0, 0.0, 3.0, 1.0, 3.0, 0.0, 0.0, 1.0, 0.0, 0.0, 0.32647824439017303, 0.13684801045340933, 0.8988737018470111, 0.43230818842648056, 0.2578994083952262, 0.170783839980866, 0.49770785650146054, 0.4425318209070228, 0.7814112607684227, 0.12815968356881635, 0.024903814290818782, 0.9776474348600256, 271.91409405369086, 280.2670736292262, 296.20630303323867, 320.66932970774525, 79.16639514719553, 353.25517827652345, 0.47248455313204707, 0.0046161798995763, 0.04517970047834563, -0.3843199431808674, -0.22285763173704443, 0.09747839339052711, 0.0, 0.0, 0.0, 0.0, 0.0, 0.0] - 0.5593677385495734]

[ GENERATION 1 ]
Best individual(s) (2)
[[(0.0, 1.0, 1.0, 1.0, 1.0, 1.0, 2.0, 1.0, 2.0, 0.0, 0.0, 3.0, 2.0, 1.0, 2.0, 1.0, 1.0, 1.0, 1.0, 0.0, 1.0, 0.14981812502518688, 0.3678519268288175, 0.6546613332453208, 0.9519608245643464, 0.14005634214537954, 0.0900214506711301, 0.38186755785765203, 0.6389130296448688, 0.5958732094595843, 0.8471636806220432, 0.3067861372528444, 0.6347679747449327, 258.75244868463284, 37.43562279670285, 242.26269344819568, 214.24169269702253, 257.18334657497667, 184.60205138552985, 0.004524098344327765, -0.18989530862643833, -0.37810911090820076, 0.08939666846292416, 0.4508027515287598, -0.2867862324876186, 0.0, 0.0, 0.0, 0.0, 0.0, 0.0] - 0.7902416346908356, [(0.0, 1.0, 1.0, 1.0, 1.0, 1.0, 1.0, 3.0, 1.0, 0.0, 0.0, 0.0, 2.0, 3.0, 1.0, 2.0, 0.0, 0.0, 0.0, 0.0, 0.0, 0.6305260680140681, 0.7016894695157603, 0.6304679184379561, 0.28781931903275537, 0.790455696097404, 0.1314642591776034, 0.05716406150831477, 0.725800761953412, 0.8547795439096865, 0.3968267712478719, 0.32642374769937155, 0.6362022658407587, 270.9062095057219, 93.3418773809014, 326.0475195128692, 269.7103590728451, 1.9343146606032935, 203.63465737831567, 0.4646418988348967, 0.23824295985260002, -0.23468236759460992, -0.13012270014674066, -0.04193292714280805, 0.08637025181574542, 0.0, 0.0, 0.0, 0.0, 0.0, 0.0] - 0.5766633927950849]

[ GENERATION 2 ]
Best individual(s) (2)
[[(0.0, 1.0, 1.0, 1.0, 1.0, 1.0, 2.0, 2.0, 1.0, 0.0, 0.0, 2.0, 3.0, 1.0, 3.0, 1.0, 0.0, 1.0, 0.0, 0.0, 1.0, 0.5075464457712857, 0.40561548977886797, 0.5924100653953069, 0.6898912036444553, 0.32397746020500706, 0.6037555252599196, 0.3058705852867274, 0.39458473007932704, 0.8848366812052925, 0.42053076015868107, 0.2504307814955513, 0.3773559257068787, 180.69168626186487, 49.99227689696213, 154.46653870597734, 60.16246803595584, 148.22610471121692, 305.2238105348032, 0.22299327439009287, 0.1277215220161081, 0.07681036892723736, 0.2837008778379241, 0.3624143843536254, -0.4304467698865643, 0.0, 0.0, 0.0, 0.0, 0.0, 0.0] - 1.1100421433977519, [(0.0, 1.0, 1.0, 1.0, 1.0, 1.0, 2.0, 1.0, 2.0, 0.0, 0.0, 3.0, 2.0, 1.0, 2.0, 1.0, 1.0, 1.0, 1.0, 0.0, 1.0, 0.14981812502518688, 0.3678519268288175, 0.6546613332453208, 0.9519608245643464, 0.14005634214537954, 0.0900214506711301, 0.38186755785765203, 0.6389130296448688, 0.5958732094595843, 0.8471636806220432, 0.3067861372528444, 0.6347679747449327, 258.75244868463284, 37.43562279670285, 242.26269344819568, 214.24169269702253, 257.18334657497667, 184.60205138552985, 0.004524098344327765, -0.18989530862643833, -0.37810911090820076, 0.08939666846292416, 0.4508027515287598, -0.2867862324876186, 0.0, 0.0, 0.0, 0.0, 0.0, 0.0] - 0.7902416346908356]

[ GENERATION 3 ]
Best individual(s) (2)
[[(0.0, 1.0, 1.0, 1.0, 1.0, 1.0, 1.0, 1.0, 1.0, 2.0, 0.0, 4.0, 2.0, 1.0, 1.0, 3.0, 1.0, 1.0, 1.0, 0.0, 0.0, 0.4210436476749819, 0.6240889537025133, 0.65140420740557, 0.17606545637894844, 0.4232438065337333, 0.5629220632180115, 0.6255934076332242, 0.7355595374991346, 0.8725979648859528, 0.44931313421804175, 0.8607567749631075, 0.35704996443459147, 352.74136956923417, 117.13005189356308, 116.1731458758269, 221.54899321849547, 267.835827236683, 147.48635508844532, 0.3602318010133918, -0.4481151373310709, -0.20433492562234845, -0.35463531197974785, 0.10426900336284217, -0.020044535450859935, 0.0, 0.0, 0.0, 0.0, 0.0, 0.0] - 1.8494883204568302, [(0.0, 1.0, 1.0, 1.0, 1.0, 1.0, 2.0, 2.0, 1.0, 0.0, 0.0, 2.0, 3.0, 1.0, 3.0, 1.0, 0.0, 1.0, 0.0, 0.0, 1.0, 0.5075464457712857, 0.40561548977886797, 0.5924100653953069, 0.6898912036444553, 0.32397746020500706, 0.6037555252599196, 0.3058705852867274, 0.39458473007932704, 0.8848366812052925, 0.42053076015868107, 0.2504307814955513, 0.3773559257068787, 180.69168626186487, 49.99227689696213, 154.46653870597734, 60.16246803595584, 148.22610471121692, 305.2238105348032, 0.22299327439009287, 0.1277215220161081, 0.07681036892723736, 0.2837008778379241, 0.3624143843536254, -0.4304467698865643, 0.0, 0.0, 0.0, 0.0, 0.0, 0.0] - 1.1100421433977519]

[ GENERATION 4 ]
Best individual(s) (2)
[[(0.0, 1.0, 1.0, 1.0, 1.0, 1.0, 1.0, 1.0, 1.0, 2.0, 0.0, 4.0, 2.0, 1.0, 1.0, 3.0, 1.0, 1.0, 1.0, 0.0, 0.0, 0.4210436476749819, 0.6240889537025133, 0.65140420740557, 0.17606545637894844, 0.4232438065337333, 0.5629220632180115, 0.6255934076332242, 0.7355595374991346, 0.8725979648859528, 0.44931313421804175, 0.8607567749631075, 0.35704996443459147, 352.74136956923417, 117.13005189356308, 116.1731458758269, 221.54899321849547, 267.835827236683, 147.48635508844532, 0.3602318010133918, -0.4481151373310709, -0.20433492562234845, -0.35463531197974785, 0.10426900336284217, -0.020044535450859935, 0.0, 0.0, 0.0, 0.0, 0.0, 0.0] - 1.8494883204568302, [(0.0, 1.0, 1.0, 1.0, 1.0, 1.0, 2.0, 2.0, 1.0, 0.0, 0.0, 2.0, 3.0, 1.0, 3.0, 1.0, 0.0, 1.0, 0.0, 0.0, 1.0, 0.5075464457712857, 0.40561548977886797, 0.5924100653953069, 0.6898912036444553, 0.32397746020500706, 0.6037555252599196, 0.3058705852867274, 0.39458473007932704, 0.8848366812052925, 0.42053076015868107, 0.2504307814955513, 0.3773559257068787, 180.69168626186487, 49.99227689696213, 61.630372456203155, 353.28957377610965, 148.22610471121692, 216.36561586930685, 0.22299327439009287, 0.1277215220161081, 0.07681036892723736, 0.2837008778379241, 0.3624143843536254, -0.4304467698865643, 0.0, 0.0, 0.0, 0.0, 0.0, 0.0] - 1.2559198582937607]

[ GENERATION 5 ]
Best individual(s) (2)
[[(0.0, 1.0, 1.0, 1.0, 1.0, 1.0, 1.0, 1.0, 1.0, 2.0, 0.0, 4.0, 2.0, 1.0, 1.0, 3.0, 1.0, 1.0, 1.0, 0.0, 0.0, 0.4210436476749819, 0.6240889537025133, 0.65140420740557, 0.17606545637894844, 0.4232438065337333, 0.5629220632180115, 0.6255934076332242, 0.7355595374991346, 0.8725979648859528, 0.44931313421804175, 0.8607567749631075, 0.35704996443459147, 352.74136956923417, 117.13005189356308, 116.1731458758269, 221.54899321849547, 267.835827236683, 147.48635508844532, 0.3602318010133918, -0.4481151373310709, -0.20433492562234845, -0.35463531197974785, 0.10426900336284217, -0.020044535450859935, 0.0, 0.0, 0.0, 0.0, 0.0, 0.0] - 1.8494883204568302, [(0.0, 1.0, 1.0, 1.0, 1.0, 1.0, 2.0, 2.0, 1.0, 0.0, 0.0, 2.0, 3.0, 1.0, 3.0, 1.0, 0.0, 1.0, 0.0, 0.0, 1.0, 0.5075464457712857, 0.40561548977886797, 0.5924100653953069, 0.6898912036444553, 0.32397746020500706, 0.6037555252599196, 0.3058705852867274, 0.39458473007932704, 0.8848366812052925, 0.42053076015868107, 0.2504307814955513, 0.3773559257068787, 180.69168626186487, 49.99227689696213, 61.630372456203155, 353.28957377610965, 148.22610471121692, 216.36561586930685, 0.22299327439009287, 0.1277215220161081, 0.07681036892723736, 0.2837008778379241, 0.3624143843536254, -0.4304467698865643, 0.0, 0.0, 0.0, 0.0, 0.0, 0.0] - 1.2559198582937607]

[ GENERATION 6 ]
Best individual(s) (2)
[[(0.0, 1.0, 1.0, 1.0, 1.0, 1.0, 1.0, 1.0, 1.0, 2.0, 0.0, 4.0, 2.0, 1.0, 1.0, 3.0, 1.0, 1.0, 1.0, 0.0, 0.0, 0.4210436476749819, 0.6240889537025133, 0.65140420740557, 0.17606545637894844, 0.4232438065337333, 0.5629220632180115, 0.6255934076332242, 0.7355595374991346, 0.8725979648859528, 0.44931313421804175, 0.8607567749631075, 0.35704996443459147, 352.74136956923417, 117.13005189356308, 116.1731458758269, 221.54899321849547, 267.835827236683, 147.48635508844532, 0.3602318010133918, -0.4481151373310709, -0.20433492562234845, -0.35463531197974785, 0.10426900336284217, -0.020044535450859935, 0.0, 0.0, 0.0, 0.0, 0.0, 0.0] - 1.8494883204568302, [(0.0, 1.0, 1.0, 1.0, 1.0, 1.0, 2.0, 2.0, 1.0, 0.0, 0.0, 2.0, 3.0, 1.0, 3.0, 1.0, 0.0, 1.0, 0.0, 0.0, 1.0, 0.5075464457712857, 0.40561548977886797, 0.5924100653953069, 0.6898912036444553, 0.32397746020500706, 0.6037555252599196, 0.3058705852867274, 0.39458473007932704, 0.8848366812052925, 0.42053076015868107, 0.2504307814955513, 0.3773559257068787, 180.69168626186487, 49.99227689696213, 61.630372456203155, 353.28957377610965, 148.22610471121692, 216.36561586930685, 0.22299327439009287, 0.1277215220161081, 0.07681036892723736, 0.2837008778379241, 0.3624143843536254, -0.4304467698865643, 0.0, 0.0, 0.0, 0.0, 0.0, 0.0] - 1.2559198582937607]

[ GENERATION 7 ]
Best individual(s) (2)
[[(0.0, 1.0, 1.0, 1.0, 1.0, 1.0, 1.0, 1.0, 1.0, 2.0, 0.0, 4.0, 2.0, 1.0, 1.0, 3.0, 1.0, 1.0, 1.0, 0.0, 0.0, 0.4210436476749819, 0.6240889537025133, 0.65140420740557, 0.17606545637894844, 0.4232438065337333, 0.5629220632180115, 0.6255934076332242, 0.7355595374991346, 0.8725979648859528, 0.44931313421804175, 0.8607567749631075, 0.35704996443459147, 352.74136956923417, 117.13005189356308, 116.1731458758269, 221.54899321849547, 267.835827236683, 147.48635508844532, 0.3602318010133918, -0.4481151373310709, -0.20433492562234845, -0.35463531197974785, 0.10426900336284217, -0.020044535450859935, 0.0, 0.0, 0.0, 0.0, 0.0, 0.0] - 1.8494883204568302, [(0.0, 1.0, 1.0, 1.0, 1.0, 1.0, 2.0, 2.0, 1.0, 0.0, 0.0, 2.0, 3.0, 1.0, 3.0, 1.0, 0.0, 1.0, 0.0, 0.0, 1.0, 0.5075464457712857, 0.40561548977886797, 0.5924100653953069, 0.6898912036444553, 0.32397746020500706, 0.6037555252599196, 0.3058705852867274, 0.39458473007932704, 0.8848366812052925, 0.42053076015868107, 0.2504307814955513, 0.3773559257068787, 180.69168626186487, 49.99227689696213, 61.630372456203155, 353.28957377610965, 148.22610471121692, 216.36561586930685, 0.22299327439009287, 0.1277215220161081, 0.07681036892723736, 0.2837008778379241, 0.3624143843536254, -0.4304467698865643, 0.0, 0.0, 0.0, 0.0, 0.0, 0.0] - 1.2559198582937607]

[ GENERATION 8 ]
Best individual(s) (2)
[[(0.0, 1.0, 1.0, 1.0, 1.0, 1.0, 1.0, 1.0, 1.0, 2.0, 0.0, 4.0, 2.0, 1.0, 1.0, 3.0, 1.0, 1.0, 1.0, 0.0, 0.0, 0.4210436476749819, 0.6240889537025133, 0.65140420740557, 0.17606545637894844, 0.4232438065337333, 0.5629220632180115, 0.6255934076332242, 0.7355595374991346, 0.8725979648859528, 0.44931313421804175, 0.8607567749631075, 0.35704996443459147, 352.74136956923417, 117.13005189356308, 116.1731458758269, 221.54899321849547, 267.835827236683, 147.48635508844532, 0.3602318010133918, -0.4481151373310709, -0.20433492562234845, -0.35463531197974785, 0.10426900336284217, -0.020044535450859935, 0.0, 0.0, 0.0, 0.0, 0.0, 0.0] - 1.8494883204568302, [(0.0, 1.0, 1.0, 1.0, 1.0, 1.0, 2.0, 2.0, 1.0, 0.0, 0.0, 2.0, 3.0, 1.0, 3.0, 1.0, 0.0, 1.0, 0.0, 0.0, 1.0, 0.5075464457712857, 0.40561548977886797, 0.5924100653953069, 0.6898912036444553, 0.32397746020500706, 0.6037555252599196, 0.3058705852867274, 0.39458473007932704, 0.8848366812052925, 0.42053076015868107, 0.2504307814955513, 0.3773559257068787, 180.69168626186487, 49.99227689696213, 61.630372456203155, 353.28957377610965, 148.22610471121692, 216.36561586930685, 0.22299327439009287, 0.1277215220161081, 0.07681036892723736, 0.2837008778379241, 0.3624143843536254, -0.4304467698865643, 0.0, 0.0, 0.0, 0.0, 0.0, 0.0] - 1.2559198582937607]

[ GENERATION 9 ]
Best individual(s) (2)
[[(0.0, 1.0, 1.0, 1.0, 1.0, 1.0, 1.0, 1.0, 1.0, 2.0, 0.0, 4.0, 2.0, 1.0, 1.0, 3.0, 1.0, 1.0, 1.0, 0.0, 0.0, 0.4210436476749819, 0.6240889537025133, 0.65140420740557, 0.17606545637894844, 0.4232438065337333, 0.5629220632180115, 0.6255934076332242, 0.7355595374991346, 0.8725979648859528, 0.44931313421804175, 0.8607567749631075, 0.35704996443459147, 352.74136956923417, 117.13005189356308, 116.1731458758269, 221.54899321849547, 267.835827236683, 147.48635508844532, 0.3602318010133918, -0.4481151373310709, -0.20433492562234845, -0.35463531197974785, 0.10426900336284217, -0.020044535450859935, 0.0, 0.0, 0.0, 0.0, 0.0, 0.0] - 1.8494883204568302, [(0.0, 1.0, 1.0, 1.0, 1.0, 1.0, 2.0, 2.0, 1.0, 0.0, 0.0, 2.0, 3.0, 1.0, 3.0, 1.0, 0.0, 1.0, 0.0, 0.0, 1.0, 0.5075464457712857, 0.40561548977886797, 0.5924100653953069, 0.6898912036444553, 0.32397746020500706, 0.6037555252599196, 0.3058705852867274, 0.39458473007932704, 0.8848366812052925, 0.42053076015868107, 0.2504307814955513, 0.3773559257068787, 180.69168626186487, 49.99227689696213, 61.630372456203155, 353.28957377610965, 148.22610471121692, 216.36561586930685, 0.22299327439009287, 0.1277215220161081, 0.07681036892723736, 0.2837008778379241, 0.3624143843536254, -0.4304467698865643, 0.0, 0.0, 0.0, 0.0, 0.0, 0.0] - 1.2559198582937607]

[ GENERATION 10 ]
Best individual(s) (2)
[[(0.0, 1.0, 1.0, 1.0, 1.0, 1.0, 1.0, 1.0, 1.0, 2.0, 0.0, 4.0, 2.0, 1.0, 1.0, 3.0, 1.0, 1.0, 1.0, 0.0, 0.0, 0.4210436476749819, 0.6240889537025133, 0.65140420740557, 0.17606545637894844, 0.4232438065337333, 0.5629220632180115, 0.6255934076332242, 0.7355595374991346, 0.8725979648859528, 0.44931313421804175, 0.8607567749631075, 0.35704996443459147, 352.74136956923417, 117.13005189356308, 116.1731458758269, 221.54899321849547, 267.835827236683, 147.48635508844532, 0.3602318010133918, -0.4481151373310709, -0.20433492562234845, -0.35463531197974785, 0.10426900336284217, -0.020044535450859935, 0.0, 0.0, 0.0, 0.0, 0.0, 0.0] - 1.8494883204568302, [(0.0, 1.0, 1.0, 1.0, 1.0, 1.0, 2.0, 2.0, 1.0, 0.0, 0.0, 2.0, 3.0, 1.0, 3.0, 1.0, 0.0, 1.0, 0.0, 0.0, 1.0, 0.5075464457712857, 0.40561548977886797, 0.5924100653953069, 0.6898912036444553, 0.32397746020500706, 0.6037555252599196, 0.3058705852867274, 0.39458473007932704, 0.8848366812052925, 0.42053076015868107, 0.2504307814955513, 0.3773559257068787, 180.69168626186487, 49.99227689696213, 61.630372456203155, 353.28957377610965, 148.22610471121692, 216.36561586930685, 0.22299327439009287, 0.1277215220161081, 0.07681036892723736, 0.2837008778379241, 0.3624143843536254, -0.4304467698865643, 0.0, 0.0, 0.0, 0.0, 0.0, 0.0] - 1.2559198582937607]

[ GENERATION 11 ]
Best individual(s) (2)
[[(0.0, 1.0, 1.0, 1.0, 1.0, 1.0, 1.0, 1.0, 1.0, 2.0, 0.0, 4.0, 2.0, 1.0, 1.0, 3.0, 1.0, 1.0, 1.0, 0.0, 0.0, 0.4210436476749819, 0.6240889537025133, 0.65140420740557, 0.17606545637894844, 0.4232438065337333, 0.5629220632180115, 0.6255934076332242, 0.7355595374991346, 0.8725979648859528, 0.44931313421804175, 0.8607567749631075, 0.35704996443459147, 352.74136956923417, 117.13005189356308, 116.1731458758269, 221.54899321849547, 267.835827236683, 147.48635508844532, 0.3602318010133918, -0.4481151373310709, -0.20433492562234845, -0.35463531197974785, 0.10426900336284217, -0.020044535450859935, 0.0, 0.0, 0.0, 0.0, 0.0, 0.0] - 1.8494883204568302, [(0.0, 1.0, 1.0, 1.0, 1.0, 1.0, 2.0, 2.0, 1.0, 0.0, 0.0, 2.0, 3.0, 1.0, 3.0, 1.0, 0.0, 1.0, 0.0, 0.0, 1.0, 0.5075464457712857, 0.40561548977886797, 0.5924100653953069, 0.6898912036444553, 0.32397746020500706, 0.6037555252599196, 0.3058705852867274, 0.39458473007932704, 0.8848366812052925, 0.42053076015868107, 0.2504307814955513, 0.3773559257068787, 180.69168626186487, 49.99227689696213, 61.630372456203155, 353.28957377610965, 148.22610471121692, 216.36561586930685, 0.22299327439009287, 0.1277215220161081, 0.07681036892723736, 0.2837008778379241, 0.3624143843536254, -0.4304467698865643, 0.0, 0.0, 0.0, 0.0, 0.0, 0.0] - 1.2559198582937607]

[ GENERATION 12 ]
Best individual(s) (2)
[[(0.0, 1.0, 1.0, 1.0, 1.0, 1.0, 1.0, 1.0, 1.0, 2.0, 0.0, 4.0, 2.0, 1.0, 1.0, 3.0, 1.0, 1.0, 1.0, 0.0, 0.0, 0.4210436476749819, 0.6240889537025133, 0.65140420740557, 0.17606545637894844, 0.4232438065337333, 0.5629220632180115, 0.6255934076332242, 0.7355595374991346, 0.8725979648859528, 0.44931313421804175, 0.8607567749631075, 0.35704996443459147, 352.74136956923417, 117.13005189356308, 116.1731458758269, 221.54899321849547, 267.835827236683, 147.48635508844532, 0.3602318010133918, -0.4481151373310709, -0.20433492562234845, -0.35463531197974785, 0.10426900336284217, -0.020044535450859935, 0.0, 0.0, 0.0, 0.0, 0.0, 0.0] - 1.8494883204568302, [(0.0, 1.0, 1.0, 1.0, 0.0, 0.0, 1.0, 1.0, 1.0, 0.0, 0.0, 1.0, 1.0, 1.0, 0.0, 0.0, 0.0, 1.0, 0.0, 0.0, 0.0, 0.8321972946282722, 0.6010235125040047, 0.8484901973221086, 0.6958350656948507, 0.0, 0.0, 0.5292666778995505, 0.41896052582948595, 0.7977281910880921, 0.8990051228975429, 0.0, 0.0, 148.1403904498264, 48.73843538779113, 147.32076057805165, 293.4630781327473, 0.0, 0.0, 0.2982852982881411, 0.00578530844690861, -0.060427036834533654, 0.19776351442422224, 0.0, 0.0, 0.0, 0.0, 0.0, 0.0, 0.0, 0.0] - 1.5002837679297236]

[ GENERATION 13 ]
Best individual(s) (2)
[[(0.0, 1.0, 1.0, 1.0, 1.0, 1.0, 1.0, 1.0, 1.0, 2.0, 0.0, 4.0, 2.0, 1.0, 1.0, 3.0, 1.0, 1.0, 1.0, 0.0, 0.0, 0.4210436476749819, 0.6240889537025133, 0.65140420740557, 0.17606545637894844, 0.4232438065337333, 0.5629220632180115, 0.6255934076332242, 0.7355595374991346, 0.8725979648859528, 0.44931313421804175, 0.8607567749631075, 0.35704996443459147, 352.74136956923417, 117.13005189356308, 116.1731458758269, 221.54899321849547, 267.835827236683, 147.48635508844532, 0.3602318010133918, -0.4481151373310709, -0.20433492562234845, -0.35463531197974785, 0.10426900336284217, -0.020044535450859935, 0.0, 0.0, 0.0, 0.0, 0.0, 0.0] - 1.8494883204568302, [(0.0, 1.0, 1.0, 1.0, 0.0, 0.0, 1.0, 1.0, 1.0, 0.0, 0.0, 1.0, 1.0, 1.0, 0.0, 0.0, 0.0, 1.0, 0.0, 0.0, 0.0, 0.8321972946282722, 0.6010235125040047, 0.8484901973221086, 0.6958350656948507, 0.0, 0.0, 0.5292666778995505, 0.41896052582948595, 0.7977281910880921, 0.8990051228975429, 0.0, 0.0, 148.1403904498264, 48.73843538779113, 147.32076057805165, 293.4630781327473, 0.0, 0.0, 0.2982852982881411, 0.00578530844690861, -0.060427036834533654, 0.19776351442422224, 0.0, 0.0, 0.0, 0.0, 0.0, 0.0, 0.0, 0.0] - 1.5002837679297236]

[ GENERATION 14 ]
Best individual(s) (2)
[[(0.0, 1.0, 1.0, 1.0, 1.0, 1.0, 1.0, 1.0, 1.0, 2.0, 0.0, 4.0, 2.0, 1.0, 1.0, 3.0, 1.0, 1.0, 1.0, 0.0, 0.0, 0.4210436476749819, 0.6240889537025133, 0.65140420740557, 0.17606545637894844, 0.4232438065337333, 0.5629220632180115, 0.6255934076332242, 0.7355595374991346, 0.8725979648859528, 0.44931313421804175, 0.8607567749631075, 0.35704996443459147, 352.74136956923417, 117.13005189356308, 116.1731458758269, 221.54899321849547, 267.835827236683, 147.48635508844532, 0.3602318010133918, -0.4481151373310709, -0.20433492562234845, -0.35463531197974785, 0.10426900336284217, -0.020044535450859935, 0.0, 0.0, 0.0, 0.0, 0.0, 0.0] - 1.8494883204568302, [(0.0, 1.0, 1.0, 1.0, 1.0, 1.0, 2.0, 2.0, 1.0, 0.0, 0.0, 2.0, 3.0, 1.0, 3.0, 1.0, 0.0, 1.0, 0.0, 0.0, 1.0, 0.5075464457712857, 0.40561548977886797, 0.5924100653953069, 0.6898912036444553, 0.32397746020500706, 0.6037555252599196, 0.3058705852867274, 0.39458473007932704, 0.8848366812052925, 0.42053076015868107, 0.2504307814955513, 0.3773559257068787, 180.69168626186487, 49.99227689696213, 61.630372456203155, 353.28957377610965, 148.22610471121692, 216.36561586930685, 0.22299327439009287, 0.1277215220161081, 0.07681036892723736, 0.2837008778379241, 0.3624143843536254, -0.4304467698865643, 0.0, 0.0, 0.0, 0.0, 0.0, 0.0] - 1.2559198582937607]

[ GENERATION 15 ]
Best individual(s) (2)
[[(0.0, 1.0, 1.0, 1.0, 1.0, 1.0, 1.0, 1.0, 1.0, 2.0, 0.0, 4.0, 2.0, 1.0, 1.0, 3.0, 1.0, 1.0, 1.0, 0.0, 0.0, 0.4210436476749819, 0.6240889537025133, 0.65140420740557, 0.17606545637894844, 0.4232438065337333, 0.5629220632180115, 0.6255934076332242, 0.7355595374991346, 0.8725979648859528, 0.44931313421804175, 0.8607567749631075, 0.35704996443459147, 352.74136956923417, 117.13005189356308, 116.1731458758269, 221.54899321849547, 267.835827236683, 147.48635508844532, 0.3602318010133918, -0.4481151373310709, -0.20433492562234845, -0.35463531197974785, 0.10426900336284217, -0.020044535450859935, 0.0, 0.0, 0.0, 0.0, 0.0, 0.0] - 1.8494883204568302, [(0.0, 1.0, 1.0, 1.0, 1.0, 1.0, 2.0, 2.0, 1.0, 0.0, 0.0, 2.0, 3.0, 1.0, 3.0, 1.0, 0.0, 1.0, 0.0, 0.0, 1.0, 0.5075464457712857, 0.40561548977886797, 0.5924100653953069, 0.6898912036444553, 0.32397746020500706, 0.6037555252599196, 0.3058705852867274, 0.39458473007932704, 0.8848366812052925, 0.42053076015868107, 0.2504307814955513, 0.3773559257068787, 180.69168626186487, 49.99227689696213, 61.630372456203155, 353.28957377610965, 148.22610471121692, 216.36561586930685, 0.22299327439009287, 0.1277215220161081, 0.07681036892723736, 0.2837008778379241, 0.3624143843536254, -0.4304467698865643, 0.0, 0.0, 0.0, 0.0, 0.0, 0.0] - 1.2559198582937607]

[ GENERATION 16 ]
Best individual(s) (2)
[[(0.0, 1.0, 1.0, 1.0, 1.0, 1.0, 1.0, 1.0, 1.0, 2.0, 0.0, 4.0, 2.0, 1.0, 1.0, 3.0, 1.0, 1.0, 1.0, 0.0, 0.0, 0.4210436476749819, 0.6240889537025133, 0.65140420740557, 0.17606545637894844, 0.4232438065337333, 0.5629220632180115, 0.6255934076332242, 0.7355595374991346, 0.8725979648859528, 0.44931313421804175, 0.8607567749631075, 0.35704996443459147, 352.74136956923417, 117.13005189356308, 116.1731458758269, 221.54899321849547, 267.835827236683, 147.48635508844532, 0.3602318010133918, -0.4481151373310709, -0.20433492562234845, -0.35463531197974785, 0.10426900336284217, -0.020044535450859935, 0.0, 0.0, 0.0, 0.0, 0.0, 0.0] - 1.8494883204568302, [(0.0, 1.0, 1.0, 1.0, 1.0, 1.0, 2.0, 2.0, 1.0, 0.0, 0.0, 2.0, 3.0, 1.0, 3.0, 1.0, 0.0, 1.0, 0.0, 0.0, 1.0, 0.5075464457712857, 0.40561548977886797, 0.5924100653953069, 0.6898912036444553, 0.32397746020500706, 0.6037555252599196, 0.3058705852867274, 0.39458473007932704, 0.8848366812052925, 0.42053076015868107, 0.2504307814955513, 0.3773559257068787, 180.69168626186487, 49.99227689696213, 61.630372456203155, 353.28957377610965, 148.22610471121692, 216.36561586930685, 0.22299327439009287, 0.1277215220161081, 0.07681036892723736, 0.2837008778379241, 0.3624143843536254, -0.4304467698865643, 0.0, 0.0, 0.0, 0.0, 0.0, 0.0] - 1.2559198582937607]

[ GENERATION 17 ]
Best individual(s) (2)
[[(0.0, 1.0, 1.0, 1.0, 1.0, 1.0, 1.0, 1.0, 1.0, 2.0, 0.0, 4.0, 2.0, 1.0, 1.0, 3.0, 1.0, 1.0, 1.0, 0.0, 0.0, 0.4210436476749819, 0.6240889537025133, 0.65140420740557, 0.17606545637894844, 0.4232438065337333, 0.5629220632180115, 0.6255934076332242, 0.7355595374991346, 0.8725979648859528, 0.44931313421804175, 0.8607567749631075, 0.35704996443459147, 352.74136956923417, 117.13005189356308, 116.1731458758269, 221.54899321849547, 267.835827236683, 147.48635508844532, 0.3602318010133918, -0.4481151373310709, -0.20433492562234845, -0.35463531197974785, 0.10426900336284217, -0.020044535450859935, 0.0, 0.0, 0.0, 0.0, 0.0, 0.0] - 1.8494883204568302, [(0.0, 1.0, 1.0, 1.0, 1.0, 1.0, 2.0, 2.0, 1.0, 0.0, 0.0, 2.0, 3.0, 1.0, 3.0, 1.0, 0.0, 1.0, 0.0, 0.0, 1.0, 0.5075464457712857, 0.40561548977886797, 0.5924100653953069, 0.6898912036444553, 0.32397746020500706, 0.6037555252599196, 0.3058705852867274, 0.39458473007932704, 0.8848366812052925, 0.42053076015868107, 0.2504307814955513, 0.3773559257068787, 180.69168626186487, 49.99227689696213, 61.630372456203155, 353.28957377610965, 148.22610471121692, 216.36561586930685, 0.22299327439009287, 0.1277215220161081, 0.07681036892723736, 0.2837008778379241, 0.3624143843536254, -0.4304467698865643, 0.0, 0.0, 0.0, 0.0, 0.0, 0.0] - 1.2559198582937607]

[ GENERATION 18 ]
Best individual(s) (2)
[[(0.0, 1.0, 1.0, 1.0, 1.0, 1.0, 1.0, 1.0, 1.0, 2.0, 0.0, 4.0, 2.0, 1.0, 1.0, 3.0, 1.0, 1.0, 1.0, 0.0, 0.0, 0.4210436476749819, 0.6240889537025133, 0.65140420740557, 0.17606545637894844, 0.4232438065337333, 0.5629220632180115, 0.6255934076332242, 0.7355595374991346, 0.8725979648859528, 0.44931313421804175, 0.8607567749631075, 0.35704996443459147, 352.74136956923417, 117.13005189356308, 116.1731458758269, 221.54899321849547, 267.835827236683, 147.48635508844532, 0.3602318010133918, -0.4481151373310709, -0.20433492562234845, -0.35463531197974785, 0.10426900336284217, -0.020044535450859935, 0.0, 0.0, 0.0, 0.0, 0.0, 0.0] - 1.8494883204568302, [(0.0, 1.0, 1.0, 1.0, 1.0, 1.0, 2.0, 0.0, 1.0, 2.0, 0.0, 3.0, 2.0, 1.0, 1.0, 3.0, 1.0, 0.0, 0.0, 0.0, 1.0, 0.006556843313289873, 0.6234567484256589, 0.432669012805764, 0.3355972083798764, 0.22529770707662666, 0.3504740279179709, 0.3655169032917156, 0.7687118741480173, 0.07361530060121757, 0.9707239802129134, 0.48337333880277356, 0.7406329901690446, 330.21255579663836, 315.0948948297068, 315.46171226835935, 39.510299127648295, 54.699455873144224, 101.88868221494089, -0.35154780023624177, 0.19350868666244303, -0.3449741128775514, 0.10004264520767225, 0.06283918074873884, -0.1733753120499817, 0.0, 0.0, 0.0, 0.0, 0.0, 0.0] - 1.2953916226727769]

[ GENERATION 19 ]
Best individual(s) (2)
[[(0.0, 1.0, 1.0, 1.0, 1.0, 1.0, 1.0, 1.0, 1.0, 2.0, 0.0, 4.0, 2.0, 1.0, 1.0, 3.0, 1.0, 1.0, 1.0, 0.0, 0.0, 0.4210436476749819, 0.6240889537025133, 0.65140420740557, 0.17606545637894844, 0.4232438065337333, 0.5629220632180115, 0.6255934076332242, 0.7355595374991346, 0.8725979648859528, 0.44931313421804175, 0.8607567749631075, 0.35704996443459147, 352.74136956923417, 117.13005189356308, 116.1731458758269, 221.54899321849547, 267.835827236683, 147.48635508844532, 0.3602318010133918, -0.4481151373310709, -0.20433492562234845, -0.35463531197974785, 0.10426900336284217, -0.020044535450859935, 0.0, 0.0, 0.0, 0.0, 0.0, 0.0] - 1.8494883204568302, [(0.0, 1.0, 1.0, 1.0, 0.0, 0.0, 1.0, 1.0, 1.0, 0.0, 0.0, 0.0, 1.0, 1.0, 0.0, 0.0, 0.0, 1.0, 0.0, 0.0, 0.0, 0.7478352359117464, 0.3649256071761947, 0.8585486808695917, 0.14728544646309738, 0.0, 0.0, 0.9692251025763698, 0.3589445091878066, 0.8662725798066722, 0.6466536916699729, 0.0, 0.0, 296.1607395902744, 110.97035279342404, 356.8468202981662, 325.38319308187675, 0.0, 0.0, -0.04201330759672539, -0.49860877754041866, 0.22262128946734772, -0.13116709998308007, 0.0, 0.0, 0.0, 0.0, 0.0, 0.0, 0.0, 0.0] - 1.414945296611208]

[ GENERATION 20 ]
Best individual(s) (2)
[[(0.0, 1.0, 1.0, 1.0, 1.0, 1.0, 1.0, 1.0, 1.0, 2.0, 0.0, 4.0, 2.0, 1.0, 1.0, 3.0, 1.0, 1.0, 1.0, 0.0, 0.0, 0.4210436476749819, 0.6240889537025133, 0.65140420740557, 0.17606545637894844, 0.4232438065337333, 0.5629220632180115, 0.6255934076332242, 0.7355595374991346, 0.8725979648859528, 0.44931313421804175, 0.8607567749631075, 0.35704996443459147, 352.74136956923417, 117.13005189356308, 116.1731458758269, 221.54899321849547, 267.835827236683, 147.48635508844532, 0.3602318010133918, -0.4481151373310709, -0.20433492562234845, -0.35463531197974785, 0.10426900336284217, -0.020044535450859935, 0.0, 0.0, 0.0, 0.0, 0.0, 0.0] - 1.8494883204568302, [(0.0, 1.0, 1.0, 1.0, 0.0, 0.0, 1.0, 1.0, 1.0, 0.0, 0.0, 0.0, 1.0, 1.0, 0.0, 0.0, 0.0, 1.0, 0.0, 0.0, 0.0, 0.7478352359117464, 0.3649256071761947, 0.8585486808695917, 0.14728544646309738, 0.0, 0.0, 0.9692251025763698, 0.3589445091878066, 0.8662725798066722, 0.6466536916699729, 0.0, 0.0, 296.1607395902744, 110.97035279342404, 356.8468202981662, 325.38319308187675, 0.0, 0.0, -0.04201330759672539, -0.49860877754041866, 0.22262128946734772, -0.13116709998308007, 0.0, 0.0, 0.0, 0.0, 0.0, 0.0, 0.0, 0.0] - 1.414945296611208]

[ GENERATION 21 ]
Best individual(s) (2)
[[(0.0, 1.0, 1.0, 1.0, 1.0, 1.0, 1.0, 1.0, 1.0, 2.0, 0.0, 4.0, 2.0, 1.0, 1.0, 3.0, 1.0, 1.0, 1.0, 0.0, 0.0, 0.4210436476749819, 0.6240889537025133, 0.65140420740557, 0.17606545637894844, 0.4232438065337333, 0.5629220632180115, 0.6255934076332242, 0.7355595374991346, 0.8725979648859528, 0.44931313421804175, 0.8607567749631075, 0.35704996443459147, 352.74136956923417, 117.13005189356308, 116.1731458758269, 221.54899321849547, 267.835827236683, 147.48635508844532, 0.3602318010133918, -0.4481151373310709, -0.20433492562234845, -0.35463531197974785, 0.10426900336284217, -0.020044535450859935, 0.0, 0.0, 0.0, 0.0, 0.0, 0.0] - 1.8494883204568302, [(0.0, 1.0, 1.0, 1.0, 1.0, 1.0, 2.0, 0.0, 1.0, 2.0, 0.0, 3.0, 2.0, 1.0, 1.0, 3.0, 1.0, 0.0, 0.0, 0.0, 1.0, 0.006556843313289873, 0.6234567484256589, 0.432669012805764, 0.3355972083798764, 0.22529770707662666, 0.3504740279179709, 0.3655169032917156, 0.7687118741480173, 0.07361530060121757, 0.9707239802129134, 0.48337333880277356, 0.7406329901690446, 330.21255579663836, 315.0948948297068, 315.46171226835935, 39.510299127648295, 54.699455873144224, 101.88868221494089, -0.35154780023624177, 0.19350868666244303, -0.3449741128775514, 0.10004264520767225, 0.06283918074873884, -0.1733753120499817, 0.0, 0.0, 0.0, 0.0, 0.0, 0.0] - 1.2953916226727769]

[ GENERATION 22 ]
Best individual(s) (2)
[[(0.0, 1.0, 1.0, 1.0, 1.0, 1.0, 1.0, 1.0, 1.0, 2.0, 0.0, 4.0, 2.0, 1.0, 1.0, 3.0, 1.0, 1.0, 1.0, 0.0, 0.0, 0.4210436476749819, 0.6240889537025133, 0.65140420740557, 0.17606545637894844, 0.4232438065337333, 0.5629220632180115, 0.6255934076332242, 0.7355595374991346, 0.8725979648859528, 0.44931313421804175, 0.8607567749631075, 0.35704996443459147, 352.74136956923417, 117.13005189356308, 116.1731458758269, 221.54899321849547, 267.835827236683, 147.48635508844532, 0.3602318010133918, -0.4481151373310709, -0.20433492562234845, -0.35463531197974785, 0.10426900336284217, -0.020044535450859935, 0.0, 0.0, 0.0, 0.0, 0.0, 0.0] - 1.8494883204568302, [(0.0, 1.0, 1.0, 1.0, 1.0, 1.0, 2.0, 0.0, 1.0, 2.0, 0.0, 3.0, 2.0, 1.0, 1.0, 3.0, 1.0, 0.0, 0.0, 0.0, 1.0, 0.006556843313289873, 0.6234567484256589, 0.432669012805764, 0.3355972083798764, 0.22529770707662666, 0.3504740279179709, 0.3655169032917156, 0.7687118741480173, 0.07361530060121757, 0.9707239802129134, 0.48337333880277356, 0.7406329901690446, 330.21255579663836, 315.0948948297068, 315.46171226835935, 39.510299127648295, 54.699455873144224, 101.88868221494089, -0.35154780023624177, 0.19350868666244303, -0.3449741128775514, 0.10004264520767225, 0.06283918074873884, -0.1733753120499817, 0.0, 0.0, 0.0, 0.0, 0.0, 0.0] - 1.2953916226727769]

[ GENERATION 23 ]
Best individual(s) (2)
[[(0.0, 1.0, 1.0, 1.0, 1.0, 1.0, 1.0, 1.0, 1.0, 2.0, 0.0, 4.0, 2.0, 1.0, 1.0, 3.0, 1.0, 1.0, 1.0, 0.0, 0.0, 0.4210436476749819, 0.6240889537025133, 0.65140420740557, 0.17606545637894844, 0.4232438065337333, 0.5629220632180115, 0.6255934076332242, 0.7355595374991346, 0.8725979648859528, 0.44931313421804175, 0.8607567749631075, 0.35704996443459147, 352.74136956923417, 117.13005189356308, 116.1731458758269, 221.54899321849547, 267.835827236683, 147.48635508844532, 0.3602318010133918, -0.4481151373310709, -0.20433492562234845, -0.35463531197974785, 0.10426900336284217, -0.020044535450859935, 0.0, 0.0, 0.0, 0.0, 0.0, 0.0] - 1.8494883204568302, [(0.0, 1.0, 1.0, 1.0, 1.0, 1.0, 2.0, 0.0, 1.0, 2.0, 0.0, 3.0, 2.0, 1.0, 1.0, 3.0, 1.0, 0.0, 0.0, 0.0, 1.0, 0.006556843313289873, 0.6234567484256589, 0.432669012805764, 0.3355972083798764, 0.22529770707662666, 0.3504740279179709, 0.3655169032917156, 0.7687118741480173, 0.07361530060121757, 0.9707239802129134, 0.48337333880277356, 0.7406329901690446, 330.21255579663836, 315.0948948297068, 315.46171226835935, 39.510299127648295, 54.699455873144224, 101.88868221494089, -0.35154780023624177, 0.19350868666244303, -0.3449741128775514, 0.10004264520767225, 0.06283918074873884, -0.1733753120499817, 0.0, 0.0, 0.0, 0.0, 0.0, 0.0] - 1.2953916226727769]

[ GENERATION 24 ]
Best individual(s) (2)
[[(0.0, 1.0, 1.0, 1.0, 1.0, 1.0, 1.0, 1.0, 1.0, 2.0, 0.0, 4.0, 2.0, 1.0, 1.0, 3.0, 1.0, 1.0, 1.0, 0.0, 0.0, 0.4210436476749819, 0.6240889537025133, 0.65140420740557, 0.17606545637894844, 0.4232438065337333, 0.5629220632180115, 0.6255934076332242, 0.7355595374991346, 0.8725979648859528, 0.44931313421804175, 0.8607567749631075, 0.35704996443459147, 352.74136956923417, 117.13005189356308, 116.1731458758269, 221.54899321849547, 267.835827236683, 147.48635508844532, 0.3602318010133918, -0.4481151373310709, -0.20433492562234845, -0.35463531197974785, 0.10426900336284217, -0.020044535450859935, 0.0, 0.0, 0.0, 0.0, 0.0, 0.0] - 1.8494883204568302, [(0.0, 1.0, 1.0, 1.0, 1.0, 1.0, 2.0, 1.0, 0.0, 1.0, 1.0, 0.0, 1.0, 1.0, 1.0, 1.0, 0.0, 1.0, 1.0, 0.0, 0.0, 0.7478352359117464, 0.3649256071761947, 0.3892352277631679, 0.8585486808695917, 0.14728544646309738, 0.5203876614558952, 0.9692251025763698, 0.3589445091878066, 0.5434767771551259, 0.8662725798066722, 0.6466536916699729, 0.6328686776686039, 296.1607395902744, 110.97035279342404, 176.53327672115702, 356.8468202981662, 325.38319308187675, 147.44976238361457, -0.04201330759672539, -0.49860877754041866, -0.033188805083349315, 0.22262128946734772, -0.13116709998308007, -0.20666762498397184, 0.0, 0.0, 0.0, 0.0, 0.0, 0.0] - 1.726744835960943]

[ GENERATION 25 ]
Best individual(s) (2)
[[(0.0, 1.0, 1.0, 1.0, 1.0, 1.0, 1.0, 1.0, 1.0, 2.0, 0.0, 4.0, 2.0, 1.0, 1.0, 3.0, 1.0, 1.0, 1.0, 0.0, 0.0, 0.4210436476749819, 0.6240889537025133, 0.65140420740557, 0.17606545637894844, 0.4232438065337333, 0.5629220632180115, 0.6255934076332242, 0.7355595374991346, 0.8725979648859528, 0.44931313421804175, 0.8607567749631075, 0.35704996443459147, 129.09398385131013, 113.99417323064195, 116.1731458758269, 229.23977919256097, 267.835827236683, 151.44508572488593, 0.3602318010133918, -0.4481151373310709, -0.20433492562234845, -0.35463531197974785, 0.10426900336284217, -0.020044535450859935, 0.0, 0.0, 0.0, 0.0, 0.0, 0.0] - 2.1241286774867816, [(0.0, 1.0, 1.0, 1.0, 1.0, 1.0, 2.0, 1.0, 0.0, 1.0, 1.0, 0.0, 1.0, 1.0, 1.0, 1.0, 0.0, 1.0, 1.0, 0.0, 0.0, 0.7478352359117464, 0.3649256071761947, 0.3892352277631679, 0.8585486808695917, 0.14728544646309738, 0.5203876614558952, 0.9692251025763698, 0.3589445091878066, 0.5434767771551259, 0.8662725798066722, 0.6466536916699729, 0.6328686776686039, 296.1607395902744, 110.97035279342404, 276.0314167855866, 56.77816930079996, 325.38319308187675, 147.44976238361457, -0.04201330759672539, -0.49860877754041866, -0.033188805083349315, 0.22262128946734772, -0.13116709998308007, -0.20666762498397184, 0.0, 0.0, 0.0, 0.0, 0.0, 0.0] - 1.9022842646001263]

[ GENERATION 26 ]
Best individual(s) (2)
[[(0.0, 1.0, 1.0, 1.0, 1.0, 1.0, 1.0, 1.0, 1.0, 2.0, 0.0, 4.0, 2.0, 1.0, 1.0, 3.0, 1.0, 1.0, 1.0, 0.0, 0.0, 0.4210436476749819, 0.6240889537025133, 0.65140420740557, 0.17606545637894844, 0.4232438065337333, 0.5629220632180115, 0.6255934076332242, 0.7355595374991346, 0.8725979648859528, 0.44931313421804175, 0.8607567749631075, 0.35704996443459147, 129.09398385131013, 113.99417323064195, 116.1731458758269, 229.23977919256097, 267.835827236683, 151.44508572488593, 0.3602318010133918, -0.4481151373310709, -0.20433492562234845, -0.35463531197974785, 0.10426900336284217, -0.020044535450859935, 0.0, 0.0, 0.0, 0.0, 0.0, 0.0] - 2.1241286774867816, [(0.0, 1.0, 1.0, 1.0, 1.0, 1.0, 2.0, 1.0, 0.0, 1.0, 1.0, 0.0, 1.0, 1.0, 1.0, 1.0, 0.0, 1.0, 1.0, 0.0, 0.0, 0.7478352359117464, 0.3649256071761947, 0.3892352277631679, 0.8585486808695917, 0.14728544646309738, 0.5203876614558952, 0.9692251025763698, 0.3589445091878066, 0.5434767771551259, 0.8662725798066722, 0.6466536916699729, 0.6328686776686039, 296.1607395902744, 110.97035279342404, 276.0314167855866, 56.77816930079996, 325.38319308187675, 147.44976238361457, -0.04201330759672539, -0.49860877754041866, -0.033188805083349315, 0.22262128946734772, -0.13116709998308007, -0.20666762498397184, 0.0, 0.0, 0.0, 0.0, 0.0, 0.0] - 1.9022842646001263]

[ GENERATION 27 ]
Best individual(s) (2)
[[(0.0, 1.0, 1.0, 1.0, 1.0, 1.0, 1.0, 1.0, 1.0, 2.0, 0.0, 4.0, 2.0, 1.0, 1.0, 3.0, 1.0, 1.0, 1.0, 0.0, 0.0, 0.4210436476749819, 0.6240889537025133, 0.65140420740557, 0.17606545637894844, 0.4232438065337333, 0.5629220632180115, 0.6255934076332242, 0.7355595374991346, 0.8725979648859528, 0.44931313421804175, 0.8607567749631075, 0.35704996443459147, 129.09398385131013, 113.99417323064195, 116.1731458758269, 229.23977919256097, 267.835827236683, 151.44508572488593, 0.3602318010133918, -0.4481151373310709, -0.20433492562234845, -0.35463531197974785, 0.10426900336284217, -0.020044535450859935, 0.0, 0.0, 0.0, 0.0, 0.0, 0.0] - 2.1241286774867816, [(0.0, 1.0, 1.0, 1.0, 1.0, 1.0, 2.0, 1.0, 0.0, 1.0, 1.0, 0.0, 1.0, 1.0, 1.0, 1.0, 0.0, 1.0, 1.0, 0.0, 0.0, 0.7478352359117464, 0.3649256071761947, 0.3892352277631679, 0.8585486808695917, 0.14728544646309738, 0.5203876614558952, 0.9692251025763698, 0.3589445091878066, 0.5434767771551259, 0.8662725798066722, 0.6466536916699729, 0.6328686776686039, 296.1607395902744, 110.97035279342404, 276.0314167855866, 56.77816930079996, 325.38319308187675, 147.44976238361457, -0.04201330759672539, -0.49860877754041866, -0.033188805083349315, 0.22262128946734772, -0.13116709998308007, -0.20666762498397184, 0.0, 0.0, 0.0, 0.0, 0.0, 0.0] - 1.9022842646001263]

[ GENERATION 28 ]
Best individual(s) (2)
[[(0.0, 1.0, 1.0, 1.0, 1.0, 1.0, 1.0, 1.0, 1.0, 2.0, 0.0, 4.0, 2.0, 1.0, 1.0, 3.0, 1.0, 1.0, 1.0, 0.0, 0.0, 0.4210436476749819, 0.6240889537025133, 0.65140420740557, 0.17606545637894844, 0.4232438065337333, 0.5629220632180115, 0.6255934076332242, 0.7355595374991346, 0.8725979648859528, 0.44931313421804175, 0.8607567749631075, 0.35704996443459147, 129.09398385131013, 113.99417323064195, 116.1731458758269, 229.23977919256097, 267.835827236683, 151.44508572488593, 0.3602318010133918, -0.4481151373310709, -0.20433492562234845, -0.35463531197974785, 0.10426900336284217, -0.020044535450859935, 0.0, 0.0, 0.0, 0.0, 0.0, 0.0] - 2.1241286774867816, [(0.0, 1.0, 1.0, 1.0, 1.0, 1.0, 2.0, 1.0, 0.0, 1.0, 1.0, 0.0, 1.0, 1.0, 1.0, 1.0, 0.0, 1.0, 1.0, 0.0, 0.0, 0.7478352359117464, 0.3649256071761947, 0.3892352277631679, 0.8585486808695917, 0.14728544646309738, 0.5203876614558952, 0.9692251025763698, 0.3589445091878066, 0.5434767771551259, 0.8662725798066722, 0.6466536916699729, 0.6328686776686039, 296.1607395902744, 110.97035279342404, 276.0314167855866, 56.77816930079996, 325.38319308187675, 147.44976238361457, -0.04201330759672539, -0.49860877754041866, -0.033188805083349315, 0.22262128946734772, -0.13116709998308007, -0.20666762498397184, 0.0, 0.0, 0.0, 0.0, 0.0, 0.0] - 1.9022842646001263]

[ GENERATION 29 ]
Best individual(s) (2)
[[(0.0, 1.0, 1.0, 1.0, 1.0, 1.0, 1.0, 1.0, 1.0, 2.0, 0.0, 4.0, 2.0, 1.0, 1.0, 3.0, 1.0, 1.0, 1.0, 0.0, 0.0, 0.4210436476749819, 0.6240889537025133, 0.65140420740557, 0.17606545637894844, 0.4232438065337333, 0.5629220632180115, 0.6255934076332242, 0.7355595374991346, 0.8725979648859528, 0.44931313421804175, 0.8607567749631075, 0.35704996443459147, 129.09398385131013, 113.99417323064195, 116.1731458758269, 229.23977919256097, 267.835827236683, 151.44508572488593, 0.3602318010133918, -0.4481151373310709, -0.20433492562234845, -0.35463531197974785, 0.10426900336284217, -0.020044535450859935, 0.0, 0.0, 0.0, 0.0, 0.0, 0.0] - 2.1241286774867816, [(0.0, 1.0, 1.0, 1.0, 1.0, 1.0, 2.0, 1.0, 0.0, 1.0, 1.0, 0.0, 1.0, 1.0, 1.0, 1.0, 0.0, 1.0, 1.0, 0.0, 0.0, 0.7478352359117464, 0.3649256071761947, 0.3892352277631679, 0.8585486808695917, 0.14728544646309738, 0.5203876614558952, 0.9692251025763698, 0.3589445091878066, 0.5434767771551259, 0.8662725798066722, 0.6466536916699729, 0.6328686776686039, 296.1607395902744, 110.97035279342404, 276.0314167855866, 56.77816930079996, 325.38319308187675, 147.44976238361457, -0.04201330759672539, -0.49860877754041866, -0.033188805083349315, 0.22262128946734772, -0.13116709998308007, -0.20666762498397184, 0.0, 0.0, 0.0, 0.0, 0.0, 0.0] - 1.9022842646001263]

[ GENERATION 30 ]
Best individual(s) (2)
[[(0.0, 1.0, 1.0, 1.0, 1.0, 1.0, 1.0, 1.0, 1.0, 2.0, 0.0, 4.0, 2.0, 1.0, 1.0, 3.0, 1.0, 1.0, 1.0, 0.0, 0.0, 0.4210436476749819, 0.6240889537025133, 0.65140420740557, 0.17606545637894844, 0.4232438065337333, 0.5629220632180115, 0.6255934076332242, 0.7355595374991346, 0.8725979648859528, 0.44931313421804175, 0.8607567749631075, 0.35704996443459147, 129.09398385131013, 113.99417323064195, 116.1731458758269, 229.23977919256097, 267.835827236683, 151.44508572488593, 0.3602318010133918, -0.4481151373310709, -0.20433492562234845, -0.35463531197974785, 0.10426900336284217, -0.020044535450859935, 0.0, 0.0, 0.0, 0.0, 0.0, 0.0] - 2.1241286774867816, [(0.0, 1.0, 1.0, 1.0, 1.0, 1.0, 2.0, 1.0, 0.0, 1.0, 1.0, 0.0, 1.0, 1.0, 1.0, 1.0, 0.0, 1.0, 1.0, 0.0, 0.0, 0.7478352359117464, 0.3649256071761947, 0.3892352277631679, 0.8585486808695917, 0.14728544646309738, 0.5203876614558952, 0.9692251025763698, 0.3589445091878066, 0.5434767771551259, 0.8662725798066722, 0.6466536916699729, 0.6328686776686039, 296.1607395902744, 110.97035279342404, 276.0314167855866, 56.77816930079996, 325.38319308187675, 147.44976238361457, -0.04201330759672539, -0.49860877754041866, -0.033188805083349315, 0.22262128946734772, -0.13116709998308007, -0.20666762498397184, 0.0, 0.0, 0.0, 0.0, 0.0, 0.0] - 1.9022842646001263]

[ GENERATION 31 ]
Best individual(s) (2)
[[(0.0, 1.0, 1.0, 1.0, 1.0, 1.0, 1.0, 1.0, 1.0, 2.0, 0.0, 4.0, 2.0, 1.0, 1.0, 3.0, 1.0, 1.0, 1.0, 0.0, 0.0, 0.4210436476749819, 0.6240889537025133, 0.65140420740557, 0.17606545637894844, 0.4232438065337333, 0.5629220632180115, 0.6255934076332242, 0.7355595374991346, 0.8725979648859528, 0.44931313421804175, 0.8607567749631075, 0.35704996443459147, 129.09398385131013, 113.99417323064195, 116.1731458758269, 229.23977919256097, 267.835827236683, 151.44508572488593, 0.3602318010133918, -0.4481151373310709, -0.20433492562234845, -0.35463531197974785, 0.10426900336284217, -0.020044535450859935, 0.0, 0.0, 0.0, 0.0, 0.0, 0.0] - 2.1241286774867816, [(0.0, 1.0, 1.0, 1.0, 1.0, 1.0, 2.0, 1.0, 0.0, 1.0, 1.0, 0.0, 1.0, 1.0, 1.0, 1.0, 0.0, 1.0, 1.0, 0.0, 0.0, 0.7478352359117464, 0.3649256071761947, 0.3892352277631679, 0.8585486808695917, 0.14728544646309738, 0.5203876614558952, 0.9692251025763698, 0.3589445091878066, 0.5434767771551259, 0.8662725798066722, 0.6466536916699729, 0.6328686776686039, 296.1607395902744, 110.97035279342404, 276.0314167855866, 56.77816930079996, 325.38319308187675, 147.44976238361457, -0.04201330759672539, -0.49860877754041866, -0.033188805083349315, 0.22262128946734772, -0.13116709998308007, -0.20666762498397184, 0.0, 0.0, 0.0, 0.0, 0.0, 0.0] - 1.9022842646001263]

[ GENERATION 32 ]
Best individual(s) (2)
[[(0.0, 1.0, 1.0, 1.0, 1.0, 1.0, 2.0, 1.0, 0.0, 1.0, 1.0, 0.0, 1.0, 1.0, 1.0, 1.0, 0.0, 1.0, 1.0, 0.0, 0.0, 0.7478352359117464, 0.3649256071761947, 0.3892352277631679, 0.8585486808695917, 0.14728544646309738, 0.5203876614558952, 0.9692251025763698, 0.3589445091878066, 0.5434767771551259, 0.8662725798066722, 0.6466536916699729, 0.6328686776686039, 296.1607395902744, 110.97035279342404, 47.568841017636046, 61.29390494581267, 74.1553171805475, 160.90276649513612, -0.04201330759672539, -0.49860877754041866, -0.033188805083349315, 0.22262128946734772, -0.13116709998308007, -0.20666762498397184, 0.0, 0.0, 0.0, 0.0, 0.0, 0.0] - 2.3206004176856903, [(0.0, 1.0, 1.0, 1.0, 1.0, 1.0, 1.0, 1.0, 1.0, 2.0, 0.0, 4.0, 2.0, 1.0, 1.0, 3.0, 1.0, 1.0, 1.0, 0.0, 0.0, 0.4210436476749819, 0.6240889537025133, 0.65140420740557, 0.17606545637894844, 0.4232438065337333, 0.5629220632180115, 0.6255934076332242, 0.7355595374991346, 0.8725979648859528, 0.44931313421804175, 0.8607567749631075, 0.35704996443459147, 129.09398385131013, 113.99417323064195, 116.1731458758269, 229.23977919256097, 267.835827236683, 151.44508572488593, 0.3602318010133918, -0.4481151373310709, -0.20433492562234845, -0.35463531197974785, 0.10426900336284217, -0.020044535450859935, 0.0, 0.0, 0.0, 0.0, 0.0, 0.0] - 2.1241286774867816]

[ GENERATION 33 ]
Best individual(s) (2)
[[(0.0, 1.0, 1.0, 1.0, 1.0, 1.0, 2.0, 1.0, 0.0, 1.0, 1.0, 0.0, 1.0, 1.0, 1.0, 1.0, 0.0, 1.0, 1.0, 0.0, 0.0, 0.7478352359117464, 0.3649256071761947, 0.3892352277631679, 0.8585486808695917, 0.14728544646309738, 0.5203876614558952, 0.9692251025763698, 0.3589445091878066, 0.5434767771551259, 0.8662725798066722, 0.6466536916699729, 0.6328686776686039, 296.1607395902744, 110.97035279342404, 47.568841017636046, 61.29390494581267, 74.1553171805475, 160.90276649513612, -0.04201330759672539, -0.49860877754041866, -0.033188805083349315, 0.22262128946734772, -0.13116709998308007, -0.20666762498397184, 0.0, 0.0, 0.0, 0.0, 0.0, 0.0] - 2.3206004176856903, [(0.0, 1.0, 1.0, 1.0, 1.0, 1.0, 1.0, 1.0, 1.0, 2.0, 0.0, 4.0, 2.0, 1.0, 1.0, 3.0, 1.0, 1.0, 1.0, 0.0, 0.0, 0.4210436476749819, 0.6240889537025133, 0.65140420740557, 0.17606545637894844, 0.4232438065337333, 0.5629220632180115, 0.6255934076332242, 0.7355595374991346, 0.8725979648859528, 0.44931313421804175, 0.8607567749631075, 0.35704996443459147, 129.09398385131013, 113.99417323064195, 116.1731458758269, 229.23977919256097, 267.835827236683, 151.44508572488593, 0.3602318010133918, -0.4481151373310709, -0.20433492562234845, -0.35463531197974785, 0.10426900336284217, -0.020044535450859935, 0.0, 0.0, 0.0, 0.0, 0.0, 0.0] - 2.1241286774867816]

[ GENERATION 34 ]
Best individual(s) (2)
[[(0.0, 1.0, 1.0, 1.0, 1.0, 1.0, 2.0, 1.0, 0.0, 1.0, 1.0, 0.0, 1.0, 1.0, 1.0, 1.0, 0.0, 1.0, 1.0, 0.0, 0.0, 0.7478352359117464, 0.3649256071761947, 0.3892352277631679, 0.8585486808695917, 0.14728544646309738, 0.5203876614558952, 0.9692251025763698, 0.3589445091878066, 0.5434767771551259, 0.8662725798066722, 0.6466536916699729, 0.6328686776686039, 296.1607395902744, 110.97035279342404, 47.568841017636046, 61.29390494581267, 74.1553171805475, 160.90276649513612, -0.04201330759672539, -0.49860877754041866, -0.033188805083349315, 0.22262128946734772, -0.13116709998308007, -0.20666762498397184, 0.0, 0.0, 0.0, 0.0, 0.0, 0.0] - 2.3206004176856903, [(0.0, 1.0, 1.0, 1.0, 1.0, 1.0, 1.0, 1.0, 1.0, 2.0, 0.0, 4.0, 2.0, 1.0, 1.0, 3.0, 1.0, 1.0, 1.0, 0.0, 0.0, 0.4210436476749819, 0.6240889537025133, 0.65140420740557, 0.17606545637894844, 0.4232438065337333, 0.5629220632180115, 0.6255934076332242, 0.7355595374991346, 0.8725979648859528, 0.44931313421804175, 0.8607567749631075, 0.35704996443459147, 129.09398385131013, 113.99417323064195, 116.1731458758269, 229.23977919256097, 267.835827236683, 151.44508572488593, 0.3602318010133918, -0.4481151373310709, -0.20433492562234845, -0.35463531197974785, 0.10426900336284217, -0.020044535450859935, 0.0, 0.0, 0.0, 0.0, 0.0, 0.0] - 2.1241286774867816]

[ GENERATION 35 ]
Best individual(s) (2)
[[(0.0, 1.0, 1.0, 1.0, 1.0, 1.0, 2.0, 1.0, 0.0, 1.0, 1.0, 0.0, 1.0, 1.0, 1.0, 1.0, 0.0, 1.0, 1.0, 0.0, 0.0, 0.7478352359117464, 0.3649256071761947, 0.3892352277631679, 0.8585486808695917, 0.14728544646309738, 0.5203876614558952, 0.9692251025763698, 0.3589445091878066, 0.5434767771551259, 0.8662725798066722, 0.6466536916699729, 0.6328686776686039, 296.1607395902744, 110.97035279342404, 47.568841017636046, 61.29390494581267, 74.1553171805475, 160.90276649513612, -0.04201330759672539, -0.49860877754041866, -0.033188805083349315, 0.22262128946734772, -0.13116709998308007, -0.20666762498397184, 0.0, 0.0, 0.0, 0.0, 0.0, 0.0] - 2.3206004176856903, [(0.0, 1.0, 1.0, 1.0, 1.0, 1.0, 1.0, 1.0, 1.0, 2.0, 0.0, 4.0, 2.0, 1.0, 1.0, 3.0, 1.0, 1.0, 1.0, 0.0, 0.0, 0.4210436476749819, 0.6240889537025133, 0.65140420740557, 0.17606545637894844, 0.4232438065337333, 0.5629220632180115, 0.6255934076332242, 0.7355595374991346, 0.8725979648859528, 0.44931313421804175, 0.8607567749631075, 0.35704996443459147, 129.09398385131013, 113.99417323064195, 116.1731458758269, 229.23977919256097, 267.835827236683, 151.44508572488593, 0.3602318010133918, -0.4481151373310709, -0.20433492562234845, -0.35463531197974785, 0.10426900336284217, -0.020044535450859935, 0.0, 0.0, 0.0, 0.0, 0.0, 0.0] - 2.1241286774867816]

[ GENERATION 36 ]
Best individual(s) (2)
[[(0.0, 1.0, 1.0, 1.0, 1.0, 1.0, 2.0, 1.0, 0.0, 1.0, 1.0, 0.0, 1.0, 1.0, 1.0, 1.0, 0.0, 1.0, 1.0, 0.0, 0.0, 0.7478352359117464, 0.3649256071761947, 0.3892352277631679, 0.8585486808695917, 0.14728544646309738, 0.5203876614558952, 0.9692251025763698, 0.3589445091878066, 0.5434767771551259, 0.8662725798066722, 0.6466536916699729, 0.6328686776686039, 296.1607395902744, 110.97035279342404, 47.568841017636046, 61.29390494581267, 74.1553171805475, 160.90276649513612, -0.04201330759672539, -0.49860877754041866, -0.033188805083349315, 0.22262128946734772, -0.13116709998308007, -0.20666762498397184, 0.0, 0.0, 0.0, 0.0, 0.0, 0.0] - 2.3206004176856903, [(0.0, 1.0, 1.0, 1.0, 1.0, 1.0, 1.0, 1.0, 1.0, 2.0, 0.0, 4.0, 2.0, 1.0, 1.0, 3.0, 1.0, 1.0, 1.0, 0.0, 0.0, 0.4210436476749819, 0.6240889537025133, 0.65140420740557, 0.17606545637894844, 0.4232438065337333, 0.5629220632180115, 0.6255934076332242, 0.7355595374991346, 0.8725979648859528, 0.44931313421804175, 0.8607567749631075, 0.35704996443459147, 129.09398385131013, 113.99417323064195, 116.1731458758269, 229.23977919256097, 267.835827236683, 151.44508572488593, 0.3602318010133918, -0.4481151373310709, -0.20433492562234845, -0.35463531197974785, 0.10426900336284217, -0.020044535450859935, 0.0, 0.0, 0.0, 0.0, 0.0, 0.0] - 2.1241286774867816]

[ GENERATION 37 ]
Best individual(s) (2)
[[(0.0, 1.0, 1.0, 1.0, 1.0, 1.0, 2.0, 1.0, 0.0, 1.0, 1.0, 0.0, 1.0, 1.0, 1.0, 1.0, 0.0, 1.0, 1.0, 0.0, 0.0, 0.7478352359117464, 0.3649256071761947, 0.3892352277631679, 0.8585486808695917, 0.14728544646309738, 0.5203876614558952, 0.9692251025763698, 0.3589445091878066, 0.5434767771551259, 0.8662725798066722, 0.6466536916699729, 0.6328686776686039, 296.1607395902744, 110.97035279342404, 47.568841017636046, 61.29390494581267, 74.1553171805475, 160.90276649513612, -0.04201330759672539, -0.49860877754041866, -0.033188805083349315, 0.22262128946734772, -0.13116709998308007, -0.20666762498397184, 0.0, 0.0, 0.0, 0.0, 0.0, 0.0] - 2.3206004176856903, [(0.0, 1.0, 1.0, 1.0, 1.0, 1.0, 1.0, 1.0, 1.0, 2.0, 0.0, 4.0, 2.0, 1.0, 1.0, 3.0, 1.0, 1.0, 1.0, 0.0, 0.0, 0.4210436476749819, 0.6240889537025133, 0.65140420740557, 0.17606545637894844, 0.4232438065337333, 0.5629220632180115, 0.6255934076332242, 0.7355595374991346, 0.8725979648859528, 0.44931313421804175, 0.8607567749631075, 0.35704996443459147, 129.09398385131013, 113.99417323064195, 116.1731458758269, 229.23977919256097, 267.835827236683, 151.44508572488593, 0.3602318010133918, -0.4481151373310709, -0.20433492562234845, -0.35463531197974785, 0.10426900336284217, -0.020044535450859935, 0.0, 0.0, 0.0, 0.0, 0.0, 0.0] - 2.1241286774867816]

[ GENERATION 38 ]
Best individual(s) (2)
[[(0.0, 1.0, 1.0, 1.0, 1.0, 1.0, 2.0, 1.0, 0.0, 1.0, 1.0, 0.0, 1.0, 1.0, 1.0, 1.0, 0.0, 1.0, 1.0, 0.0, 0.0, 0.7478352359117464, 0.3649256071761947, 0.3892352277631679, 0.8585486808695917, 0.14728544646309738, 0.5203876614558952, 0.9692251025763698, 0.3589445091878066, 0.5434767771551259, 0.8662725798066722, 0.6466536916699729, 0.6328686776686039, 296.1607395902744, 110.97035279342404, 47.568841017636046, 61.29390494581267, 74.1553171805475, 160.90276649513612, -0.04201330759672539, -0.49860877754041866, -0.033188805083349315, 0.22262128946734772, -0.13116709998308007, -0.20666762498397184, 0.0, 0.0, 0.0, 0.0, 0.0, 0.0] - 2.3206004176856903, [(0.0, 1.0, 1.0, 1.0, 1.0, 1.0, 1.0, 1.0, 1.0, 2.0, 0.0, 4.0, 2.0, 1.0, 1.0, 3.0, 1.0, 1.0, 1.0, 0.0, 0.0, 0.4210436476749819, 0.6240889537025133, 0.65140420740557, 0.17606545637894844, 0.4232438065337333, 0.5629220632180115, 0.6255934076332242, 0.7355595374991346, 0.8725979648859528, 0.44931313421804175, 0.8607567749631075, 0.35704996443459147, 129.09398385131013, 113.99417323064195, 116.1731458758269, 229.23977919256097, 267.835827236683, 151.44508572488593, 0.3602318010133918, -0.4481151373310709, -0.20433492562234845, -0.35463531197974785, 0.10426900336284217, -0.020044535450859935, 0.0, 0.0, 0.0, 0.0, 0.0, 0.0] - 2.1241286774867816]

[ GENERATION 39 ]
Best individual(s) (2)
[[(0.0, 1.0, 1.0, 1.0, 1.0, 1.0, 2.0, 1.0, 0.0, 1.0, 1.0, 0.0, 1.0, 1.0, 1.0, 1.0, 0.0, 1.0, 1.0, 0.0, 0.0, 0.7478352359117464, 0.3649256071761947, 0.3892352277631679, 0.8585486808695917, 0.14728544646309738, 0.5203876614558952, 0.9692251025763698, 0.3589445091878066, 0.5434767771551259, 0.8662725798066722, 0.6466536916699729, 0.6328686776686039, 296.1607395902744, 110.97035279342404, 47.568841017636046, 61.29390494581267, 74.1553171805475, 160.90276649513612, -0.04201330759672539, -0.49860877754041866, -0.033188805083349315, 0.22262128946734772, -0.13116709998308007, -0.20666762498397184, 0.0, 0.0, 0.0, 0.0, 0.0, 0.0] - 2.3206004176856903, [(0.0, 1.0, 1.0, 1.0, 1.0, 1.0, 1.0, 1.0, 1.0, 2.0, 0.0, 4.0, 2.0, 1.0, 1.0, 3.0, 1.0, 1.0, 1.0, 0.0, 0.0, 0.4210436476749819, 0.6240889537025133, 0.65140420740557, 0.17606545637894844, 0.4232438065337333, 0.5629220632180115, 0.6255934076332242, 0.7355595374991346, 0.8725979648859528, 0.44931313421804175, 0.8607567749631075, 0.35704996443459147, 129.09398385131013, 113.99417323064195, 116.1731458758269, 229.23977919256097, 267.835827236683, 151.44508572488593, 0.3602318010133918, -0.4481151373310709, -0.20433492562234845, -0.35463531197974785, 0.10426900336284217, -0.020044535450859935, 0.0, 0.0, 0.0, 0.0, 0.0, 0.0] - 2.1241286774867816]

[ GENERATION 40 ]
Best individual(s) (2)
[[(0.0, 1.0, 1.0, 1.0, 1.0, 1.0, 2.0, 1.0, 0.0, 1.0, 1.0, 0.0, 1.0, 1.0, 1.0, 1.0, 0.0, 1.0, 1.0, 0.0, 0.0, 0.7478352359117464, 0.3649256071761947, 0.3892352277631679, 0.8585486808695917, 0.14728544646309738, 0.5203876614558952, 0.9692251025763698, 0.3589445091878066, 0.5434767771551259, 0.8662725798066722, 0.6466536916699729, 0.6328686776686039, 296.1607395902744, 110.97035279342404, 47.568841017636046, 61.29390494581267, 74.1553171805475, 160.90276649513612, -0.04201330759672539, -0.49860877754041866, -0.033188805083349315, 0.22262128946734772, -0.13116709998308007, -0.20666762498397184, 0.0, 0.0, 0.0, 0.0, 0.0, 0.0] - 2.3206004176856903, [(0.0, 1.0, 1.0, 1.0, 1.0, 1.0, 1.0, 1.0, 1.0, 2.0, 0.0, 4.0, 2.0, 1.0, 1.0, 3.0, 1.0, 1.0, 1.0, 0.0, 0.0, 0.4210436476749819, 0.6240889537025133, 0.65140420740557, 0.17606545637894844, 0.4232438065337333, 0.5629220632180115, 0.6255934076332242, 0.7355595374991346, 0.8725979648859528, 0.44931313421804175, 0.8607567749631075, 0.35704996443459147, 129.09398385131013, 113.99417323064195, 116.1731458758269, 229.23977919256097, 267.835827236683, 151.44508572488593, 0.3602318010133918, -0.4481151373310709, -0.20433492562234845, -0.35463531197974785, 0.10426900336284217, -0.020044535450859935, 0.0, 0.0, 0.0, 0.0, 0.0, 0.0] - 2.1241286774867816]

[ GENERATION 41 ]
Best individual(s) (2)
[[(0.0, 1.0, 1.0, 1.0, 1.0, 1.0, 2.0, 1.0, 0.0, 1.0, 1.0, 0.0, 1.0, 1.0, 1.0, 1.0, 0.0, 1.0, 1.0, 0.0, 0.0, 0.7478352359117464, 0.3649256071761947, 0.3892352277631679, 0.8585486808695917, 0.14728544646309738, 0.5203876614558952, 0.9692251025763698, 0.3589445091878066, 0.5434767771551259, 0.8662725798066722, 0.6466536916699729, 0.6328686776686039, 296.1607395902744, 110.97035279342404, 47.568841017636046, 61.29390494581267, 74.1553171805475, 160.90276649513612, -0.04201330759672539, -0.49860877754041866, -0.033188805083349315, 0.22262128946734772, -0.13116709998308007, -0.20666762498397184, 0.0, 0.0, 0.0, 0.0, 0.0, 0.0] - 2.3206004176856903, [(0.0, 1.0, 1.0, 1.0, 1.0, 1.0, 1.0, 1.0, 1.0, 2.0, 0.0, 4.0, 2.0, 1.0, 1.0, 3.0, 1.0, 1.0, 1.0, 0.0, 0.0, 0.4210436476749819, 0.6240889537025133, 0.65140420740557, 0.17606545637894844, 0.4232438065337333, 0.5629220632180115, 0.6255934076332242, 0.7355595374991346, 0.8725979648859528, 0.44931313421804175, 0.8607567749631075, 0.35704996443459147, 129.09398385131013, 113.99417323064195, 116.1731458758269, 229.23977919256097, 267.835827236683, 151.44508572488593, 0.3602318010133918, -0.4481151373310709, -0.20433492562234845, -0.35463531197974785, 0.10426900336284217, -0.020044535450859935, 0.0, 0.0, 0.0, 0.0, 0.0, 0.0] - 2.1241286774867816]

[ GENERATION 42 ]
Best individual(s) (2)
[[(0.0, 1.0, 1.0, 1.0, 1.0, 1.0, 2.0, 1.0, 0.0, 1.0, 1.0, 0.0, 1.0, 1.0, 1.0, 1.0, 0.0, 1.0, 1.0, 0.0, 0.0, 0.7478352359117464, 0.3649256071761947, 0.3892352277631679, 0.8585486808695917, 0.14728544646309738, 0.5203876614558952, 0.9692251025763698, 0.3589445091878066, 0.5434767771551259, 0.8662725798066722, 0.6466536916699729, 0.6328686776686039, 296.1607395902744, 110.97035279342404, 47.568841017636046, 61.29390494581267, 74.1553171805475, 160.90276649513612, -0.04201330759672539, -0.49860877754041866, -0.033188805083349315, 0.22262128946734772, -0.13116709998308007, -0.20666762498397184, 0.0, 0.0, 0.0, 0.0, 0.0, 0.0] - 2.3206004176856903, [(0.0, 1.0, 1.0, 1.0, 1.0, 1.0, 1.0, 1.0, 1.0, 2.0, 0.0, 4.0, 2.0, 1.0, 1.0, 3.0, 1.0, 1.0, 1.0, 0.0, 0.0, 0.4210436476749819, 0.6240889537025133, 0.65140420740557, 0.17606545637894844, 0.4232438065337333, 0.5629220632180115, 0.6255934076332242, 0.7355595374991346, 0.8725979648859528, 0.44931313421804175, 0.8607567749631075, 0.35704996443459147, 129.09398385131013, 113.99417323064195, 116.1731458758269, 229.23977919256097, 267.835827236683, 151.44508572488593, 0.3602318010133918, -0.4481151373310709, -0.20433492562234845, -0.35463531197974785, 0.10426900336284217, -0.020044535450859935, 0.0, 0.0, 0.0, 0.0, 0.0, 0.0] - 2.1241286774867816]

[ GENERATION 43 ]
Best individual(s) (2)
[[(0.0, 1.0, 1.0, 1.0, 1.0, 1.0, 2.0, 1.0, 0.0, 1.0, 1.0, 0.0, 1.0, 1.0, 1.0, 1.0, 0.0, 1.0, 1.0, 0.0, 0.0, 0.7478352359117464, 0.3649256071761947, 0.3892352277631679, 0.8585486808695917, 0.14728544646309738, 0.5203876614558952, 0.9692251025763698, 0.3589445091878066, 0.5434767771551259, 0.8662725798066722, 0.6466536916699729, 0.6328686776686039, 296.1607395902744, 110.97035279342404, 47.568841017636046, 61.29390494581267, 74.1553171805475, 160.90276649513612, -0.04201330759672539, -0.49860877754041866, -0.033188805083349315, 0.22262128946734772, -0.13116709998308007, -0.20666762498397184, 0.0, 0.0, 0.0, 0.0, 0.0, 0.0] - 2.3206004176856903, [(0.0, 1.0, 1.0, 1.0, 1.0, 1.0, 1.0, 1.0, 1.0, 2.0, 0.0, 4.0, 2.0, 1.0, 1.0, 3.0, 1.0, 1.0, 1.0, 0.0, 0.0, 0.4210436476749819, 0.6240889537025133, 0.65140420740557, 0.17606545637894844, 0.4232438065337333, 0.5629220632180115, 0.6255934076332242, 0.7355595374991346, 0.8725979648859528, 0.44931313421804175, 0.8607567749631075, 0.35704996443459147, 129.09398385131013, 113.99417323064195, 116.1731458758269, 229.23977919256097, 267.835827236683, 151.44508572488593, 0.3602318010133918, -0.4481151373310709, -0.20433492562234845, -0.35463531197974785, 0.10426900336284217, -0.020044535450859935, 0.0, 0.0, 0.0, 0.0, 0.0, 0.0] - 2.1241286774867816]

[ GENERATION 44 ]
Best individual(s) (2)
[[(0.0, 1.0, 1.0, 1.0, 1.0, 1.0, 2.0, 1.0, 0.0, 1.0, 1.0, 0.0, 1.0, 1.0, 1.0, 1.0, 0.0, 1.0, 1.0, 0.0, 0.0, 0.7478352359117464, 0.3649256071761947, 0.3892352277631679, 0.8585486808695917, 0.14728544646309738, 0.5203876614558952, 0.9692251025763698, 0.3589445091878066, 0.5434767771551259, 0.8662725798066722, 0.6466536916699729, 0.6328686776686039, 296.1607395902744, 110.97035279342404, 47.568841017636046, 61.29390494581267, 74.1553171805475, 160.90276649513612, -0.04201330759672539, -0.49860877754041866, -0.033188805083349315, 0.22262128946734772, -0.13116709998308007, -0.20666762498397184, 0.0, 0.0, 0.0, 0.0, 0.0, 0.0] - 2.3206004176856903, [(0.0, 1.0, 1.0, 1.0, 1.0, 1.0, 1.0, 1.0, 1.0, 2.0, 0.0, 4.0, 2.0, 1.0, 1.0, 3.0, 1.0, 1.0, 1.0, 0.0, 0.0, 0.4210436476749819, 0.6240889537025133, 0.65140420740557, 0.17606545637894844, 0.4232438065337333, 0.5629220632180115, 0.6255934076332242, 0.7355595374991346, 0.8725979648859528, 0.44931313421804175, 0.8607567749631075, 0.35704996443459147, 129.09398385131013, 113.99417323064195, 116.1731458758269, 229.23977919256097, 267.835827236683, 151.44508572488593, 0.3602318010133918, -0.4481151373310709, -0.20433492562234845, -0.35463531197974785, 0.10426900336284217, -0.020044535450859935, 0.0, 0.0, 0.0, 0.0, 0.0, 0.0] - 2.1241286774867816]

[ GENERATION 45 ]
Best individual(s) (2)
[[(0.0, 1.0, 1.0, 1.0, 1.0, 1.0, 2.0, 1.0, 0.0, 1.0, 1.0, 0.0, 1.0, 1.0, 1.0, 1.0, 0.0, 1.0, 1.0, 0.0, 0.0, 0.7478352359117464, 0.3649256071761947, 0.3892352277631679, 0.8585486808695917, 0.14728544646309738, 0.5203876614558952, 0.9692251025763698, 0.3589445091878066, 0.5434767771551259, 0.8662725798066722, 0.6466536916699729, 0.6328686776686039, 296.1607395902744, 110.97035279342404, 47.568841017636046, 61.29390494581267, 74.1553171805475, 160.90276649513612, -0.04201330759672539, -0.49860877754041866, -0.033188805083349315, 0.22262128946734772, -0.13116709998308007, -0.20666762498397184, 0.0, 0.0, 0.0, 0.0, 0.0, 0.0] - 2.3206004176856903, [(0.0, 1.0, 1.0, 1.0, 1.0, 1.0, 1.0, 1.0, 1.0, 2.0, 0.0, 4.0, 2.0, 1.0, 1.0, 3.0, 1.0, 1.0, 1.0, 0.0, 0.0, 0.4210436476749819, 0.6240889537025133, 0.65140420740557, 0.17606545637894844, 0.4232438065337333, 0.5629220632180115, 0.6255934076332242, 0.7355595374991346, 0.8725979648859528, 0.44931313421804175, 0.8607567749631075, 0.35704996443459147, 129.09398385131013, 113.99417323064195, 116.1731458758269, 229.23977919256097, 267.835827236683, 151.44508572488593, 0.3602318010133918, -0.4481151373310709, -0.20433492562234845, -0.35463531197974785, 0.10426900336284217, -0.020044535450859935, 0.0, 0.0, 0.0, 0.0, 0.0, 0.0] - 2.1241286774867816]

[ GENERATION 46 ]
Best individual(s) (2)
[[(0.0, 1.0, 1.0, 1.0, 1.0, 1.0, 2.0, 1.0, 0.0, 1.0, 1.0, 0.0, 1.0, 1.0, 1.0, 1.0, 0.0, 1.0, 1.0, 0.0, 0.0, 0.7478352359117464, 0.3649256071761947, 0.3892352277631679, 0.8585486808695917, 0.14728544646309738, 0.5203876614558952, 0.9692251025763698, 0.3589445091878066, 0.5434767771551259, 0.8662725798066722, 0.6466536916699729, 0.6328686776686039, 296.1607395902744, 110.97035279342404, 47.568841017636046, 61.29390494581267, 74.1553171805475, 160.90276649513612, -0.04201330759672539, -0.49860877754041866, -0.033188805083349315, 0.22262128946734772, -0.13116709998308007, -0.20666762498397184, 0.0, 0.0, 0.0, 0.0, 0.0, 0.0] - 2.3206004176856903, [(0.0, 1.0, 1.0, 1.0, 1.0, 1.0, 1.0, 1.0, 1.0, 2.0, 0.0, 4.0, 2.0, 1.0, 1.0, 3.0, 1.0, 1.0, 1.0, 0.0, 0.0, 0.4210436476749819, 0.6240889537025133, 0.65140420740557, 0.17606545637894844, 0.4232438065337333, 0.5629220632180115, 0.6255934076332242, 0.7355595374991346, 0.8725979648859528, 0.44931313421804175, 0.8607567749631075, 0.35704996443459147, 129.09398385131013, 113.99417323064195, 116.1731458758269, 229.23977919256097, 267.835827236683, 151.44508572488593, 0.3602318010133918, -0.4481151373310709, -0.20433492562234845, -0.35463531197974785, 0.10426900336284217, -0.020044535450859935, 0.0, 0.0, 0.0, 0.0, 0.0, 0.0] - 2.1241286774867816]

[ GENERATION 47 ]
Best individual(s) (2)
[[(0.0, 1.0, 1.0, 1.0, 1.0, 1.0, 2.0, 1.0, 0.0, 1.0, 1.0, 0.0, 1.0, 1.0, 1.0, 1.0, 0.0, 1.0, 1.0, 0.0, 0.0, 0.7478352359117464, 0.3649256071761947, 0.3892352277631679, 0.8585486808695917, 0.14728544646309738, 0.5203876614558952, 0.9692251025763698, 0.3589445091878066, 0.5434767771551259, 0.8662725798066722, 0.6466536916699729, 0.6328686776686039, 296.1607395902744, 110.97035279342404, 47.568841017636046, 61.29390494581267, 74.1553171805475, 160.90276649513612, -0.04201330759672539, -0.49860877754041866, -0.033188805083349315, 0.22262128946734772, -0.13116709998308007, -0.20666762498397184, 0.0, 0.0, 0.0, 0.0, 0.0, 0.0] - 2.3206004176856903, [(0.0, 1.0, 1.0, 1.0, 1.0, 1.0, 1.0, 1.0, 1.0, 2.0, 0.0, 4.0, 2.0, 1.0, 1.0, 3.0, 1.0, 1.0, 1.0, 0.0, 0.0, 0.4210436476749819, 0.6240889537025133, 0.65140420740557, 0.17606545637894844, 0.4232438065337333, 0.5629220632180115, 0.6255934076332242, 0.7355595374991346, 0.8725979648859528, 0.44931313421804175, 0.8607567749631075, 0.35704996443459147, 129.09398385131013, 113.99417323064195, 116.1731458758269, 229.23977919256097, 267.835827236683, 151.44508572488593, 0.3602318010133918, -0.4481151373310709, -0.20433492562234845, -0.35463531197974785, 0.10426900336284217, -0.020044535450859935, 0.0, 0.0, 0.0, 0.0, 0.0, 0.0] - 2.1241286774867816]

[ GENERATION 48 ]
Best individual(s) (2)
[[(0.0, 1.0, 1.0, 1.0, 1.0, 1.0, 2.0, 1.0, 0.0, 1.0, 1.0, 0.0, 1.0, 1.0, 1.0, 1.0, 0.0, 1.0, 1.0, 0.0, 0.0, 0.7478352359117464, 0.3649256071761947, 0.3892352277631679, 0.8585486808695917, 0.14728544646309738, 0.5203876614558952, 0.9692251025763698, 0.3589445091878066, 0.5434767771551259, 0.8662725798066722, 0.6466536916699729, 0.6328686776686039, 296.1607395902744, 110.97035279342404, 47.568841017636046, 61.29390494581267, 74.1553171805475, 160.90276649513612, -0.04201330759672539, -0.49860877754041866, -0.033188805083349315, 0.22262128946734772, -0.13116709998308007, -0.20666762498397184, 0.0, 0.0, 0.0, 0.0, 0.0, 0.0] - 2.3206004176856903, [(0.0, 1.0, 1.0, 1.0, 1.0, 1.0, 1.0, 1.0, 1.0, 2.0, 0.0, 4.0, 2.0, 1.0, 1.0, 3.0, 1.0, 1.0, 1.0, 0.0, 0.0, 0.4210436476749819, 0.6240889537025133, 0.65140420740557, 0.17606545637894844, 0.4232438065337333, 0.5629220632180115, 0.6255934076332242, 0.7355595374991346, 0.8725979648859528, 0.44931313421804175, 0.8607567749631075, 0.35704996443459147, 129.09398385131013, 113.99417323064195, 116.1731458758269, 229.23977919256097, 267.835827236683, 151.44508572488593, 0.3602318010133918, -0.4481151373310709, -0.20433492562234845, -0.35463531197974785, 0.10426900336284217, -0.020044535450859935, 0.0, 0.0, 0.0, 0.0, 0.0, 0.0] - 2.1241286774867816]

