0 - 2.95 - 1.5321553446044565
1 - 3.7 - 1.705872210923198
2 - 3.7 - 1.705872210923198
3 - 3.7 - 1.705872210923198
4 - 3.7 - 1.705872210923198
5 - 3.7 - 1.705872210923198
6 - 3.65 - 1.636306817195357
7 - 4.375 - 1.906403682329637
8 - 5.075 - 2.1953074955458973
9 - 5.075 - 2.1953074955458973
10 - 5.075 - 2.1953074955458973
11 - 5.075 - 2.1953074955458973
12 - 4.975 - 2.0915006574227992
13 - 4.875 - 2.215710946852048
14 - 5.675 - 2.4636101558485266
15 - 6.425 - 2.7192600096349735
16 - 6.425 - 2.7192600096349735
17 - 6.425 - 2.7192600096349735
18 - 6.425 - 2.7192600096349735
19 - 6.225 - 2.6409042012159394
20 - 5.925 - 2.858211853589583
21 - 6.675 - 3.10151172817386
22 - 7.45 - 3.398161267509239
23 - 7.45 - 3.398161267509239
24 - 7.45 - 3.398161267509239
25 - 7.45 - 3.398161267509239
26 - 7.05 - 3.2322592717787972
27 - 6.625 - 3.547446264568358
28 - 7.325 - 3.784095004092788
29 - 8.05 - 4.0740029455070355
30 - 8.05 - 4.0740029455070355
31 - 8.05 - 4.0740029455070355
32 - 8.05 - 4.0740029455070355
33 - 7.575 - 3.904404564078881
34 - 7.075 - 4.101143133322708
35 - 7.825 - 4.323699226356986
36 - 8.525 - 4.566111584269486
37 - 8.525 - 4.566111584269486
38 - 8.525 - 4.566111584269486
39 - 8.525 - 4.566111584269486
40 - 7.725 - 4.135139054493814
41 - 7.5 - 4.171330722922842
42 - 8.225 - 4.3674220084622
43 - 8.85 - 4.612754058043849
44 - 8.85 - 4.612754058043849
45 - 8.85 - 4.612754058043849
46 - 8.85 - 4.612754058043849
47 - 8.15 - 4.174625731727337
48 - 7.9 - 4.211887937730538
49 - 8.65 - 4.447190124112078
50 - 9.3 - 4.654030511288038
51 - 9.3 - 4.654030511288038
52 - 9.3 - 4.654030511288038
53 - 9.3 - 4.654030511288038
54 - 8.45 - 4.300872004605577
55 - 8.125 - 4.261381818143031
56 - 8.9 - 4.47101778122163
57 - 9.6 - 4.619523784980438
58 - 9.6 - 4.619523784980438
59 - 9.6 - 4.619523784980438
60 - 9.6 - 4.619523784980438
61 - 8.825 - 4.241977722713782
62 - 8.65 - 4.413332074521472
63 - 9.375 - 4.624324274961694
64 - 10.025 - 4.767009020339693
65 - 10.025 - 4.767009020339693
66 - 10.025 - 4.767009020339693
67 - 10.025 - 4.767009020339693
68 - 9.25 - 4.397442438509002
69 - 9.425 - 4.323699226356986
70 - 10.15 - 4.452808102759426
71 - 10.8 - 4.605431575867782
72 - 10.8 - 4.605431575867782
73 - 10.8 - 4.605431575867782
74 - 10.8 - 4.605431575867782
75 - 10.025 - 4.292362403152837
76 - 9.625 - 4.60264869395873
77 - 10.35 - 4.714604967545001
78 - 10.925 - 4.859976851796724
79 - 10.925 - 4.859976851796724
80 - 10.925 - 4.859976851796724
81 - 10.925 - 4.859976851796724
82 - 9.775 - 4.644822386270545
83 - 9.4 - 4.752893855326457
84 - 10.125 - 4.775916142479891
85 - 10.775 - 4.839873448758758
86 - 10.775 - 4.839873448758758
87 - 10.775 - 4.839873448758758
88 - 10.775 - 4.839873448758758
89 - 10.25 - 4.736823830374104
90 - 9.925 - 4.782193534352202
91 - 10.625 - 4.7312128466176615
92 - 11.275 - 4.690349134126372
93 - 11.275 - 4.690349134126372
94 - 11.275 - 4.690349134126372
95 - 11.275 - 4.690349134126372
96 - 10.725 - 4.466472321642663
97 - 10.55 - 4.398579316097415
98 - 11.3 - 4.4
99 - 11.925 - 4.315017381193266
100 - 11.925 - 4.315017381193266
101 - 11.925 - 4.315017381193266
102 - 11.925 - 4.315017381193266
103 - 11.225 - 4.09565318355937
104 - 10.9 - 4.164132562731403
105 - 11.675 - 4.215373648918919
106 - 12.3 - 4.166533331199931
107 - 12.3 - 4.166533331199931
108 - 12.3 - 4.166533331199931
109 - 12.3 - 4.166533331199931
110 - 11.55 - 4.159026328361002
111 - 11.125 - 4.621620386834038
112 - 11.775 - 4.48044361642907
113 - 12.275 - 4.404472159067418
114 - 12.275 - 4.404472159067418
115 - 12.275 - 4.404472159067418
116 - 12.275 - 4.404472159067418
117 - 11.75 - 4.241167292149651
118 - 11.325 - 4.568301106538404
119 - 11.925 - 4.468710664162539
120 - 12.45 - 4.352872614722374
121 - 12.45 - 4.352872614722374
122 - 12.45 - 4.352872614722374
123 - 12.45 - 4.352872614722374
124 - 11.875 - 4.278945547678774
125 - 11.275 - 4.3184922137246
126 - 11.9 - 4.152107898405338
127 - 12.45 - 4.049382669000299
128 - 12.45 - 4.049382669000299
129 - 12.45 - 4.049382669000299
130 - 12.45 - 4.049382669000299
131 - 11.425 - 3.923566617250177
132 - 10.925 - 4.451895663647116
133 - 11.6 - 4.334743360338649
134 - 12.2 - 4.1904653679513935
135 - 12.2 - 4.1904653679513935
136 - 12.2 - 4.1904653679513935
137 - 12.2 - 4.1904653679513935
138 - 11.475 - 4.104799020658624
139 - 11.275 - 3.9559290944100605
140 - 11.975 - 3.7648871165016344
141 - 12.575 - 3.6870550579019037
142 - 12.575 - 3.6870550579019037
143 - 12.575 - 3.6870550579019037
144 - 12.575 - 3.6870550579019037
145 - 11.45 - 3.492491947020064
146 - 10.85 - 4.015905875391005
147 - 11.55 - 3.8855501540965864
148 - 12.2 - 3.7496666518505357
149 - 12.2 - 3.7496666518505357
150 - 12.2 - 3.7496666518505357
151 - 12.2 - 3.7496666518505357
152 - 11.425 - 3.687055057901902
153 - 10.975 - 4.015516778697358
154 - 11.675 - 3.8947881842277376
155 - 12.3 - 3.7429934544425802
156 - 12.3 - 3.7429934544425802
157 - 12.3 - 3.7429934544425802
158 - 12.3 - 3.7429934544425802
159 - 11.5 - 3.794733192202055
160 - 11.025 - 4.156245300749223
161 - 11.725 - 3.94960441057076
162 - 12.275 - 3.8078044855270603
163 - 12.275 - 3.8078044855270603
164 - 12.275 - 3.8078044855270603
165 - 12.275 - 3.8078044855270603
166 - 11.35 - 3.7386494887860238
167 - 10.9 - 4.115823125451335
168 - 11.55 - 4.110656881813417
169 - 12.15 - 4.102133591193733
170 - 12.15 - 4.102133591193733
171 - 12.15 - 4.102133591193733
172 - 12.15 - 4.102133591193733
173 - 11.475 - 4.043436038816492
174 - 11.15 - 4.150602365922325
175 - 11.85 - 3.965791219920686
176 - 12.5 - 3.774917217635375
177 - 12.5 - 3.774917217635375
178 - 12.5 - 3.774917217635375
179 - 12.5 - 3.774917217635375
180 - 11.8 - 3.6891733491393435
181 - 11.175 - 4.241977722713782
182 - 11.85 - 4.1203761964170225
183 - 12.425 - 4.036629163051766
184 - 12.425 - 4.036629163051766
185 - 12.425 - 4.036629163051766
186 - 12.425 - 4.036629163051766
187 - 11.7 - 3.8742741255621036
188 - 11.15 - 4.245880356298326
189 - 11.875 - 4.093821564259976
190 - 12.525 - 3.8729026582138615
191 - 12.525 - 3.8729026582138615
192 - 12.525 - 3.8729026582138615
193 - 12.525 - 3.8729026582138615
194 - 11.725 - 3.866442163022744
195 - 11.225 - 4.2865341477702
196 - 11.95 - 4.134912332807071
197 - 12.55 - 3.9048047326338877
198 - 12.55 - 3.9048047326338877
199 - 12.55 - 3.9048047326338877
200 - 12.55 - 3.9048047326338877
201 - 11.875 - 3.7160967425512483
202 - 11.5 - 3.9496835316262997
203 - 12.225 - 3.804520337703559
204 - 12.85 - 3.6093628246547897
205 - 12.85 - 3.6093628246547897
206 - 12.85 - 3.6093628246547897
207 - 12.85 - 3.6093628246547897
208 - 11.975 - 3.5106089215405354
209 - 11.375 - 4.01053300697052
210 - 12.1 - 3.858756276314947
211 - 12.75 - 3.679334178897046
212 - 12.75 - 3.679334178897046
213 - 12.75 - 3.679334178897046
214 - 12.75 - 3.679334178897046
215 - 12.075 - 3.5594065516599813
216 - 11.575 - 4.110276754672367
217 - 12.3 - 3.982461550347975
218 - 12.9 - 3.786819245752297
219 - 12.9 - 3.786819245752297
220 - 12.9 - 3.786819245752297
221 - 12.9 - 3.786819245752297
222 - 11.75 - 3.7332961307670196
223 - 11.675 - 3.8104297657875805
224 - 12.35 - 3.811495769379784
225 - 12.9 - 3.753664875824691
226 - 12.9 - 3.753664875824691
227 - 12.9 - 3.753664875824691
228 - 12.9 - 3.753664875824691
229 - 12.025 - 3.684341867959595
230 - 11.425 - 4.146610061242798
231 - 12.175 - 4.055166457742518
232 - 12.75 - 3.897114317029974
233 - 12.75 - 3.897114317029974
234 - 12.75 - 3.897114317029974
235 - 12.75 - 3.897114317029974
236 - 11.975 - 3.817639977787324
237 - 11.45 - 4.347125487031631
238 - 12.225 - 4.204090270201153
239 - 12.8 - 3.9509492530276833
240 - 12.8 - 3.9509492530276833
241 - 12.8 - 3.9509492530276833
242 - 12.8 - 3.9509492530276833
243 - 12.025 - 3.940098349026328
244 - 11.675 - 4.185615247487519
245 - 12.375 - 4.047761727177132
246 - 12.9 - 3.8000000000000003
247 - 12.9 - 3.8000000000000003
248 - 12.9 - 3.8000000000000003
249 - 12.9 - 3.8000000000000003
250 - 12.125 - 3.8417932010976332
251 - 11.925 - 4.143594454094174
252 - 12.575 - 3.9930408212288544
253 - 13.1 - 3.786819245752297
254 - 13.1 - 3.786819245752297
255 - 13.1 - 3.786819245752297
256 - 13.1 - 3.786819245752297
257 - 12.225 - 3.8696737588587498
258 - 11.625 - 4.414110895752394
259 - 12.325 - 4.209438798699893
260 - 12.875 - 4.172454313710337
261 - 12.875 - 4.172454313710337
262 - 12.875 - 4.172454313710337
263 - 12.875 - 4.172454313710337
264 - 12.075 - 4.1616553197015245
265 - 11.5 - 4.5934736311423405
266 - 12.225 - 4.412978019433136
267 - 12.825 - 4.164657849091568
268 - 12.825 - 4.164657849091568
269 - 12.825 - 4.164657849091568
270 - 12.825 - 4.164657849091568
271 - 12.025 - 4.0834268696769875
272 - 11.825 - 4.085875059274328
273 - 12.475 - 4.006167120827587
274 - 13.0 - 3.930648801406709
275 - 13.0 - 3.930648801406709
276 - 13.0 - 3.930648801406709
277 - 13.0 - 3.930648801406709
278 - 12.2 - 3.9000000000000004
279 - 11.8 - 4.03236903073119
280 - 12.5 - 3.8794329482541645
281 - 13.05 - 3.6397115270306797
282 - 13.05 - 3.6397115270306797
283 - 13.05 - 3.6397115270306797
284 - 13.05 - 3.6397115270306797
285 - 12.35 - 3.5885233731996227
286 - 11.725 - 4.289449265348641
287 - 12.375 - 4.258447487054408
288 - 12.925 - 4.197543924725505
289 - 12.925 - 4.197543924725505
290 - 12.925 - 4.197543924725505
291 - 12.925 - 4.197543924725505
292 - 11.975 - 4.089544595673215
293 - 11.65 - 4.162631379308045
294 - 12.275 - 4.098704063481529
295 - 12.775 - 4.052699717472293
296 - 12.775 - 4.052699717472293
297 - 12.775 - 4.052699717472293
298 - 12.775 - 4.052699717472293
