0.74 2.29
0.74 0.63
0.76 0.66
0.70 0.58
0.61 0.46
0.56 0.47
0.58 0.46
0.51 0.42
0.46 0.41
0.34 0.35
ERROR
ERROR
ERROR
ERROR
0.13 0.16
0.04 0.13
-0.08 0.06
ERROR
-0.18 -0.05
-0.19 -0.09
-0.21 -0.08
-0.26 -0.10
ERROR
-0.38 -0.31
-0.41 -0.33
-0.42 -0.31
-0.44 -0.33
-0.51 -0.35
-0.64 -0.37
-0.70 -0.54
-0.74 -0.53
