0.66 -2.87
0.04 -0.99
0.04 -1.00
0.04 -0.98
0.05 -0.92
0.01 -0.82
0.02 -0.62
0.05 -0.59
0.06 -0.60
0.06 -0.60
0.07 -0.57
0.04 -0.49
0.01 -0.36
0.03 -0.23
0.04 -0.24
0.05 -0.25
0.05 -0.23
0.05 -0.17
-0.02 -0.06
ERROR
ERROR
-0.03 0.11
-0.03 0.12
-0.01 0.16
-0.08 0.26
-0.08 0.42
-0.07 0.45
-0.07 0.46
-0.07 0.46
-0.05 0.49
-0.13 0.57
