1.13 -4.91
0.03 -0.05
ERROR
-0.02 0.00
-0.06 -0.03
-0.05 -0.07
-0.07 -0.07
-0.11 -0.06
-0.17 0.04
-0.15 0.03
-0.16 0.05
-0.27 0.08
-0.27 0.05
-0.29 0.08
-0.33 0.12
-0.33 0.10
-0.37 0.12
-0.48 0.11
-0.45 0.12
-0.52 0.10
-0.59 0.12
-0.57 0.09
-0.58 0.15
-0.67 0.18
-0.69 0.08
-0.67 0.04
-0.76 0.04
-0.75 0.04
-0.76 0.07
-0.83 0.09
-0.87 0.02
