1.29 -13.39
-0.05 0.04
-0.06 0.02
-0.08 -0.01
-0.07 -0.06
-0.01 -0.23
-0.01 -0.23
-0.06 -0.24
-0.07 -0.24
-0.10 -0.25
-0.12 -0.29
-0.12 -0.47
-0.15 -0.50
-0.19 -0.48
-0.19 -0.48
-0.24 -0.48
-0.28 -0.49
-0.34 -0.62
-0.41 -0.69
-0.42 -0.67
-0.44 -0.65
-0.47 -0.64
-0.55 -0.61
-0.63 -0.65
ERROR
ERROR
-0.82 -0.68
-0.82 -0.67
-0.92 -0.60
-0.95 -0.59
-1.13 -0.71
