-32.12 -13.91

0.33 -0.07
0.32 -0.08
0.26 -0.11
0.12 -0.07
0.16 -0.04
0.11 -0.07
0.09 -0.06
0.01 0.10
0.04 0.03
-0.10 0.03
-0.13 0.03
-0.12 0.04
-0.17 -0.02
-0.19 -0.04
-0.13 0.02
0.02 0.08
-0.03 0.09
0.02 0.12
0.01 0.10
-0.09 0.10
-0.23 0.08
-0.21 0.09
-0.27 0.02
-0.25 0.06
-0.28 0.01
-0.38 0.01
-0.52 0.02
-0.53 0.06
-0.58 -0.10
-0.59 -0.08
