0.58 -1.64
-0.01 -0.07
0.00 -0.02
-0.00 -0.03
-0.00 -0.04
0.00 -0.13
-0.04 -0.21
-0.00 -0.07
0.00 -0.05
0.13 -0.06
0.24 -0.00
0.28 0.08
0.33 0.12
0.14 0.23
-0.07 0.23
-0.50 0.54
ERROR
0.44 0.25
0.43 0.25
0.43 0.24
ERROR
ERROR
ERROR
0.48 0.24
0.46 0.24
0.47 0.24
0.31 0.22
ERROR
ERROR
0.49 0.24
0.50 0.24
