-38.50 -7.80

0.05 -0.27
0.04 -0.27
0.03 -0.29
-0.07 -0.27
-0.14 -0.25
-0.13 -0.24
-0.13 -0.24
-0.13 -0.24
-0.09 -0.21
-0.06 -0.20
-0.09 -0.24
-0.15 -0.26
-0.16 -0.25
-0.04 -0.08
-0.10 -0.25
-0.11 -0.26
-0.21 -0.21
-0.30 -0.25
-0.31 -0.25
-0.27 -0.22
-0.27 -0.22
-0.29 -0.23
-0.41 -0.21
-0.44 -0.19
-0.44 -0.19
-0.44 -0.19
-0.43 -0.19
-0.43 -0.15
-0.47 -0.17
-0.52 -0.16
