0.24 -1.54
-0.89 0.43
-0.90 0.38
-0.89 0.38
-0.80 0.37
-0.75 0.37
-0.72 0.35
-0.75 0.29
-0.66 0.27
-0.67 0.31
-0.57 0.27
ERROR
ERROR
ERROR
-0.19 0.20
-0.22 0.23
-0.20 0.22
0.00 0.06
-0.08 -0.09
-0.00 0.05
0.02 -0.05
0.10 -0.08
0.05 -0.10
0.13 -0.21
ERROR
0.18 -0.25
0.19 -0.26
0.27 -0.34
0.16 -0.35
0.27 -0.41
0.15 -0.52
