-1.01 -2.13

-0.61 -0.21
-0.58 -0.21
-0.62 -0.18
-0.52 -0.04
-0.41 -0.05
-0.41 -0.06
-0.42 -0.07
-0.49 -0.12
-0.54 -0.17
-0.51 -0.00
-0.39 0.09
-0.39 0.09
-0.39 0.07
-0.43 0.02
-0.49 -0.09
-0.54 0.01
-0.42 0.18
-0.44 0.19
-0.43 0.18
-0.33 0.19
-0.16 0.28
-0.20 0.29
-0.18 0.49
-0.10 0.52
-0.10 0.51
-0.07 0.51
0.11 0.62
0.14 0.62
0.11 0.77
0.23 0.92
