1.07 3.79
0.18 0.98
0.17 1.06
0.17 1.04
0.16 0.95
0.19 0.95
0.29 0.97
0.33 1.04
0.32 1.00
0.27 0.96
0.20 0.96
0.21 0.94
0.21 0.94
0.22 0.95
0.23 1.02
0.18 1.15
0.12 1.13
0.11 1.10
0.11 1.07
0.10 1.08
0.10 1.09
0.14 1.15
0.15 1.13
0.17 1.08
0.23 1.05
0.31 1.08
0.31 1.08
0.35 1.18
0.31 1.18
0.22 1.09
0.23 1.02
