1.66 -1.87
-0.01 0.02
-0.07 0.06
-0.07 0.07
-0.10 0.08
-0.16 -0.00
-0.16 -0.00
-0.19 0.02
-0.24 0.10
-0.24 0.10
-0.29 0.16
-0.40 0.13
-0.37 0.09
-0.41 0.14
-0.46 0.17
-0.46 0.14
-0.50 0.17
-0.62 0.15
-0.61 0.16
-0.64 0.15
-0.72 0.17
-0.70 0.15
-0.72 0.22
-0.83 0.24
-0.84 0.15
-0.79 0.12
-0.89 0.11
-0.88 0.10
-0.90 0.13
-0.97 0.14
-1.00 0.07
