1.00 -14.15
-0.02 -0.01
0.05 -0.06
0.12 -0.15
0.14 -0.20
0.15 -0.19
0.17 -0.21
0.24 -0.37
0.25 -0.39
0.26 -0.39
0.29 -0.48
0.31 -0.48
0.31 -0.50
0.41 -0.64
0.44 -0.67
0.44 -0.67
0.45 -0.74
0.51 -0.75
0.50 -0.77
0.55 -0.87
0.66 -0.92
0.65 -0.91
0.65 -0.96
0.70 -0.99
0.71 -0.99
0.72 -1.09
0.86 -1.14
0.85 -1.14
0.85 -1.14
0.88 -1.20
0.88 -1.19
