1.61 -8.02
0.01 0.02
0.01 0.02
0.01 0.02
0.01 0.02
0.02 0.01
0.02 0.01
0.02 0.01
0.02 -0.00
0.03 -0.02
0.04 -0.02
0.04 -0.02
0.10 -0.03
0.25 -0.02
0.25 -0.04
0.24 -0.02
0.24 -0.01
0.28 -0.05
0.29 -0.04
0.32 -0.03
0.31 -0.02
0.32 -0.03
0.32 -0.04
0.32 -0.04
0.32 -0.04
0.32 -0.04
0.33 -0.04
0.33 -0.04
0.33 -0.04
0.33 -0.05
0.33 -0.05
