0.74 -4.62
0.96 0.03
0.94 0.13
0.92 0.16
0.91 0.16
0.88 0.15
0.70 0.17
0.69 0.17
0.66 0.17
0.59 0.16
0.59 0.17
0.49 0.15
0.31 0.13
0.34 0.11
0.31 0.09
0.23 0.08
0.24 0.09
0.19 0.08
-0.02 0.02
-0.02 0.02
-0.03 -0.01
-0.13 -0.02
-0.12 -0.01
-0.13 -0.02
-0.30 -0.08
-0.37 -0.10
-0.36 -0.12
-0.43 -0.13
-0.44 -0.14
-0.46 -0.14
-0.57 -0.19
