0.29 1.28
0.01 0.02
0.01 0.07
0.00 -0.06
-0.02 -0.14
-0.02 -0.17
0.12 -0.25
0.17 -0.27
0.18 -0.28
0.19 -0.33
0.17 -0.44
0.15 -0.50
ERROR
0.30 -0.65
0.42 -0.70
ERROR
0.20 -0.76
0.16 -0.81
0.20 -0.85
0.21 -0.96
-0.10 -0.37
-0.65 0.81
ERROR
0.15 -1.07
0.11 -1.10
0.18 -1.13
0.24 -1.01
0.25 -1.02
0.25 -1.03
0.24 -1.06
0.22 -1.12
