0.64 14.12
-0.02 0.07
-0.03 0.09
-0.07 0.08
-0.20 -0.07
-0.19 -0.07
-0.20 -0.08
-0.29 -0.09
-0.26 -0.03
-0.33 0.05
-0.34 0.00
-0.34 0.03
-0.28 0.02
-0.34 -0.06
-0.34 -0.03
-0.40 0.03
-0.38 0.06
-0.34 0.11
-0.31 0.13
-0.33 0.12
-0.43 0.07
-0.44 -0.04
-0.50 -0.01
-0.64 -0.13
-0.62 -0.23
-0.64 -0.17
-0.68 -0.12
-0.66 -0.12
-0.69 -0.13
-0.74 -0.29
-0.75 -0.29
