-37.44 -6.66

-0.55 -0.24
-0.56 -0.12
-0.55 -0.11
-0.49 -0.17
-0.41 -0.22
-0.40 -0.19
-0.40 -0.19
-0.30 -0.05
-0.24 -0.06
-0.24 -0.07
-0.11 -0.12
-0.02 -0.15
-0.02 -0.15
0.03 -0.09
0.15 -0.02
0.10 -0.00
0.25 -0.06
0.33 -0.15
0.33 -0.15
0.34 -0.11
0.46 -0.01
0.46 -0.00
0.49 -0.02
0.67 -0.14
0.66 -0.14
0.66 -0.12
0.76 -0.02
0.79 -0.00
0.78 0.01
0.90 -0.11
