-37.24 -7.98

0.07 -0.26
0.08 -0.27
0.05 -0.34
0.05 -0.38
-0.02 -0.42
-0.05 -0.41
-0.04 -0.47
-0.07 -0.47
-0.12 -0.54
-0.12 -0.57
-0.16 -0.63
-0.20 -0.63
-0.19 -0.68
-0.20 -0.69
-0.23 -0.76
-0.24 -0.79
-0.25 -0.85
-0.30 -0.87
-0.31 -0.89
-0.28 -0.92
-0.29 -0.97
-0.31 -1.03
-0.29 -1.09
-0.32 -1.13
-0.34 -1.13
-0.31 -1.18
-0.33 -1.21
-0.34 -1.27
-0.32 -1.31
-0.33 -1.37
