0.07 6.35
0.84 0.46
0.82 0.42
0.82 0.42
0.82 0.43
0.83 0.41
0.76 0.35
0.64 0.26
0.63 0.23
0.60 0.12
0.45 0.10
0.47 0.09
0.44 0.05
0.25 -0.03
0.24 -0.06
0.23 -0.14
0.05 -0.15
0.05 -0.15
0.04 -0.19
-0.14 -0.23
-0.19 -0.27
-0.20 -0.33
-0.37 -0.33
-0.41 -0.33
-0.40 -0.36
-0.52 -0.37
-0.65 -0.38
-0.66 -0.42
-0.80 -0.46
-0.87 -0.40
-0.86 -0.42
