-41.29 -7.86

0.06 0.16
0.05 0.07
0.04 0.04
0.03 -0.04
0.04 -0.05
0.13 -0.03
-0.09 0.06
-0.06 -0.06
-0.07 -0.09
-0.06 -0.16
0.02 -0.23
0.03 -0.25
0.03 -0.25
0.04 -0.24
0.07 -0.26
0.14 -0.46
0.17 -0.52
0.21 -0.52
0.20 -0.53
0.19 -0.55
0.21 -0.56
0.28 -0.72
0.35 -0.85
0.39 -0.85
0.40 -0.85
0.39 -0.84
0.39 -0.83
0.42 -0.87
0.55 -1.08
0.63 -1.09
