2.98 13.23

-0.45 0.42
-0.45 0.39
-0.43 0.32
-0.41 0.30
-0.41 0.33
-0.32 0.36
-0.34 0.33
-0.40 0.33
-0.36 0.31
ERROR
-0.22 0.27
-0.14 0.33
-0.13 0.31
-0.06 0.26
-0.13 0.27
-0.06 0.29
0.05 0.26
0.08 0.29
0.12 0.29
0.12 0.26
0.09 0.24
0.16 0.28
0.21 0.23
0.35 0.14
0.38 0.17
0.44 0.16
0.41 0.13
0.47 0.16
0.48 0.18
0.52 0.13
