0.52 -0.89
-0.87 0.44
-0.88 0.39
-0.87 0.39
-0.78 0.38
-0.73 0.38
-0.70 0.36
-0.71 0.30
-0.64 0.26
-0.66 0.32
-0.58 0.29
ERROR
-0.35 0.25
-0.32 0.31
-0.28 0.19
-0.24 0.22
-0.25 0.24
-0.09 0.12
-0.02 0.13
0.02 -0.17
0.09 -0.45
0.20 -0.86
0.06 -0.06
0.11 -0.14
0.21 -0.15
0.21 -0.20
0.20 -0.19
ERROR
ERROR
0.22 -0.40
0.36 -0.46
