0.46 -3.77

0.73 0.74
0.76 0.76
0.56 0.61
0.57 0.62
0.57 0.61
0.49 0.58
0.46 0.50
0.45 0.50
0.36 0.45
0.22 0.29
0.24 0.29
0.16 0.30
0.16 0.20
0.15 0.21
0.08 0.19
-0.11 0.02
-0.09 0.00
-0.13 0.02
-0.15 -0.08
-0.19 -0.08
-0.22 -0.10
-0.35 -0.19
ERROR
ERROR
-0.49 -0.31
-0.49 -0.38
-0.53 -0.39
-0.63 -0.40
-0.76 -0.54
-0.76 -0.54
