0.64 4.80
-0.60 0.82
-0.64 0.80
-0.67 0.73
-0.67 0.71
-0.68 0.65
-0.56 0.45
-0.60 0.42
-0.63 0.42
-0.55 0.31
-0.51 0.35
-0.52 0.30
-0.40 0.17
-0.48 0.14
-0.52 0.20
-0.40 0.00
-0.38 -0.00
-0.39 -0.00
-0.35 -0.09
-0.34 -0.28
-0.34 -0.24
-0.32 -0.29
-0.26 -0.37
-0.24 -0.35
-0.22 -0.41
-0.16 -0.56
-0.25 -0.48
-0.24 -0.51
-0.14 -0.69
-0.12 -0.65
-0.15 -0.70
