0.46 5.09
-0.04 -0.03
-0.05 -0.02
-0.04 -0.03
-0.03 -0.03
-0.05 -0.04
-0.13 -0.07
-0.13 -0.12
-0.10 -0.09
-0.09 0.05
-0.08 0.02
-0.14 0.02
-0.29 -0.09
-0.35 -0.02
-0.35 -0.00
-0.35 -0.01
-0.37 -0.05
-0.45 -0.03
-0.59 -0.05
-0.71 0.01
-0.69 0.04
-0.69 0.03
-0.72 -0.01
-0.75 0.00
-0.92 0.02
-1.07 0.01
-1.08 0.09
-1.07 0.12
-1.12 0.09
-1.11 0.10
-1.19 0.15
