0.47 -10.80
-1.03 0.14
-1.02 0.14
-0.64 0.12
-0.59 0.16
-0.93 0.27
-0.86 0.29
-0.79 0.22
-0.71 0.30
-0.71 0.24
-0.70 0.25
-0.56 0.32
ERROR
-0.59 0.34
-0.47 0.42
-0.48 0.35
-0.56 0.34
-0.39 0.33
-0.26 0.50
-0.32 0.43
-0.22 0.43
-0.19 0.36
-0.23 0.35
-0.15 0.33
-0.02 0.31
0.06 0.36
0.04 0.30
0.11 0.24
0.06 0.23
0.09 0.21
0.19 0.10
