-32.09 -4.25

0.60 0.28
0.59 0.21
0.60 0.22
0.55 0.18
0.33 0.16
0.34 0.17
0.37 0.20
0.37 0.10
0.32 -0.07
0.31 -0.08
0.19 -0.15
0.05 -0.04
0.08 -0.04
0.10 -0.11
0.05 -0.29
0.05 -0.29
-0.07 -0.39
-0.20 -0.43
-0.18 -0.36
-0.15 -0.39
-0.20 -0.54
-0.22 -0.61
-0.28 -0.66
-0.52 -0.70
-0.46 -0.66
-0.44 -0.69
-0.43 -0.83
-0.49 -0.91
-0.50 -0.93
-0.62 -1.04
