0.90 10.76
-0.01 0.02
-0.05 0.02
-0.08 -0.05
-0.11 -0.12
-0.09 -0.12
-0.09 -0.11
-0.08 -0.13
-0.12 -0.18
-0.14 -0.21
-0.21 -0.31
-0.18 -0.34
-0.18 -0.32
-0.17 -0.33
-0.18 -0.36
-0.19 -0.39
-0.24 -0.53
-0.22 -0.56
-0.21 -0.57
-0.20 -0.56
-0.19 -0.57
-0.19 -0.59
-0.20 -0.70
-0.18 -0.79
-0.16 -0.80
-0.16 -0.79
-0.15 -0.79
-0.15 -0.78
-0.14 -0.83
-0.11 -0.98
-0.08 -0.98
