2.78 -1.71
-0.02 0.00
-0.10 -0.04
-0.12 -0.07
-0.12 -0.08
-0.12 -0.09
-0.12 -0.08
-0.14 -0.09
-0.14 -0.08
-0.16 -0.08
-0.25 -0.12
-0.28 -0.12
-0.29 -0.12
-0.31 -0.12
-0.32 -0.12
-0.33 -0.12
-0.42 -0.14
-0.45 -0.15
-0.47 -0.15
-0.48 -0.15
-0.49 -0.15
-0.50 -0.15
-0.57 -0.15
-0.61 -0.17
-0.65 -0.17
-0.65 -0.17
-0.67 -0.17
-0.67 -0.17
-0.70 -0.16
-0.76 -0.18
-0.79 -0.18
