0.25 -1.74
-0.06 0.00
-0.08 -0.07
-0.08 -0.06
-0.08 0.09
-0.09 0.08
-0.08 0.11
-0.21 0.21
-0.27 0.23
-0.27 0.23
-0.25 0.32
-0.24 0.31
-0.22 0.32
-0.26 0.40
-0.37 0.45
-0.37 0.46
-0.35 0.52
-0.34 0.53
-0.32 0.52
-0.34 0.53
-0.50 0.63
-0.51 0.64
-0.50 0.67
-0.48 0.73
-0.46 0.71
-0.47 0.76
-0.63 0.86
-0.64 0.87
-0.63 0.88
-0.63 0.98
-0.62 0.93
