1.64 9.10
-0.02 -0.03
-0.04 -0.05
ERROR
-0.03 -0.01
-0.09 0.03
ERROR
-0.12 -0.00
-0.10 0.00
-0.21 -0.02
-0.22 0.01
-0.20 0.03
-0.23 0.04
-0.26 0.05
-0.28 0.02
-0.31 -0.02
-0.36 0.01
-0.34 0.02
-0.40 0.11
-0.45 0.07
-0.45 0.07
-0.46 0.06
-0.53 0.09
-0.52 0.09
-0.58 0.12
-0.59 0.16
-0.63 0.13
-0.63 0.13
-0.69 0.08
-0.73 0.13
-0.78 0.15
