0.27 -2.41
0.02 -0.01
0.04 0.02
0.05 0.04
0.05 -0.00
0.08 -0.05
0.08 -0.06
0.11 -0.12
0.21 -0.21
0.34 -0.18
0.31 -0.18
0.20 -0.25
0.20 -0.26
0.19 -0.31
0.29 -0.42
0.32 -0.41
0.30 -0.39
0.25 -0.42
0.26 -0.46
0.27 -0.47
0.26 -0.52
0.25 -0.60
0.25 -0.60
0.28 -0.69
0.25 -0.66
0.21 -0.68
0.18 -0.77
0.25 -0.83
0.26 -0.80
0.24 -0.79
0.19 -0.82
