9.61 -4.77
-0.01 -0.01
0.40 -0.03
0.42 -0.03
ERROR
-0.12 -0.20
0.00 -0.16
-0.01 -0.17
-0.03 -0.19
-0.04 -0.19
-0.08 -0.20
-0.18 -0.24
-0.09 -0.30
-0.08 -0.30
-0.09 -0.32
-0.12 -0.33
-0.16 -0.33
-0.25 -0.33
-0.21 -0.45
-0.18 -0.46
-0.18 -0.46
-0.21 -0.48
-0.24 -0.47
-0.28 -0.47
-0.35 -0.55
-0.31 -0.61
-0.31 -0.61
-0.32 -0.62
-0.34 -0.61
-0.37 -0.60
-0.46 -0.63
