0.51 2.08
-0.02 0.02
-0.04 0.04
-0.05 0.02
-0.05 -0.01
-0.06 -0.02
-0.06 0.01
0.05 0.15
0.03 0.30
-0.08 0.10
-0.08 -0.00
-0.10 -0.03
-0.11 0.02
-0.15 0.08
-0.14 0.09
-0.12 0.06
-0.17 -0.06
-0.18 -0.04
-0.20 -0.01
-0.23 0.05
-0.24 0.06
-0.21 0.04
-0.17 -0.10
-0.17 -0.12
-0.19 -0.11
-0.23 -0.07
-0.27 -0.04
-0.28 -0.08
-0.19 -0.21
-0.14 -0.22
-0.15 -0.23
