1.36 -9.88
0.97 -0.03
0.96 -0.00
0.95 -0.02
0.91 -0.04
0.92 -0.10
0.87 -0.08
ERROR
ERROR
ERROR
ERROR
0.60 -0.16
0.59 -0.17
0.55 -0.14
0.46 -0.05
0.48 -0.06
0.43 -0.07
0.37 -0.17
0.35 -0.18
0.36 -0.18
0.27 -0.11
0.20 -0.06
0.21 -0.08
0.12 -0.12
0.11 -0.07
0.11 -0.09
0.04 -0.06
ERROR
-0.02 -0.05
-0.03 -0.00
ERROR
