0.84 -0.21
-0.00 0.01
-0.01 0.01
-0.07 0.06
-0.07 0.09
-0.18 0.15
-0.26 0.10
-0.26 0.10
-0.27 0.11
-0.32 0.16
-0.33 0.21
-0.35 0.21
-0.37 0.19
-0.32 0.21
-0.32 0.21
-0.34 0.21
-0.37 0.22
-0.43 0.28
-0.47 0.21
-0.42 0.25
-0.45 0.23
-0.54 0.25
-0.66 0.27
-0.68 0.29
-0.79 0.25
-0.80 0.21
-0.80 0.21
-0.80 0.20
-0.76 0.22
-0.89 0.17
-0.99 0.10
