-0.11 1.28
0.00 -0.02
-0.03 -0.01
-0.03 -0.06
0.02 -0.08
0.11 -0.04
0.10 -0.05
0.15 0.00
0.30 0.03
0.30 0.05
0.23 -0.04
0.35 -0.04
0.34 -0.03
0.37 -0.02
0.51 -0.05
0.53 -0.11
0.53 -0.15
0.56 -0.16
0.59 -0.13
0.63 -0.12
0.73 -0.14
0.77 -0.21
0.75 -0.27
0.83 -0.34
ERROR
0.85 -0.33
0.93 -0.31
1.01 -0.40
0.99 -0.41
0.98 -0.42
1.01 -0.39
