0.79 -16.42
-0.00 0.01
0.01 -0.02
0.03 -0.04
0.02 -0.03
0.03 -0.06
-0.05 -0.17
-0.07 -0.20
-0.05 -0.23
-0.01 -0.33
-0.02 -0.32
-0.01 -0.31
-0.09 -0.41
-0.13 -0.42
-0.11 -0.45
-0.07 -0.56
-0.06 -0.55
-0.08 -0.53
-0.08 -0.58
-0.22 -0.60
-0.22 -0.63
-0.18 -0.71
-0.16 -0.75
-0.17 -0.72
-0.15 -0.75
-0.31 -0.79
-0.34 -0.82
-0.31 -0.86
-0.29 -0.94
-0.29 -0.92
-0.28 -0.92
