1.07 6.05
0.95 0.26
0.88 0.20
0.89 0.20
0.84 0.22
0.84 0.21
0.88 0.27
0.83 0.22
0.68 0.09
0.69 0.10
0.52 0.08
0.47 0.06
0.49 0.09
0.49 0.08
0.38 -0.03
0.31 -0.10
0.24 -0.10
0.12 -0.14
0.13 -0.14
0.15 -0.12
0.08 -0.21
0.03 -0.27
0.03 -0.26
-0.02 -0.33
-0.04 -0.32
-0.02 -0.26
-0.03 -0.31
-0.13 -0.48
-0.14 -0.48
-0.19 -0.58
-0.20 -0.57
