0.12 -2.25
0.00 -0.02
0.02 -0.07
0.06 -0.08
0.11 -0.11
0.23 -0.07
0.21 -0.14
0.23 -0.17
0.26 -0.21
0.31 -0.17
0.30 -0.21
0.39 -0.29
0.41 -0.27
0.45 -0.28
0.48 -0.32
0.51 -0.33
0.49 -0.36
0.47 -0.44
0.58 -0.47
0.61 -0.49
ERROR
ERROR
0.63 -0.61
0.84 -0.64
ERROR
ERROR
0.83 -0.67
0.86 -0.76
0.86 -0.80
0.89 -0.84
ERROR
