0.88 -16.01
0.00 0.03
0.05 0.02
0.06 0.02
0.15 -0.06
0.18 -0.08
0.18 -0.05
0.16 -0.08
0.18 -0.09
0.15 -0.11
0.20 -0.17
0.26 -0.28
0.27 -0.26
0.25 -0.26
0.24 -0.29
0.24 -0.28
0.22 -0.30
0.21 -0.43
0.28 -0.51
0.28 -0.56
0.28 -0.56
0.30 -0.56
0.28 -0.57
0.22 -0.72
0.29 -0.73
0.29 -0.70
0.25 -0.73
0.25 -0.73
0.22 -0.72
0.17 -0.75
0.17 -0.87
