-0.05 3.37
0.26 -0.90
0.25 -0.85
0.26 -0.84
0.26 -0.79
0.19 -0.68
0.17 -0.68
0.24 -0.65
0.18 -0.57
0.11 -0.52
0.12 -0.54
0.13 -0.36
0.03 -0.32
0.09 -0.34
0.09 -0.26
-0.01 -0.16
-0.00 -0.22
0.07 -0.09
ERROR
ERROR
ERROR
0.00 0.06
ERROR
ERROR
-0.05 0.28
-0.06 0.28
0.00 0.29
-0.02 0.37
-0.06 0.41
-0.08 0.44
-0.02 0.54
