0.04 0.00
0.01 0.00
0.02 0.03
0.00 0.08
0.05 0.19
0.14 0.18
0.12 0.16
0.13 0.16
0.13 0.18
0.13 0.18
0.14 0.33
0.23 0.29
0.21 0.29
0.21 0.27
0.21 0.28
0.20 0.32
0.30 0.39
0.35 0.46
0.32 0.45
0.32 0.44
0.30 0.43
0.28 0.44
0.34 0.50
0.43 0.61
0.41 0.61
0.41 0.59
0.40 0.57
0.38 0.57
0.40 0.61
0.53 0.74
0.52 0.75
