1.46 -14.31
-0.02 0.03
-0.03 0.05
-0.04 0.03
-0.06 0.00
-0.07 -0.00
-0.06 0.03
-0.03 0.12
-0.07 0.12
-0.18 0.02
-0.18 -0.05
-0.19 -0.05
-0.18 0.00
-0.20 0.05
-0.19 0.06
-0.19 0.03
-0.20 0.01
-0.21 -0.00
-0.21 -0.00
-0.25 0.08
-0.26 0.10
-0.26 0.07
-0.27 -0.09
-0.27 -0.08
-0.30 -0.04
-0.31 -0.01
-0.34 -0.00
-0.34 -0.00
-0.33 -0.01
-0.32 -0.01
-0.31 -0.04
