-0.29 -12.87
0.03 0.02
0.00 0.03
-0.01 -0.01
0.03 -0.04
0.14 -0.03
0.12 -0.04
0.18 0.01
0.33 -0.00
0.32 0.01
0.24 -0.06
0.37 -0.08
0.36 -0.08
0.39 -0.07
0.53 -0.11
0.55 -0.17
0.54 -0.21
0.57 -0.22
0.60 -0.19
0.63 -0.20
0.72 -0.22
0.77 -0.32
0.75 -0.37
0.81 -0.45
0.85 -0.44
0.83 -0.44
0.91 -0.43
0.99 -0.53
0.95 -0.54
0.94 -0.53
0.97 -0.50
