0.62 -7.37
0.86 0.47
0.80 0.46
0.82 0.47
0.70 0.38
0.63 0.38
0.61 0.36
0.46 0.24
0.45 0.23
0.46 0.24
0.37 0.15
ERROR
0.28 0.15
0.16 0.08
0.09 0.05
0.12 0.07
0.09 0.01
-0.00 -0.00
-0.05 -0.00
-0.10 -0.04
-0.24 -0.11
-0.23 -0.09
-0.23 -0.11
-0.35 -0.13
-0.37 -0.14
-0.42 -0.15
ERROR
ERROR
ERROR
-0.63 -0.25
-0.83 -0.26
