0.73 -7.30
0.02 -0.05
-0.00 0.02
-0.01 0.01
-0.05 0.00
-0.16 -0.07
-0.17 -0.07
-0.17 -0.01
-0.19 0.05
-0.20 0.11
-0.32 0.05
-0.34 0.03
-0.36 -0.01
-0.38 0.06
-0.39 0.12
-0.35 0.18
-0.43 0.19
-0.52 0.17
-0.57 0.13
-0.56 0.15
-0.57 0.29
-0.56 0.35
-0.59 0.39
-0.76 0.35
-0.82 0.31
-0.82 0.32
-0.79 0.36
-0.79 0.51
-0.79 0.54
-0.94 0.53
-1.03 0.54
