0.23 -4.55
-0.01 0.01
0.13 0.05
0.41 0.07
ERROR
ERROR
ERROR
0.12 0.05
ERROR
ERROR
0.21 0.09
0.03 0.11
0.14 0.13
0.29 0.17
0.27 0.14
0.27 0.09
0.34 0.14
0.37 0.14
0.36 0.15
0.39 0.12
0.45 0.09
0.41 0.08
0.42 0.08
0.45 0.11
0.47 0.17
0.62 0.20
0.65 0.21
0.66 0.19
0.63 0.15
0.59 0.13
0.46 0.17
