0.12 -1.54
0.00 0.02
-0.02 0.05
-0.03 0.06
-0.02 0.05
-0.02 0.08
-0.03 0.11
-0.03 0.12
-0.07 0.15
-0.08 0.15
-0.08 0.15
-0.09 0.16
-0.07 0.15
-0.05 0.13
-0.04 0.13
-0.06 0.15
-0.08 0.16
-0.08 0.16
-0.07 0.17
-0.04 0.15
-0.04 0.14
-0.05 0.15
-0.05 0.16
-0.06 0.16
-0.06 0.17
ERROR
-0.06 0.17
-0.08 0.19
-0.07 0.20
-0.08 0.19
-0.08 0.21
