1.12 6.32
-0.04 0.01
-0.05 0.02
-0.05 0.03
-0.05 0.04
-0.04 0.04
-0.04 0.03
-0.04 0.03
-0.04 0.02
-0.04 0.02
-0.03 0.01
-0.02 0.02
0.00 0.02
0.03 0.02
0.06 0.01
0.08 -0.01
0.08 -0.05
0.07 -0.05
0.07 -0.04
0.06 -0.03
0.05 -0.03
0.04 -0.02
0.03 -0.01
0.02 0.01
0.03 0.03
ERROR
ERROR
ERROR
0.09 0.06
0.08 0.07
0.07 0.07
0.07 0.07
0.06 0.06
0.06 0.06
0.06 0.06
0.05 0.05
0.05 0.05
0.05 0.04
0.04 0.03
0.04 0.03
0.04 0.03
0.04 0.03
0.05 0.02
0.07 0.02
0.08 0.02
0.10 0.01
0.13 -0.01
0.18 -0.03
ERROR
ERROR
ERROR
0.19 -0.07
0.19 -0.07
0.19 -0.06
0.20 -0.06
0.21 -0.05
0.20 -0.05
0.21 -0.05
0.22 -0.03
0.26 0.00
0.29 0.03
0.31 0.04
0.24 0.06
0.23 0.06
0.29 0.05
0.36 0.04
0.42 0.04
0.35 0.03
0.34 0.03
0.33 0.03
0.32 0.03
0.31 0.03
0.30 0.04
0.27 0.04
0.27 0.05
0.27 0.06
0.28 0.06
0.28 0.07
0.30 0.08
0.32 0.09
0.35 0.10
0.40 0.11
0.46 0.10
0.49 0.09
0.51 0.09
0.52 0.10
0.53 0.11
0.54 0.12
0.55 0.14
0.56 0.16
0.56 0.17
0.57 0.18
0.57 0.18
0.57 0.19
0.57 0.19
0.57 0.19
0.58 0.18
0.58 0.18
0.58 0.17
0.57 0.17
0.57 0.16
0.57 0.16
0.57 0.15
0.56 0.15
0.56 0.15
0.57 0.15
0.59 0.16
0.62 0.17
0.66 0.17
0.69 0.16
0.70 0.14
0.70 0.14
0.71 0.14
0.72 0.15
0.73 0.15
0.74 0.16
0.76 0.17
0.78 0.18
0.78 0.18
0.78 0.19
0.78 0.21
0.78 0.23
0.78 0.25
0.79 0.30
0.79 0.34
0.79 0.35
0.79 0.35
0.79 0.33
0.79 0.32
0.79 0.30
0.79 0.28
0.79 0.28
0.79 0.27
0.79 0.27
0.78 0.28
0.78 0.28
0.77 0.30
0.78 0.32
0.79 0.34
0.83 0.36
0.87 0.35
0.91 0.33
0.91 0.31
0.89 0.29
0.87 0.29
0.85 0.28
0.86 0.29
0.87 0.31
0.88 0.33
0.89 0.34
