3.65 1.98

0.07 -0.14
0.10 -0.13
-0.00 -0.25
-0.05 -0.30
-0.05 -0.30
-0.03 -0.31
-0.04 -0.29
-0.01 -0.31
-0.04 -0.38
-0.18 -0.59
-0.15 -0.58
-0.15 -0.57
-0.15 -0.57
-0.13 -0.57
-0.11 -0.60
-0.13 -0.68
-0.22 -0.88
-0.22 -0.87
-0.22 -0.87
-0.22 -0.86
-0.19 -0.88
-0.20 -0.97
-0.26 -1.18
-0.25 -1.17
-0.25 -1.18
-0.24 -1.18
-0.21 -1.19
-0.21 -1.27
-0.25 -1.45
-0.25 -1.44
