2.33 -3.24

0.09 -0.11
0.10 -0.14
0.11 -0.14
0.11 -0.16
0.07 -0.15
0.05 -0.18
0.05 -0.19
0.02 -0.21
0.02 -0.21
0.02 -0.24
0.00 -0.24
-0.05 -0.26
-0.03 -0.27
-0.07 -0.30
-0.06 -0.30
-0.07 -0.34
-0.07 -0.35
-0.16 -0.39
-0.14 -0.40
-0.15 -0.42
-0.15 -0.41
-0.14 -0.44
-0.14 -0.47
-0.21 -0.53
-0.21 -0.54
-0.21 -0.53
-0.22 -0.53
-0.20 -0.55
-0.21 -0.59
-0.22 -0.63
