0.72 -5.80
-0.03 -0.02
-0.04 -0.01
-0.05 0.00
-0.05 0.00
-0.05 -0.00
-0.06 -0.01
-0.06 -0.02
-0.07 -0.02
-0.06 -0.02
-0.03 -0.02
0.00 -0.03
0.02 -0.04
0.03 -0.05
0.03 -0.06
0.03 -0.07
0.03 -0.08
0.03 -0.08
0.03 -0.08
0.03 -0.08
0.03 -0.08
0.03 -0.08
0.03 -0.07
0.03 -0.07
0.03 -0.07
0.03 -0.06
0.03 -0.05
0.03 -0.04
0.03 -0.01
0.04 0.01
0.05 0.04
0.06 0.09
0.08 0.12
0.08 0.12
0.07 0.12
0.07 0.12
0.07 0.12
0.07 0.12
0.08 0.12
0.09 0.13
0.10 0.14
0.11 0.15
0.11 0.17
0.13 0.20
0.15 0.22
0.17 0.22
0.19 0.20
0.22 0.17
0.26 0.14
0.26 0.11
0.27 0.10
0.26 0.10
0.26 0.10
0.26 0.11
0.26 0.11
0.26 0.11
0.26 0.12
0.26 0.13
0.26 0.14
0.26 0.17
0.27 0.19
0.28 0.23
0.29 0.28
0.31 0.32
0.31 0.33
0.30 0.33
0.30 0.33
0.31 0.33
0.31 0.33
0.32 0.33
0.33 0.34
0.34 0.35
0.35 0.37
0.35 0.39
0.36 0.42
0.38 0.44
0.41 0.43
0.43 0.41
0.46 0.38
0.49 0.35
0.50 0.32
0.50 0.31
0.50 0.31
0.50 0.31
0.50 0.31
0.49 0.32
0.49 0.32
0.49 0.32
0.49 0.33
0.49 0.34
0.49 0.37
0.49 0.39
0.50 0.43
0.50 0.48
ERROR
ERROR
ERROR
0.50 0.55
0.51 0.55
0.51 0.55
0.52 0.56
0.53 0.56
0.54 0.57
0.55 0.58
0.57 0.60
0.58 0.63
0.59 0.66
0.61 0.65
0.63 0.63
0.66 0.60
0.69 0.58
0.70 0.55
0.70 0.54
0.69 0.53
0.70 0.53
0.70 0.53
0.70 0.54
0.70 0.54
0.70 0.54
0.69 0.55
0.69 0.56
0.69 0.58
0.69 0.60
0.69 0.64
0.69 0.69
0.69 0.76
0.63 0.79
0.57 0.74
0.56 0.74
0.69 0.78
0.69 0.78
0.70 0.78
0.71 0.79
0.72 0.79
0.73 0.80
0.75 0.81
0.78 0.82
0.82 0.84
0.85 0.83
0.88 0.80
0.89 0.78
0.89 0.78
0.89 0.77
0.89 0.76
0.88 0.75
0.88 0.75
0.88 0.76
0.87 0.76
0.87 0.77
0.87 0.77
