1.67 0.69
0.03 0.07
0.03 0.05
0.03 0.04
0.05 0.04
0.05 0.04
0.04 0.04
0.05 0.04
0.04 0.04
0.03 0.04
0.04 0.03
0.05 0.04
0.02 0.04
0.00 0.03
0.01 0.03
0.04 0.03
0.04 0.03
0.05 0.02
0.07 -0.00
0.11 -0.02
0.02 0.11
0.29 -0.13
0.13 0.02
0.13 0.02
0.13 0.02
0.13 0.02
0.13 0.02
0.13 0.02
0.13 0.02
0.13 0.02
0.13 0.02
0.13 0.02
0.13 0.02
0.13 0.02
0.13 0.02
0.13 0.02
0.13 0.02
0.13 0.02
0.13 0.02
ERROR
ERROR
ERROR
ERROR
ERROR
0.19 0.05
0.19 0.05
0.19 0.04
0.20 0.04
0.22 0.03
0.25 0.03
0.29 0.02
0.36 0.01
0.43 -0.00
0.49 0.00
0.51 0.00
0.51 0.00
ERROR
0.44 0.01
0.45 0.01
0.45 0.01
0.45 0.01
0.45 0.01
0.46 0.02
0.47 0.03
0.48 0.05
0.50 0.07
0.52 0.11
0.54 0.13
0.55 0.13
0.56 0.12
0.56 0.12
0.55 0.12
0.55 0.13
0.51 0.13
0.50 0.13
0.51 0.13
0.51 0.13
0.52 0.12
0.54 0.12
0.55 0.12
0.57 0.13
0.59 0.14
0.64 0.15
0.71 0.17
0.66 0.10
0.72 0.05
0.73 -0.05
0.77 -0.15
0.73 -0.24
0.71 -0.32
0.67 -0.40
0.69 -0.47
0.67 -0.53
0.72 -0.57
0.74 -0.65
0.74 -0.71
0.73 -0.76
0.72 -0.80
0.71 -0.81
0.77 -0.74
0.77 -0.76
0.77 -0.72
0.78 -0.70
0.78 -0.64
0.77 -0.58
0.77 -0.46
0.76 -0.34
0.76 -0.33
0.75 -0.24
0.77 -0.16
0.82 -0.10
0.87 -0.04
0.91 0.03
0.82 0.30
0.77 0.39
0.73 0.49
0.83 0.46
0.82 0.46
0.82 0.45
0.82 0.41
0.82 0.38
0.82 0.36
0.83 0.22
0.83 0.22
0.83 0.22
0.83 0.23
0.83 0.24
0.83 0.25
0.83 0.27
0.85 0.30
0.87 0.33
0.90 0.35
0.93 0.35
0.93 0.33
0.93 0.32
0.93 0.32
0.93 0.32
0.93 0.32
0.93 0.32
0.92 0.32
0.92 0.32
0.93 0.32
0.93 0.32
0.94 0.33
0.95 0.34
0.96 0.35
0.99 0.36
1.01 0.38
1.01 0.38
1.01 0.38
1.01 0.38
