1.05 0.42

-0.46 -0.27
-0.41 -0.24
-0.41 -0.24
-0.40 -0.24
-0.42 -0.25
-0.39 -0.23
-0.32 -0.17
-0.23 -0.11
-0.19 -0.09
-0.20 -0.13
-0.17 -0.12
-0.11 -0.10
-0.09 -0.08
-0.10 -0.07
-0.06 -0.08
-0.07 -0.09
-0.07 -0.11
0.00 -0.11
ERROR
0.06 -0.09
0.09 -0.10
0.12 -0.14
0.08 -0.13
0.20 -0.17
0.29 -0.16
0.30 -0.15
0.28 -0.13
0.32 -0.17
0.36 -0.16
0.31 -0.18
