1.44 1.76
0.06 -0.04
0.05 -0.03
0.05 -0.02
0.06 -0.02
0.06 -0.02
0.06 -0.02
0.06 -0.03
0.06 -0.03
0.06 -0.03
0.07 -0.04
0.08 -0.04
0.10 -0.04
0.13 -0.04
0.16 -0.05
0.18 -0.08
0.18 -0.11
0.18 -0.10
0.17 -0.10
0.17 -0.10
0.17 -0.09
0.17 -0.09
0.17 -0.09
0.17 -0.08
0.16 -0.08
0.16 -0.07
0.16 -0.05
0.16 -0.03
0.17 0.00
0.20 0.03
0.20 0.04
0.19 0.03
0.19 0.03
0.19 0.03
0.18 0.02
0.18 0.02
0.18 0.01
0.18 0.01
0.18 0.00
0.17 -0.00
0.18 -0.00
0.18 -0.01
0.19 -0.01
0.21 -0.01
0.23 -0.02
0.26 -0.03
0.29 -0.04
0.31 -0.07
0.33 -0.09
ERROR
0.33 -0.10
0.33 -0.10
0.35 -0.09
0.34 -0.09
0.37 -0.08
0.37 -0.08
0.37 -0.07
0.38 -0.07
0.39 -0.06
0.42 -0.04
0.45 -0.01
0.45 -0.01
0.40 -0.01
0.43 -0.01
0.45 -0.02
0.45 -0.02
0.45 -0.02
0.45 -0.03
0.44 -0.04
0.44 -0.04
0.43 -0.04
0.42 -0.04
0.42 -0.04
0.42 -0.04
0.42 -0.03
0.43 -0.02
0.45 -0.01
0.47 -0.00
0.51 -0.00
0.55 -0.03
0.57 -0.04
0.57 -0.04
0.57 -0.03
0.58 -0.03
0.59 -0.02
0.60 -0.01
0.61 0.01
0.61 0.02
0.62 0.03
0.63 0.04
0.64 0.05
0.65 0.06
0.65 0.07
0.65 0.07
0.65 0.07
0.65 0.07
0.65 0.07
0.65 0.06
0.65 0.06
0.65 0.05
0.65 0.05
0.65 0.05
0.65 0.04
0.64 0.04
0.64 0.04
0.65 0.04
0.67 0.04
0.71 0.02
0.76 0.01
0.78 0.00
0.79 0.00
0.78 0.00
0.79 0.00
0.79 0.01
0.80 0.01
0.81 0.02
0.82 0.03
0.83 0.04
0.83 0.05
0.84 0.05
0.84 0.06
0.83 0.07
0.85 0.10
0.87 0.15
0.87 0.19
0.88 0.20
0.88 0.20
0.88 0.19
0.88 0.19
0.88 0.18
0.88 0.18
0.88 0.17
0.88 0.17
0.89 0.17
0.89 0.16
0.89 0.16
0.89 0.16
0.90 0.15
0.93 0.13
0.97 0.10
1.01 0.07
1.04 0.08
1.05 0.11
1.03 0.10
1.03 0.10
1.03 0.10
1.03 0.10
1.04 0.11
1.05 0.12
1.05 0.13
1.06 0.13
