2.15 -6.90
-0.01 0.03
-0.01 0.05
-0.02 0.07
-0.01 0.08
-0.02 0.09
-0.02 0.08
-0.02 0.08
-0.03 0.08
-0.03 0.08
-0.03 0.07
-0.04 0.06
-0.04 0.05
-0.05 0.05
-0.05 0.05
-0.04 0.05
-0.04 0.06
-0.02 0.07
-0.00 0.10
0.02 0.12
0.05 0.16
0.07 0.21
0.07 0.25
0.05 0.26
0.05 0.27
0.04 0.28
0.02 0.29
0.00 0.29
-0.02 0.30
-0.05 0.31
-0.07 0.31
-0.07 0.31
-0.06 0.31
-0.06 0.31
-0.06 0.31
-0.07 0.31
-0.07 0.31
-0.08 0.30
-0.09 0.30
-0.09 0.30
-0.10 0.30
-0.10 0.30
-0.11 0.30
-0.12 0.31
-0.13 0.32
-0.13 0.34
-0.12 0.36
-0.11 0.36
-0.09 0.37
-0.07 0.38
-0.03 0.39
0.02 0.40
0.05 0.41
0.05 0.43
0.03 0.44
0.00 0.44
-0.02 0.45
-0.03 0.46
-0.05 0.48
-0.08 0.50
-0.11 0.53
-0.13 0.54
-0.12 0.54
-0.12 0.54
-0.12 0.54
-0.13 0.54
-0.13 0.53
-0.14 0.53
-0.14 0.52
-0.15 0.52
-0.15 0.52
-0.16 0.52
-0.16 0.53
-0.17 0.53
-0.19 0.54
-0.20 0.56
-0.20 0.58
-0.19 0.59
-0.18 0.60
-0.16 0.61
-0.14 0.62
-0.11 0.63
-0.07 0.65
-0.04 0.65
-0.03 0.65
-0.04 0.67
-0.05 0.67
-0.07 0.66
-0.08 0.65
-0.08 0.65
-0.08 0.66
-0.08 0.67
-0.09 0.68
-0.10 0.69
-0.12 0.69
-0.16 0.68
-0.18 0.66
-0.19 0.63
-0.19 0.62
-0.19 0.63
-0.19 0.64
-0.20 0.65
-0.20 0.65
-0.21 0.66
-0.22 0.67
-0.23 0.68
-0.25 0.70
-0.26 0.72
-0.26 0.74
-0.25 0.75
-0.24 0.76
-0.23 0.76
-0.22 0.77
-0.21 0.77
-0.20 0.78
-0.19 0.78
-0.18 0.79
-0.17 0.79
-0.17 0.79
-0.16 0.79
-0.16 0.79
-0.17 0.78
-0.18 0.78
-0.18 0.78
-0.18 0.79
-0.18 0.80
-0.18 0.81
-0.18 0.81
-0.19 0.81
-0.23 0.78
ERROR
ERROR
-0.28 0.72
-0.28 0.72
-0.28 0.73
-0.29 0.74
-0.29 0.75
-0.29 0.76
-0.30 0.76
-0.30 0.77
-0.29 0.77
-0.29 0.77
-0.28 0.78
-0.27 0.79
-0.30 0.83
-0.30 0.86
-0.31 0.89
-0.34 0.90
-0.38 0.92
-0.38 0.92
