0.53 -5.71
-0.02 -0.99
-0.02 -0.96
-0.02 -0.94
-0.02 -0.93
-0.02 -0.92
-0.03 -0.91
-0.04 -0.90
-0.04 -0.89
-0.04 -0.88
-0.05 -0.87
-0.05 -0.85
-0.05 -0.85
-0.05 -0.85
-0.05 -0.85
-0.06 -0.86
-0.06 -0.86
-0.06 -0.86
-0.06 -0.86
-0.06 -0.86
-0.06 -0.86
-0.06 -0.86
-0.06 -0.86
-0.06 -0.85
-0.06 -0.84
-0.07 -0.83
-0.07 -0.81
-0.07 -0.79
-0.08 -0.77
-0.08 -0.73
-0.07 -0.67
-0.05 -0.61
-0.04 -0.60
-0.04 -0.60
-0.04 -0.60
-0.04 -0.60
-0.04 -0.59
-0.04 -0.59
-0.04 -0.58
-0.03 -0.57
-0.03 -0.54
-0.05 -0.51
-0.06 -0.51
-0.04 -0.51
-0.03 -0.51
-0.04 -0.51
-0.05 -0.51
-0.06 -0.52
-0.08 -0.54
-0.08 -0.54
-0.09 -0.54
-0.09 -0.54
-0.09 -0.54
-0.09 -0.54
-0.09 -0.54
-0.09 -0.53
-0.10 -0.52
-0.11 -0.51
-0.11 -0.50
-0.12 -0.48
-0.13 -0.45
-0.15 -0.41
-0.16 -0.36
-0.15 -0.30
-0.13 -0.27
-0.13 -0.27
-0.12 -0.27
-0.12 -0.27
-0.12 -0.27
-0.12 -0.26
-0.11 -0.24
-0.12 -0.22
-0.14 -0.19
-0.16 -0.18
-0.16 -0.18
-0.13 -0.17
-0.13 -0.17
-0.13 -0.17
-0.13 -0.17
-0.14 -0.17
-0.15 -0.20
-0.15 -0.22
-0.15 -0.23
-0.15 -0.23
-0.15 -0.23
-0.15 -0.23
-0.16 -0.23
-0.17 -0.22
-0.18 -0.21
-0.18 -0.21
-0.19 -0.20
-0.19 -0.20
-0.20 -0.19
-0.21 -0.18
-0.23 -0.16
-0.26 -0.13
-0.29 -0.08
-0.30 -0.04
-0.31 -0.02
-0.31 -0.02
-0.30 -0.02
-0.31 -0.01
-0.31 0.00
-0.33 0.01
-0.36 0.03
-0.37 0.03
-0.35 0.04
-0.35 0.05
-0.35 0.07
-0.36 0.09
-0.37 0.11
-0.36 0.10
-0.35 0.09
-0.33 0.07
-0.33 0.05
-0.32 0.04
-0.32 0.03
-0.33 0.03
-0.34 0.03
-0.34 0.04
-0.35 0.04
-0.36 0.05
-0.37 0.05
-0.39 0.07
-0.41 0.09
-0.44 0.12
-0.48 0.16
-0.49 0.20
-0.48 0.25
-0.48 0.28
-0.49 0.28
-0.49 0.28
-0.50 0.27
-0.50 0.25
-0.51 0.25
-0.51 0.24
-0.51 0.24
-0.51 0.24
-0.51 0.23
-0.51 0.23
-0.52 0.23
-0.52 0.23
-0.52 0.23
-0.52 0.24
-0.52 0.24
-0.52 0.24
-0.53 0.24
-0.53 0.24
-0.53 0.24
-0.54 0.24
-0.55 0.24
