1.13 -4.52
-0.04 -0.04
-0.04 -0.05
-0.03 -0.07
-0.02 -0.07
-0.02 -0.07
-0.02 -0.05
-0.02 -0.04
-0.02 -0.02
-0.03 0.00
-0.03 0.03
-0.03 0.05
-0.04 0.07
-0.05 0.09
-0.06 0.11
-0.07 0.13
-0.08 0.14
-0.08 0.15
-0.09 0.15
-0.11 0.15
-0.14 0.14
-0.16 0.14
-0.16 0.14
-0.17 0.13
-0.18 0.12
-0.18 0.11
-0.19 0.10
-0.19 0.10
-0.19 0.09
-0.20 0.09
-0.20 0.09
-0.20 0.09
-0.20 0.09
-0.20 0.09
-0.19 0.09
-0.18 0.11
-0.16 0.13
-0.15 0.16
-0.15 0.16
-0.14 0.17
-0.14 0.17
-0.15 0.17
-0.15 0.18
-0.15 0.18
-0.15 0.18
-0.15 0.18
-0.15 0.19
-0.16 0.20
-0.17 0.21
-0.17 0.22
-0.18 0.21
-0.19 0.20
-0.20 0.19
-0.22 0.18
-0.22 0.16
-0.22 0.16
-0.23 0.16
-0.24 0.15
-0.25 0.14
-0.25 0.14
-0.25 0.14
-0.26 0.13
-0.26 0.13
-0.25 0.13
-0.25 0.13
-0.25 0.13
-0.23 0.15
-0.22 0.17
-0.21 0.19
-0.21 0.20
-0.22 0.21
-0.22 0.22
-0.23 0.24
-0.24 0.26
-0.25 0.29
-0.27 0.33
-0.29 0.35
-0.31 0.36
-0.33 0.36
-0.34 0.36
-0.36 0.37
-0.37 0.38
-0.39 0.38
-0.39 0.37
-0.40 0.36
-0.39 0.36
-0.39 0.37
-0.39 0.36
-0.40 0.36
-0.40 0.35
-0.41 0.35
-0.41 0.34
-0.41 0.34
-0.42 0.33
-0.43 0.32
-0.43 0.32
-0.43 0.32
-0.42 0.33
-0.41 0.34
-0.41 0.34
-0.40 0.34
-0.40 0.35
-0.39 0.35
-0.39 0.36
-0.39 0.37
-0.40 0.39
-0.40 0.40
-0.41 0.41
-0.40 0.42
-0.40 0.45
-0.39 0.47
-0.39 0.50
-0.40 0.52
-0.42 0.55
-0.47 0.57
-0.53 0.60
-0.57 0.61
-0.57 0.63
-0.57 0.63
-0.56 0.63
-0.55 0.63
-0.53 0.62
-0.51 0.61
-0.47 0.59
-0.44 0.59
-0.44 0.58
-0.43 0.56
-0.43 0.53
-0.44 0.51
-0.44 0.49
-0.44 0.49
-0.44 0.49
-0.44 0.50
-0.45 0.50
-0.44 0.50
-0.45 0.51
-0.44 0.52
-0.44 0.53
-0.44 0.54
-0.44 0.56
-0.45 0.57
-0.45 0.58
-0.46 0.60
-0.48 0.63
-0.51 0.67
-0.56 0.72
-0.59 0.76
-0.62 0.78
-0.62 0.78
-0.61 0.77
