1.13 -4.91
-0.02 -0.03
-0.02 -0.03
-0.01 -0.03
-0.00 -0.04
-0.00 -0.03
-0.00 -0.03
-0.00 -0.03
-0.00 -0.03
-0.01 -0.03
-0.01 -0.03
-0.02 -0.03
-0.02 -0.02
-0.02 -0.00
-0.03 0.02
-0.05 0.05
-0.06 0.06
-0.07 0.07
-0.07 0.09
-0.09 0.10
-0.11 0.10
-0.12 0.10
-0.13 0.10
-0.12 0.10
-0.12 0.10
-0.12 0.10
-0.12 0.10
-0.12 0.10
-0.12 0.10
-0.12 0.10
-0.12 0.10
-0.12 0.10
-0.12 0.10
-0.12 0.10
-0.12 0.10
-0.12 0.10
-0.13 0.11
-0.13 0.11
-0.15 0.11
-0.15 0.11
-0.16 0.12
-0.16 0.13
-0.17 0.14
-0.17 0.14
-0.16 0.15
-0.15 0.17
-0.14 0.19
-0.14 0.22
-0.15 0.25
-0.18 0.28
-0.20 0.28
-0.22 0.28
-0.24 0.28
-0.26 0.29
-0.26 0.31
-0.25 0.31
-0.24 0.31
-0.25 0.31
-0.25 0.31
-0.26 0.31
-0.26 0.31
-0.26 0.31
-0.26 0.31
-0.25 0.31
-0.25 0.31
-0.25 0.31
-0.25 0.31
-0.25 0.31
-0.26 0.32
-0.28 0.33
-0.29 0.35
-0.31 0.37
-0.32 0.38
-0.33 0.40
-0.34 0.42
-0.34 0.44
-0.34 0.47
-0.34 0.49
-0.34 0.51
-0.33 0.53
-0.34 0.55
-0.35 0.56
-0.37 0.56
-0.38 0.55
-0.39 0.54
-0.40 0.54
-0.40 0.54
-0.40 0.56
-0.40 0.56
-0.41 0.56
-0.41 0.56
-0.41 0.56
-0.42 0.56
-0.41 0.56
-0.41 0.56
-0.41 0.56
-0.41 0.56
-0.41 0.56
-0.41 0.56
-0.42 0.57
-0.43 0.58
-0.45 0.60
-0.47 0.62
-0.49 0.64
-0.50 0.66
-0.51 0.67
-0.52 0.69
-0.51 0.70
-0.51 0.73
-0.50 0.76
-0.50 0.79
-0.51 0.81
-0.52 0.81
-0.53 0.82
-0.54 0.82
-0.55 0.81
-0.56 0.81
-0.56 0.82
-0.55 0.82
-0.56 0.83
-0.57 0.83
-0.58 0.83
-0.58 0.83
-0.58 0.83
-0.58 0.83
-0.57 0.83
-0.57 0.83
-0.57 0.83
-0.57 0.83
-0.58 0.84
-0.58 0.84
-0.59 0.85
-0.61 0.86
-0.62 0.88
-0.64 0.90
-0.66 0.92
-0.67 0.94
-0.68 0.96
-0.68 0.97
-0.67 0.99
-0.67 1.02
-0.67 1.05
-0.68 1.07
-0.69 1.08
-0.70 1.10
-0.72 1.10
-0.72 1.09
-0.71 1.10
-0.71 1.10
-0.70 1.10
-0.71 1.10
