3.45 3.09

0.62 -0.08
0.59 -0.11
0.56 -0.06
0.44 -0.01
0.42 -0.05
0.39 -0.05
0.20 -0.03
0.22 -0.01
0.18 0.02
0.14 0.06
-0.00 0.01
-0.02 0.02
-0.08 -0.00
-0.10 -0.01
-0.14 -0.01
-0.21 0.09
-0.27 -0.01
-0.33 0.05
-0.38 0.01
-0.40 -0.07
-0.43 -0.08
-0.52 -0.03
-0.53 -0.01
-0.62 -0.06
-0.72 0.01
-0.83 0.03
-0.83 -0.04
-0.84 -0.07
-0.73 -0.13
-0.77 -0.09
