
-0.92 -0.12
-0.97 -0.18
-0.95 -0.16
-0.82 -0.13
-0.76 -0.07
-0.72 -0.12
-0.58 -0.20
-0.47 -0.29
-0.48 -0.30
-0.41 -0.25
-0.36 -0.14
-0.38 -0.18
-0.31 -0.19
-0.07 -0.33
-0.11 -0.40
-0.08 -0.39
0.08 -0.33
0.12 -0.30
0.11 -0.29
0.21 -0.45
0.28 -0.59
0.21 -0.58
0.29 -0.67
0.45 -0.57
0.43 -0.49
0.40 -0.60
0.37 -0.81
0.26 -0.87
0.23 -0.88
0.45 -0.88

