
-1.21 0.93
-1.26 0.88
-1.28 0.89
-1.19 0.84
-1.12 0.64
-1.11 0.59
-1.04 0.59
-0.87 0.49
-0.98 0.44
-0.98 0.39
-0.82 0.29
-0.75 0.20
-0.73 0.21
-0.54 0.22
-0.57 0.10
-0.56 0.09
-0.45 0.07
-0.29 -0.04
-0.25 -0.04
-0.20 0.01
-0.04 -0.07
-0.03 -0.09
0.06 -0.06
0.27 -0.12
0.30 -0.13
0.32 -0.09
0.42 -0.03
0.55 -0.12
0.60 -0.09
0.81 -0.12

