
-0.90 -0.06
-0.91 -0.05
-0.94 -0.03
-0.93 0.03
-0.85 -0.00
-0.82 0.04
-0.77 0.02
-0.74 -0.09
-0.72 -0.14
-0.74 -0.13
-0.76 -0.14
-0.69 -0.17
-0.51 -0.14
-0.53 -0.14
-0.57 -0.19
-0.46 -0.20
-0.45 -0.21
-0.36 -0.28
-0.37 -0.37
-0.42 -0.46
-0.38 -0.43
-0.36 -0.43
-0.36 -0.40
-0.32 -0.44
-0.21 -0.43
-0.17 -0.42
-0.21 -0.45
-0.23 -0.47
-0.27 -0.59
-0.24 -0.62

