
0.84 -0.31
0.77 -0.25
0.79 -0.26
0.77 -0.18
0.71 -0.16
0.65 -0.15
0.56 -0.11
0.44 -0.12
0.32 -0.15
0.38 -0.10
0.35 -0.07
0.29 -0.07
0.23 -0.02
0.07 0.05
-0.08 0.12
-0.05 0.16
-0.01 0.16
-0.12 0.22
-0.15 0.25
-0.33 0.40
-0.49 0.43
-0.48 0.46
-0.43 0.45
-0.46 0.53
-0.46 0.50
-0.56 0.74
-0.70 0.84
-0.71 0.83
-0.65 0.81
-0.64 0.86

