0 - 2.475 - 0.7741931283601013
1 - 3.175 - 1.046123797645384
2 - 3.175 - 1.046123797645384
3 - 3.175 - 1.046123797645384
4 - 3.175 - 1.046123797645384
5 - 3.15 - 1.0136567466356647
6 - 3.025 - 1.083685840084662
7 - 3.775 - 1.3506942659240095
8 - 4.475 - 1.6880091824394798
9 - 4.475 - 1.6880091824394798
10 - 4.475 - 1.6880091824394798
11 - 4.475 - 1.6880091824394798
12 - 4.4 - 1.6401219466856727
13 - 4.175 - 1.8693247443930123
14 - 4.875 - 2.2043990110685496
15 - 5.525 - 2.597955927262816
16 - 5.525 - 2.597955927262816
17 - 5.525 - 2.597955927262816
18 - 5.525 - 2.597955927262816
19 - 5.45 - 2.5293279739883476
20 - 5.65 - 2.7345017827750633
21 - 6.275 - 3.065840015395454
22 - 6.875 - 3.4654545156443763
23 - 6.875 - 3.4654545156443763
24 - 6.875 - 3.4654545156443763
25 - 6.875 - 3.4654545156443763
26 - 6.6 - 3.315116890850155
27 - 6.55 - 3.47095087836172
28 - 7.2 - 3.782856063875547
29 - 7.85 - 4.126439142893059
30 - 7.85 - 4.126439142893059
31 - 7.85 - 4.126439142893059
32 - 7.85 - 4.126439142893059
33 - 7.425 - 3.9235666172501773
34 - 7.0 - 3.847076812334269
35 - 7.675 - 4.215373648918919
36 - 8.35 - 4.601901780785853
37 - 8.35 - 4.601901780785853
38 - 8.35 - 4.601901780785853
39 - 8.35 - 4.601901780785853
40 - 7.95 - 4.421255477802657
41 - 7.525 - 4.48880552040295
42 - 8.25 - 4.799739576268696
43 - 8.95 - 5.093868863643822
44 - 8.95 - 5.093868863643822
45 - 8.95 - 5.093868863643822
46 - 8.95 - 5.093868863643822
47 - 8.375 - 4.7312128466176615
48 - 8.025 - 4.777486263716516
49 - 8.7 - 5.030904491242106
50 - 9.325 - 5.307482925078516
51 - 9.325 - 5.307482925078516
52 - 9.325 - 5.307482925078516
53 - 9.325 - 5.307482925078516
54 - 8.8 - 5.015974481593782
55 - 8.55 - 5.103675146401856
56 - 9.15 - 5.265690837867335
57 - 9.675 - 5.524434360185665
58 - 9.675 - 5.524434360185665
59 - 9.675 - 5.524434360185665
60 - 9.675 - 5.524434360185665
61 - 9.1 - 5.314132102234568
62 - 9.0 - 5.10881590977792
63 - 9.575 - 5.229184926926949
64 - 10.1 - 5.360970061472083
65 - 10.1 - 5.360970061472083
66 - 10.1 - 5.360970061472083
67 - 10.1 - 5.360970061472083
68 - 9.6 - 5.048762224545735
69 - 9.15 - 5.217997700267795
70 - 9.775 - 5.3079539372530355
71 - 10.275 - 5.3618443655145365
72 - 10.275 - 5.3618443655145365
73 - 10.275 - 5.3618443655145365
74 - 10.275 - 5.3618443655145365
75 - 9.8 - 5.2115256883181535
76 - 9.825 - 5.233963603236079
77 - 10.35 - 5.308248298638638
78 - 10.75 - 5.346727971385864
79 - 10.75 - 5.346727971385864
80 - 10.75 - 5.346727971385864
81 - 10.75 - 5.346727971385864
82 - 10.25 - 5.223743868146676
83 - 9.975 - 5.336138585156873
84 - 10.575 - 5.328637255434076
85 - 11.05 - 5.305421755148219
86 - 11.05 - 5.305421755148219
87 - 11.05 - 5.305421755148219
88 - 11.05 - 5.305421755148219
89 - 10.55 - 5.1524266127718885
90 - 10.225 - 5.456590052404524
91 - 10.775 - 5.479450246146961
92 - 11.175 - 5.403181932898429
93 - 11.175 - 5.403181932898429
94 - 11.175 - 5.403181932898429
95 - 11.175 - 5.403181932898429
96 - 10.8 - 5.230678732248808
97 - 10.775 - 5.293805342095609
