0 - 2.0 - 0.0
1 - 2.9875 - 0.11110243021644478
2 - 2.9875 - 0.11110243021644478
3 - 2.9875 - 0.11110243021644478
4 - 2.9875 - 0.11110243021644478
5 - 2.7625 - 0.530182751511212
6 - 3.0875 - 0.6362733296312207
7 - 4.025 - 0.5695392874947255
8 - 4.9875 - 0.5808130077744472
9 - 4.9875 - 0.5808130077744472
10 - 4.9875 - 0.5808130077744472
11 - 4.9875 - 0.5808130077744472
12 - 4.4625 - 0.9610378504512707
13 - 4.8375 - 1.4615381452428806
14 - 5.8125 - 1.4499461196885903
15 - 6.75 - 1.346291201783626
16 - 6.75 - 1.346291201783626
17 - 6.75 - 1.346291201783626
18 - 6.75 - 1.346291201783626
19 - 5.8625 - 1.5471243485899893
20 - 6.375 - 1.8532066803246745
21 - 7.3125 - 1.813792642503547
22 - 8.2625 - 1.807925261176468
23 - 8.2625 - 1.807925261176468
24 - 8.2625 - 1.807925261176468
25 - 8.2625 - 1.807925261176468
26 - 7.35 - 2.1914607000811133
27 - 7.6375 - 2.0690804116805124
28 - 8.575 - 2.0048378986840807
29 - 9.5 - 1.9493588689617927
30 - 9.5 - 1.9493588689617927
31 - 9.5 - 1.9493588689617927
32 - 9.5 - 1.9493588689617927
33 - 8.5125 - 2.23603303866468
34 - 8.2125 - 2.840306981648286
35 - 9.1625 - 2.8082189640410875
36 - 10.1125 - 2.7838541179451206
37 - 10.1125 - 2.7838541179451206
38 - 10.1125 - 2.7838541179451206
39 - 10.1125 - 2.7838541179451206
40 - 9.1125 - 2.8852805322879798
41 - 9.3125 - 2.6485550305779944
42 - 10.225 - 2.602762955015304
43 - 11.125 - 2.5316743471465677
44 - 11.125 - 2.5316743471465677
45 - 11.125 - 2.5316743471465677
46 - 11.125 - 2.5316743471465677
47 - 10.05 - 2.787920371890129
48 - 9.6125 - 3.1483874840940405
49 - 10.5625 - 3.089675347022726
50 - 11.425 - 2.9570889401571945
51 - 11.425 - 2.9570889401571945
52 - 11.425 - 2.9570889401571945
53 - 11.425 - 2.9570889401571945
54 - 10.4125 - 3.036007863955559
55 - 10.1125 - 3.0943244416188813
56 - 11.025 - 3.0289230759463
57 - 11.875 - 2.9511650241895997
58 - 11.875 - 2.9511650241895997
59 - 11.875 - 2.9511650241895997
60 - 11.875 - 2.9511650241895997
61 - 10.9125 - 3.3135847280551007
62 - 10.3375 - 3.467505407349785
63 - 11.2375 - 3.3957464201556617
64 - 12.0625 - 3.2762163771643658
65 - 12.0625 - 3.2762163771643658
66 - 12.0625 - 3.2762163771643658
67 - 12.0625 - 3.2762163771643658
68 - 11.0625 - 3.5893723337096137
69 - 10.775 - 3.70801496760733
70 - 11.675 - 3.646145224754494
71 - 12.4875 - 3.499977678500251
72 - 12.4875 - 3.499977678500251
73 - 12.4875 - 3.499977678500251
74 - 12.4875 - 3.499977678500251
75 - 11.6375 - 3.55402500694635
76 - 10.8625 - 3.894687888650385
77 - 11.75 - 3.8095275297600883
78 - 12.525 - 3.636533376720196
79 - 12.525 - 3.636533376720196
