0 - 2.0 - 0.0
1 - 2.9875 - 0.11110243021644481
2 - 2.9875 - 0.11110243021644481
3 - 2.9875 - 0.11110243021644481
4 - 2.9875 - 0.11110243021644481
5 - 2.6875 - 0.582961190818051
6 - 3.05 - 0.7399324293474372
7 - 4.0125 - 0.6799586384479579
8 - 4.9875 - 0.6799586384479578
9 - 4.9875 - 0.6799586384479578
10 - 4.9875 - 0.6799586384479578
11 - 4.9875 - 0.6799586384479578
12 - 4.55 - 1.0111874208078344
13 - 4.85 - 1.2951833846988612
14 - 5.7875 - 1.24191132936293
15 - 6.6875 - 1.1134827120346322
16 - 6.6875 - 1.1134827120346322
17 - 6.6875 - 1.1134827120346322
18 - 6.6875 - 1.1134827120346322
19 - 6.125 - 1.3264143394882308
20 - 6.1375 - 1.6714047235783434
21 - 7.1 - 1.7
22 - 8.025 - 1.6731332881752135
23 - 8.025 - 1.6731332881752135
24 - 8.025 - 1.6731332881752135
25 - 8.025 - 1.6731332881752135
26 - 7.1375 - 2.1374268993348045
27 - 7.2375 - 2.0630302348729646
28 - 8.175 - 2.1081686365184353
29 - 9.1 - 2.1771541057077246
30 - 9.1 - 2.1771541057077246
31 - 9.1 - 2.1771541057077246
32 - 9.1 - 2.1771541057077246
33 - 8.3875 - 2.3637562797378244
34 - 8.0125 - 2.7771106837862978
35 - 8.9125 - 2.7802596551401453
36 - 9.8125 - 2.8022033741325774
37 - 9.8125 - 2.8022033741325774
38 - 9.8125 - 2.8022033741325774
39 - 9.8125 - 2.8022033741325774
40 - 9.1375 - 2.8405270197623538
41 - 8.5625 - 2.8932842497756766
42 - 9.475 - 2.9196532328343374
43 - 10.3375 - 2.9535730480216666
44 - 10.3375 - 2.9535730480216666
45 - 10.3375 - 2.9535730480216666
46 - 10.3375 - 2.9535730480216666
47 - 9.1625 - 3.160078124034278
48 - 8.625 - 3.515590277606308
49 - 9.5625 - 3.51014155697459
50 - 10.4625 - 3.5282564745210903
51 - 10.4625 - 3.5282564745210903
52 - 10.4625 - 3.5282564745210903
53 - 10.4625 - 3.5282564745210903
54 - 9.6 - 3.5867812868921907
55 - 9.325 - 3.7873968632822206
56 - 10.275 - 3.7781443858063435
57 - 11.1625 - 3.7796949281654997
58 - 11.1625 - 3.7796949281654997
59 - 11.1625 - 3.7796949281654997
60 - 11.1625 - 3.7796949281654997
61 - 10.375 - 3.75624480032918
62 - 9.7375 - 4.03962792222254
63 - 10.6375 - 3.9976360201999386
64 - 11.5 - 3.856812155135378
65 - 11.5 - 3.856812155135378
66 - 11.5 - 3.856812155135378
67 - 11.5 - 3.856812155135378
68 - 10.65 - 3.7818646194701357
69 - 10.5625 - 3.687288129506562
70 - 11.4 - 3.5658098659350865
71 - 12.1875 - 3.373031833528999
72 - 12.1875 - 3.373031833528999
73 - 12.1875 - 3.373031833528999
74 - 12.1875 - 3.373031833528999
75 - 11.1375 - 3.499084701747016
76 - 10.8 - 3.982461550347976
77 - 11.625 - 3.822221212855164
78 - 12.3875 - 3.603795741992046
79 - 12.3875 - 3.603795741992046
80 - 12.3875 - 3.603795741992046
81 - 12.3875 - 3.603795741992046
