0 - 0.01976142730563879 - -0.0029225720583212927
1 - 0.2803739992280801 - -0.009015640703910328
2 - 0.2803739992280801 - -0.0012511224823053156
3 - 0.2803739992280801 - 0.001876380998570918
4 - 0.2803739992280801 - 0.0065807286803268045
5 - 0.2803739992280801 - 0.008089600799932364
6 - 0.2803739992280801 - 0.01151897407761832
7 - 0.2803739992280801 - 0.004626681113829058
8 - 0.2803739992280801 - 0.00831936185585012
9 - 0.2803739992280801 - 0.014193643044200144
10 - 0.2803739992280801 - 0.019448792368378535
11 - 0.2803739992280801 - 0.025627436628565186
12 - 0.2803739992280801 - 0.032607703520746635
13 - 0.29918802560617525 - 0.03637898013839731
14 - 0.29918802560617525 - 0.0238910027748337
15 - 0.913979050392906 - 0.02606954087338333
16 - 0.913979050392906 - 0.034008023505703026
17 - 0.913979050392906 - 0.044774382890197244
18 - 1.0130118882904449 - 0.05602892253888664
19 - 1.0746876408656438 - 0.0821377138252258
20 - 1.0911976478993892 - 0.1039900399172499
21 - 1.0911976478993892 - 0.08362438011465201
22 - 1.0911976478993892 - 0.06889498111849511
23 - 1.0911976478993892 - 0.08826283370978368
24 - 1.0911976478993892 - 0.10363040842621556
25 - 1.0911976478993892 - 0.1163750900919088
26 - 1.0911976478993892 - 0.13038517116686307
27 - 1.0911976478993892 - 0.15604398139542358
28 - 1.0911976478993892 - 0.11265592977037157
29 - 1.0911976478993892 - 0.09591482053988633
30 - 1.0911976478993892 - 0.10994480498367923
31 - 1.0911976478993892 - 0.12000519534393486
32 - 1.0911976478993892 - 0.13647990933858337
33 - 1.0911976478993892 - 0.17614748161373425
34 - 1.0911976478993892 - 0.20749087259696056
35 - 1.0911976478993892 - 0.14226269348879822
36 - 1.0911976478993892 - 0.13157510766211394
37 - 1.0911976478993892 - 0.14972975223499813
38 - 1.0911976478993892 - 0.1607830579819468
39 - 1.0911976478993892 - 0.1850924400700993
40 - 1.0911976478993892 - 0.24370359224201818
41 - 1.0911976478993892 - 0.27902139838291384
42 - 1.0911976478993892 - 0.21535326960731865
43 - 1.0911976478993892 - 0.1614498822108726
44 - 1.0911976478993892 - 0.1843584685846387
45 - 1.0911976478993892 - 0.19537436697578714
46 - 1.0911976478993892 - 0.23504797478153097
47 - 1.0911976478993892 - 0.33677706025223114
48 - 1.2049721037348111 - 0.3934675515347589
49 - 1.2049721037348111 - 0.2702001371104962
50 - 1.2049721037348111 - 0.2589515288940008
51 - 1.2049721037348111 - 0.2653060332117639
52 - 1.2049721037348111 - 0.278976080748101
53 - 1.2049721037348111 - 0.30334878612488547
54 - 1.2049721037348111 - 0.3977483642504619
55 - 1.2049721037348111 - 0.451046299839527
56 - 1.2049721037348111 - 0.3488846587445004
57 - 1.2049721037348111 - 0.26128574367830876
58 - 1.2049721037348111 - 0.28244375336861893
59 - 1.2049721037348111 - 0.29077752145642694
60 - 1.2049721037348111 - 0.30472116254125164
61 - 1.2049721037348111 - 0.4219785213576749
62 - 1.2049721037348111 - 0.4902028434876473
63 - 1.2049721037348111 - 0.3630569004529812
64 - 1.2049721037348111 - 0.29426665391734186
65 - 1.2049721037348111 - 0.3235564954423657
66 - 1.2049721037348111 - 0.3337897624146232
67 - 1.2049721037348111 - 0.3554462399717159
68 - 1.2049721037348111 - 0.4674207932008236
69 - 1.2049721037348111 - 0.5368877779964045
70 - 1.2049721037348111 - 0.3330785302119937
71 - 1.2049721037348111 - 0.2934817304550476
72 - 1.2049721037348111 - 0.3299299103001249
73 - 1.2049721037348111 - 0.3334925089261379
74 - 1.2049721037348111 - 0.3568332565942547
75 - 1.2049721037348111 - 0.4891083744082425
76 - 1.2563393805758096 - 0.549096164249046
77 - 1.3329671296601493 - 0.30914507645873524
78 - 1.3329671296601493 - 0.2598555622555675
79 - 1.3685579406718413 - 0.2774298549246548
80 - 1.3685579406718413 - 0.29721299377854543
81 - 1.3685579406718413 - 0.3307698190107233
