0 - 0.1418835355175866 - 0.005459472753646112
1 - 1.1311200278086795 - 0.06936708474164742
2 - 1.2176773134618997 - 0.11642726799674467
3 - 1.2176773134618997 - 0.12915434278369095
4 - 1.2802732709381317 - 0.15321959808837166
5 - 1.2802732709381317 - 0.15328874379044904
6 - 1.2802732709381317 - 0.17953803611344482
7 - 1.2802732709381317 - 0.18271308439709374
8 - 1.2802732709381317 - 0.1136444016032652
9 - 1.2802732709381317 - 0.1691987632478736
10 - 1.2802732709381317 - 0.21043817776538262
11 - 1.2802732709381317 - 0.2777902511221571
12 - 1.3093283666297793 - 0.3427129077068175
13 - 1.3093283666297793 - 0.34379041006273636
14 - 1.3093283666297793 - 0.24557585762516992
15 - 1.3093283666297793 - 0.1717212908977348
16 - 1.3093283666297793 - 0.20040391255413445
17 - 1.3093283666297793 - 0.24315937853198394
18 - 1.3093283666297793 - 0.27970780805066986
19 - 1.3093283666297793 - 0.4049923513423872
20 - 1.3093283666297793 - 0.4415341862372267
21 - 2.0952615804142423 - 0.346122822685995
22 - 2.0952615804142423 - 0.2884361529183742
23 - 2.0952615804142423 - 0.3498897651725241
24 - 2.0952615804142423 - 0.37544217455666506
25 - 2.0952615804142423 - 0.48173058283321246
26 - 2.0952615804142423 - 0.548607378198196
27 - 2.0952615804142423 - 0.564990276746814
28 - 2.0952615804142423 - 0.3470002085636952
29 - 2.0952615804142423 - 0.35098833134242635
30 - 2.0952615804142423 - 0.40583566044379654
31 - 2.0952615804142423 - 0.4245901167291838
32 - 2.0952615804142423 - 0.455691134923707
33 - 2.0952615804142423 - 0.5565083708121287
34 - 2.0952615804142423 - 0.6046082910146408
35 - 2.0952615804142423 - 0.42738943175024663
36 - 2.0952615804142423 - 0.36058776666183906
37 - 2.0952615804142423 - 0.3900612404008603
38 - 2.0952615804142423 - 0.4269343000021763
39 - 2.0952615804142423 - 0.5406118388528315
40 - 2.0952615804142423 - 0.6669748560366779
41 - 2.0952615804142423 - 0.7188003919745745
42 - 2.0952615804142423 - 0.4277482405447194
43 - 2.0952615804142423 - 0.3413154586505456
44 - 2.0952615804142423 - 0.4282432820172592
45 - 2.0952615804142423 - 0.46035596769309545
46 - 2.0952615804142423 - 0.4942484559768734
47 - 2.0952615804142423 - 0.613334300709345
48 - 2.0952615804142423 - 0.6316926949915839
49 - 2.0952615804142423 - 0.4671956434512201
50 - 2.0952615804142423 - 0.4358308167024775
51 - 2.0952615804142423 - 0.4587113473392351
52 - 2.0952615804142423 - 0.5173316091989364
53 - 2.0952615804142423 - 0.5517161720957081
54 - 2.0952615804142423 - 0.674467545673021
55 - 2.0952615804142423 - 0.6824241227539541
56 - 2.0952615804142423 - 0.5144168217619882
57 - 2.0952615804142423 - 0.5295423359545464
58 - 2.0952615804142423 - 0.5473425887924773
59 - 2.0952615804142423 - 0.5690081610847523
60 - 2.0952615804142423 - 0.6375819406503191
61 - 2.0952615804142423 - 0.7454638928372879
62 - 2.0952615804142423 - 0.7853592996816305
63 - 2.0952615804142423 - 0.5759900146184695
64 - 2.0952615804142423 - 0.46041507076989463
65 - 2.0952615804142423 - 0.5224209411100794
66 - 2.0952615804142423 - 0.584115121735053
67 - 2.132422752657698 - 0.6078480386397698
68 - 2.146957837210761 - 0.7097204722436923
69 - 2.146957837210761 - 0.7412081405234214
70 - 2.383501001199087 - 0.5305424665394496
71 - 2.383501001199087 - 0.4495508575220528
72 - 2.383501001199087 - 0.513191736293116
73 - 2.383501001199087 - 0.5530482100837011
74 - 2.383501001199087 - 0.602237388544923
75 - 2.432909557554457 - 0.8191547996188617
76 - 2.432909557554457 - 0.8600572204993056
77 - 2.432909557554457 - 0.6210130949711636
78 - 2.432909557554457 - 0.5401931889443142
79 - 2.432909557554457 - 0.5708392553833417
80 - 2.432909557554457 - 0.5925071819462918
81 - 2.432909557554457 - 0.6949281090953285
