0 - 0.7323569918585506 - 0.23385777090913112
1 - 0.7323569918585506 - 0.26618209620120953
2 - 0.7323569918585506 - 0.3278352711465022
3 - 0.7323569918585506 - 0.3552877236100719
4 - 1.1495340561642982 - 0.4991895979465828
5 - 1.1495340561642982 - 0.5338869687464276
6 - 1.1495340561642982 - 0.5315405941673481
7 - 1.3294497825838945 - 0.5231216453528912
8 - 1.3294497825838945 - 0.5233881781692238
9 - 1.3294497825838945 - 0.5727301668300455
10 - 1.3294497825838945 - 0.6188504402204583
11 - 1.3294497825838945 - 0.7209804909244661
12 - 1.798340545996321 - 0.7686369777891973
13 - 1.798340545996321 - 0.7062674492440617
14 - 1.8519473623898477 - 0.6602737406069996
15 - 1.8519473623898477 - 0.676063306739163
16 - 1.8519473623898477 - 0.7396209677782277
17 - 1.8519473623898477 - 0.7548987992136864
18 - 1.8519473623898477 - 0.8285187997699721
19 - 1.8519473623898477 - 0.846076704102859
20 - 1.8519473623898477 - 0.7639764821801824
21 - 1.8519473623898477 - 0.7256007653445307
22 - 1.8519473623898477 - 0.7360126434775065
23 - 1.8519473623898477 - 0.7936402331494862
24 - 1.8519473623898477 - 0.8220217658041268
25 - 2.085825381090637 - 0.8827070136181806
26 - 2.085825381090637 - 0.9042712329530452
27 - 2.085825381090637 - 0.8212895962416956
28 - 2.085825381090637 - 0.7462436452483963
29 - 2.085825381090637 - 0.7638364767023736
30 - 2.085825381090637 - 0.8142320675566197
31 - 2.085825381090637 - 0.8582754561319185
32 - 2.085825381090637 - 0.9067232813481297
33 - 2.085825381090637 - 0.9151720401299313
34 - 2.085825381090637 - 0.8820700263120225
35 - 2.085825381090637 - 0.8762330121159968
36 - 2.085825381090637 - 0.8774483818283952
37 - 2.085825381090637 - 0.8929924606112365
38 - 2.085825381090637 - 0.904812066086525
39 - 2.085825381090637 - 0.9554734350079996
40 - 2.085825381090637 - 0.9676355196781925
41 - 2.085825381090637 - 0.80205013508916
42 - 2.085825381090637 - 0.7988984422398187
43 - 2.085825381090637 - 0.7550548254722942
44 - 2.085825381090637 - 0.819279470062163
45 - 2.085825381090637 - 0.8430141886517571
46 - 2.085825381090637 - 0.9182639206569118
47 - 2.085825381090637 - 0.9589265919836011
