0 - 2.0 - 0.0
1 - 3.0 - 0.0
2 - 3.0 - 0.0
3 - 3.0 - 0.0
4 - 3.0 - 0.0
5 - 2.825 - 0.37996710383926646
6 - 3.025 - 0.6887488656977955
7 - 3.975 - 0.651440711039769
8 - 4.9 - 0.6244997998398397
9 - 4.9 - 0.6244997998398397
10 - 4.9 - 0.6244997998398397
11 - 4.9 - 0.6244997998398397
12 - 4.75 - 0.698212002188447
13 - 4.975 - 0.9871043511199816
14 - 5.9 - 0.8306623862918078
15 - 6.85 - 0.7599342076785334
16 - 6.85 - 0.7599342076785334
17 - 6.85 - 0.7599342076785334
18 - 6.85 - 0.7599342076785334
19 - 6.3 - 0.9273618495495707
20 - 6.4 - 1.5297058540778357
21 - 7.325 - 1.5229494410518032
22 - 8.25 - 1.5288884851420654
23 - 8.25 - 1.5288884851420654
24 - 8.25 - 1.5288884851420654
25 - 8.25 - 1.5288884851420654
26 - 7.25 - 1.4448183276799889
27 - 7.325 - 1.6490527584040482
28 - 8.25 - 1.6545392107774297
29 - 9.2 - 1.6763054614240214
30 - 9.2 - 1.6763054614240214
31 - 9.2 - 1.6763054614240214
32 - 9.2 - 1.6763054614240214
33 - 8.25 - 1.9072231122760652
34 - 7.55 - 2.108909670896314
35 - 8.5 - 2.179449471770337
36 - 9.425 - 2.290060042880972
37 - 9.425 - 2.290060042880972
38 - 9.425 - 2.290060042880972
39 - 9.425 - 2.290060042880972
40 - 8.45 - 2.085065946199304
41 - 7.8 - 2.147091055358389
42 - 8.7 - 2.282542442102666
43 - 9.625 - 2.384192735497699
44 - 9.625 - 2.384192735497699
45 - 9.625 - 2.384192735497699
46 - 9.625 - 2.384192735497699
47 - 8.6 - 2.2671568097509267
48 - 8.075 - 2.473737051507294
49 - 9.0 - 2.5099800796022267
50 - 9.9 - 2.5768197453450252
51 - 9.9 - 2.5768197453450252
52 - 9.9 - 2.5768197453450252
53 - 9.9 - 2.5768197453450252
54 - 8.725 - 2.6361667246211877
55 - 7.9 - 2.939387691339814
56 - 8.875 - 2.9511650241895997
57 - 9.775 - 3.0371656194550862
58 - 9.775 - 3.0371656194550862
59 - 9.775 - 3.0371656194550862
60 - 9.775 - 3.0371656194550862
61 - 8.75 - 2.7363296585024255
62 - 8.0 - 2.6362852652928135
63 - 8.975 - 2.6503537499737653
64 - 9.875 - 2.7403238859667667
65 - 9.875 - 2.7403238859667667
66 - 9.875 - 2.7403238859667667
67 - 9.875 - 2.7403238859667667
68 - 8.95 - 2.7744368798010166
69 - 8.7 - 2.8653097563788803
70 - 9.625 - 2.8079129260003772
71 - 10.55 - 2.8102490992792792
72 - 10.55 - 2.8102490992792792
73 - 10.55 - 2.8102490992792792
74 - 10.55 - 2.8102490992792792
75 - 9.625 - 2.8608346684140975
76 - 8.75 - 3.0062435031114827
77 - 9.625 - 3.005723706530592
78 - 10.525 - 3.024793381373346
79 - 10.525 - 3.024793381373346
80 - 10.525 - 3.024793381373346
81 - 10.525 - 3.024793381373346
82 - 9.525 - 3.130395342444784
