0 - 3.475 - 1.6731332881752126
1 - 4.25 - 1.9072231122760652
2 - 4.25 - 1.9072231122760652
3 - 4.25 - 1.9072231122760652
4 - 4.25 - 1.9072231122760652
5 - 4.05 - 1.7022044530549203
6 - 3.95 - 1.7313289693180784
7 - 4.75 - 1.9332614929181204
8 - 5.55 - 2.1903196113809504
9 - 5.55 - 2.1903196113809504
10 - 5.55 - 2.1903196113809504
11 - 5.55 - 2.1903196113809504
12 - 5.4 - 2.142428528562855
13 - 5.0 - 2.4083189157584592
14 - 5.825 - 2.64468807234426
15 - 6.6 - 2.964793416074719
16 - 6.6 - 2.964793416074719
17 - 6.6 - 2.964793416074719
18 - 6.6 - 2.964793416074719
19 - 6.4 - 2.9308701779505695
20 - 6.3 - 3.0594117081556713
21 - 7.125 - 3.302934301496171
22 - 7.925 - 3.6082371041825945
23 - 7.925 - 3.6082371041825945
24 - 7.925 - 3.6082371041825945
25 - 7.925 - 3.6082371041825945
26 - 7.55 - 3.4492752862014364
27 - 7.575 - 3.527658571914238
28 - 8.4 - 3.7469987990390394
29 - 9.175 - 4.0551664577425175
30 - 9.175 - 4.0551664577425175
31 - 9.175 - 4.0551664577425175
32 - 9.175 - 4.0551664577425175
33 - 8.4 - 3.766961640367473
34 - 7.925 - 3.8819292883822603
35 - 8.725 - 4.1169618652593805
36 - 9.525 - 4.3473411414334615
37 - 9.525 - 4.3473411414334615
38 - 9.525 - 4.3473411414334615
39 - 9.525 - 4.3473411414334615
40 - 8.75 - 3.9417635647004503
41 - 8.375 - 4.053933275227899
42 - 9.15 - 4.281062952118317
43 - 9.9 - 4.498888751680796
44 - 9.9 - 4.498888751680796
45 - 9.9 - 4.498888751680796
46 - 9.9 - 4.498888751680796
47 - 8.975 - 3.876128867826765
48 - 8.975 - 3.7515829992151315
49 - 9.8 - 3.9698866482558417
50 - 10.575 - 4.224260290275684
51 - 10.575 - 4.224260290275684
52 - 10.575 - 4.224260290275684
53 - 10.575 - 4.224260290275684
54 - 9.6 - 3.832753579347361
55 - 9.425 - 3.929933205539249
56 - 10.325 - 4.014894145553528
57 - 11.175 - 4.055166457742518
58 - 11.175 - 4.055166457742518
59 - 11.175 - 4.055166457742518
60 - 11.175 - 4.055166457742518
61 - 9.925 - 3.4956222622016813
62 - 9.375 - 3.8189494628758838
63 - 10.25 - 3.929058411375428
64 - 11.05 - 3.9934321078490878
65 - 11.05 - 3.9934321078490878
66 - 11.05 - 3.9934321078490878
67 - 11.05 - 3.9934321078490878
68 - 10.3 - 3.7960505792204615
69 - 9.95 - 4.067861846228311
70 - 10.875 - 4.093821564259976
71 - 11.7 - 4.019950248448355
72 - 11.7 - 4.019950248448355
73 - 11.7 - 4.019950248448355
74 - 11.7 - 4.019950248448355
75 - 10.9 - 3.942080668885404
76 - 10.55 - 4.200892762258994
77 - 11.4 - 4.146082488325576
78 - 12.15 - 4.102133591193733
79 - 12.15 - 4.102133591193733
80 - 12.15 - 4.102133591193733
81 - 12.15 - 4.102133591193733
82 - 11.075 - 4.008662495147227
83 - 10.775 - 4.2865341477702
84 - 11.6 - 4.1400483088968905
85 - 12.3 - 4.069397989875161
86 - 12.3 - 4.069397989875161
87 - 12.3 - 4.069397989875161
88 - 12.3 - 4.069397989875161
89 - 11.525 - 4.074233056662321
90 - 10.975 - 4.412978019433136
91 - 11.75 - 4.30551971311246
92 - 12.475 - 4.1891974171671595
93 - 12.475 - 4.1891974171671595
94 - 12.475 - 4.1891974171671595
95 - 12.475 - 4.1891974171671595
96 - 11.6 - 4.127953488110059
97 - 11.475 - 3.9559290944100605
98 - 12.275 - 3.801233352479166
99 - 12.925 - 3.538272883766881
100 - 12.925 - 3.538272883766881
101 - 12.925 - 3.538272883766881
102 - 12.925 - 3.538272883766881
103 - 12.125 - 3.4798527267687636
104 - 11.425 - 4.1766463819672355
105 - 12.175 - 3.974213758720082
106 - 12.75 - 3.759986702104144
107 - 12.75 - 3.759986702104144
108 - 12.75 - 3.759986702104144
109 - 12.75 - 3.759986702104144
110 - 12.1 - 3.8262252939417984
111 - 11.55 - 4.483023533286436
112 - 12.175 - 4.271343465468447
113 - 12.7 - 4.1
114 - 12.7 - 4.1
115 - 12.7 - 4.1
116 - 12.7 - 4.1
117 - 12.075 - 4.2094387986998925
118 - 11.95 - 4.049382669000302
119 - 12.575 - 3.7675423023504333
120 - 13.1 - 3.4842502780368694
121 - 13.1 - 3.4842502780368694
122 - 13.1 - 3.4842502780368694
123 - 13.1 - 3.4842502780368694
124 - 12.25 - 3.6245689398878866
125 - 11.575 - 4.443464301645733
126 - 12.225 - 4.257273188321371
127 - 12.75 - 4.091148982865327
128 - 12.75 - 4.091148982865327
129 - 12.75 - 4.091148982865327
130 - 12.75 - 4.091148982865327
131 - 12.075 - 4.1193901247636155
132 - 11.825 - 4.2654864904252126
133 - 12.5 - 4.03732584763727
134 - 13.05 - 3.741323295306087
135 - 13.05 - 3.741323295306087
136 - 13.05 - 3.741323295306087
137 - 13.05 - 3.741323295306087
138 - 12.45 - 3.8467518765836712
139 - 11.925 - 4.579233014381339
140 - 12.55 - 4.329838334164452
141 - 13.025 - 4.168258029441075
142 - 13.025 - 4.168258029441075
143 - 13.025 - 4.168258029441075
144 - 13.025 - 4.168258029441075
145 - 12.425 - 4.188600601632961
146 - 12.15 - 4.464022849403887
147 - 12.7 - 4.243819034784588
148 - 13.125 - 4.050848676512121
149 - 13.125 - 4.050848676512121
150 - 13.125 - 4.050848676512121
151 - 13.125 - 4.050848676512121
152 - 12.425 - 4.110276754672367
153 - 12.025 - 4.491589362352706
154 - 12.625 - 4.223076485217856
155 - 13.125 - 3.9127196423970885
156 - 13.125 - 3.9127196423970885
157 - 13.125 - 3.9127196423970885
158 - 13.125 - 3.9127196423970885
159 - 12.525 - 3.9811273528989246
160 - 12.1 - 4.57602447545902
161 - 12.675 - 4.2976010750184805
162 - 13.2 - 4.019950248448357
163 - 13.2 - 4.019950248448357
164 - 13.2 - 4.019950248448357
165 - 13.2 - 4.019950248448357
166 - 12.525 - 4.055782908391424
167 - 12.325 - 4.113316788189308
168 - 12.925 - 3.849594134451059
169 - 13.425 - 3.5488554492962945
170 - 13.425 - 3.5488554492962945
171 - 13.425 - 3.5488554492962945
172 - 13.425 - 3.5488554492962945
173 - 12.675 - 3.790695846411316
174 - 12.325 - 4.227218352533969
175 - 12.9 - 4.036087214122114
176 - 13.3 - 3.8483762809787723
177 - 13.3 - 3.8483762809787723
178 - 13.3 - 3.8483762809787723
179 - 13.3 - 3.8483762809787723
180 - 12.575 - 4.018006346436004
181 - 12.025 - 4.639436927041901
182 - 12.625 - 4.459189948858424
183 - 13.05 - 4.271709259769442
184 - 13.05 - 4.271709259769442
185 - 13.05 - 4.271709259769442
186 - 13.05 - 4.271709259769442
187 - 12.375 - 4.3167551470983385
188 - 12.175 - 4.415243481394882
189 - 12.775 - 4.156245300749222
190 - 13.225 - 3.901842513480009
191 - 13.225 - 3.901842513480009
192 - 13.225 - 3.901842513480009
193 - 13.225 - 3.901842513480009
194 - 12.725 - 3.9178278420573815
195 - 12.45 - 4.2599882628946295
196 - 13.0 - 3.9749213828703582
197 - 13.45 - 3.653423052426313
198 - 13.45 - 3.653423052426313
199 - 13.45 - 3.653423052426313
200 - 13.45 - 3.653423052426313
201 - 12.95 - 3.7212229172679243
202 - 12.65 - 3.9720901298938327
203 - 13.2 - 3.782856063875549
204 - 13.625 - 3.554486601465815
205 - 13.625 - 3.554486601465815
206 - 13.625 - 3.554486601465815
207 - 13.625 - 3.554486601465815
208 - 13.0 - 3.687817782917155
209 - 12.325 - 4.551854017870081
210 - 12.925 - 4.315017381193266
211 - 13.375 - 4.139368913252357
212 - 13.375 - 4.139368913252357
213 - 13.375 - 4.139368913252357
214 - 13.375 - 4.139368913252357
215 - 12.75 - 4.078909167902615
216 - 12.45 - 4.329838334164452
217 - 13.05 - 4.153010955921016
218 - 13.525 - 3.9369245611263626
219 - 13.525 - 3.9369245611263626
220 - 13.525 - 3.9369245611263626
221 - 13.525 - 3.9369245611263626
222 - 12.65 - 4.05308524460071
223 - 12.225 - 4.401633219612919
224 - 12.8 - 4.1844951905815355
225 - 13.275 - 4.110884941226159
226 - 13.275 - 4.110884941226159
227 - 13.275 - 4.110884941226159
228 - 13.275 - 4.110884941226159
229 - 12.625 - 4.127272101521779
230 - 12.35 - 4.407663780280887
231 - 12.9 - 4.182104733265298
232 - 13.325 - 4.027328519006116
233 - 13.325 - 4.027328519006116
234 - 13.325 - 4.027328519006116
235 - 13.325 - 4.027328519006116
236 - 12.8 - 4.05092582010582
237 - 12.2 - 4.616275555033518
238 - 12.75 - 4.30551971311246
239 - 13.225 - 4.065018450142631
240 - 13.225 - 4.065018450142631
241 - 13.225 - 4.065018450142631
242 - 13.225 - 4.065018450142631
243 - 12.65 - 4.089926649709014
244 - 12.425 - 4.19456493572337
245 - 13.025 - 3.869673758858749
246 - 13.575 - 3.590873849079079
247 - 13.575 - 3.590873849079079
248 - 13.575 - 3.590873849079079
249 - 13.575 - 3.590873849079079
250 - 12.675 - 3.7509165546570085
251 - 12.075 - 4.55185401787008
252 - 12.625 - 4.379997146117792
253 - 13.1 - 4.31740662898458
254 - 13.1 - 4.31740662898458
255 - 13.1 - 4.31740662898458
256 - 13.1 - 4.31740662898458
257 - 12.45 - 4.324060591619872
258 - 12.425 - 4.323699226356986
259 - 13.05 - 4.074002945507035
260 - 13.6 - 3.8131351929875232
261 - 13.6 - 3.8131351929875232
262 - 13.6 - 3.8131351929875232
263 - 13.6 - 3.8131351929875232
264 - 13.0 - 3.943348830626071
265 - 12.325 - 4.513244398434456
266 - 12.925 - 4.244923438649983
267 - 13.475 - 3.981127352898926
268 - 13.475 - 3.981127352898926
269 - 13.475 - 3.981127352898926
270 - 13.475 - 3.981127352898926
271 - 12.825 - 4.036629163051766
272 - 12.225 - 4.480443616429069
273 - 12.85 - 4.180610003336834
274 - 13.35 - 3.8571362433805723
275 - 13.35 - 3.8571362433805723
276 - 13.35 - 3.8571362433805723
277 - 13.35 - 3.8571362433805723
278 - 12.625 - 4.066248270826561
279 - 12.225 - 4.378855444062981
280 - 12.8 - 4.063249930782009
281 - 13.275 - 3.728186556490971
282 - 13.275 - 3.728186556490971
283 - 13.275 - 3.728186556490971
284 - 13.275 - 3.728186556490971
285 - 12.625 - 3.9666579131556077
286 - 12.125 - 4.659332033671779
287 - 12.65 - 4.390614991091794
288 - 13.125 - 4.208250824273668
289 - 13.125 - 4.208250824273668
290 - 13.125 - 4.208250824273668
291 - 13.125 - 4.208250824273668
