0 - 0.6674271260329552 - 0.24132545810582182
1 - 0.6869460389452343 - 0.2816395516086739
2 - 0.6869460389452343 - 0.3443133875760683
3 - 0.8042928036655379 - 0.3734698580847514
4 - 1.1627063758231833 - 0.5551026457668102
5 - 1.1627063758231833 - 0.5846771938256554
6 - 1.1627063758231833 - 0.5547154490154733
7 - 1.1627063758231833 - 0.4847128475112087
8 - 1.1627063758231833 - 0.48422629344954854
9 - 1.1627063758231833 - 0.5186730988464933
10 - 1.1627063758231833 - 0.5493897191251393
11 - 1.1627063758231833 - 0.6407178801294087
12 - 1.4060057010510925 - 0.6894076655415959
13 - 1.4060057010510925 - 0.6329114636621931
14 - 1.4060057010510925 - 0.5746864476069972
15 - 1.4105154182389779 - 0.5960868278956586
16 - 1.4105154182389779 - 0.6341037853199211
17 - 1.4105154182389779 - 0.6634742670425905
18 - 1.4105154182389779 - 0.7497958781649541
19 - 1.4105154182389779 - 0.7768283793887545
20 - 1.4105154182389779 - 0.639521382853069
21 - 1.4105154182389779 - 0.5862264919889693
22 - 1.0978215372547309 - 0.5845756066761879
23 - 1.6267301977040414 - 0.6695527188498643
24 - 1.6267301977040414 - 0.6828647339672048
25 - 1.6267301977040414 - 0.7531917102813089
26 - 1.6267301977040414 - 0.7726591966072649
27 - 1.6267301977040414 - 0.6993884273354138
28 - 1.6267301977040414 - 0.662152161045234
29 - 1.6267301977040414 - 0.6694932156502544
30 - 1.6267301977040414 - 0.6901168570743611
31 - 1.6267301977040414 - 0.7310303954624437
32 - 1.6267301977040414 - 0.7819007904708033
33 - 1.6267301977040414 - 0.8025273770660547
34 - 1.6267301977040414 - 0.7469390355809552
35 - 1.6267301977040414 - 0.6864666470630092
36 - 1.6267301977040414 - 0.6928926890972436
37 - 1.6267301977040414 - 0.7237928290994967
38 - 1.6267301977040414 - 0.7407321300120817
39 - 1.6267301977040414 - 0.8222576791803737
40 - 1.6267301977040414 - 0.8475839074270063
41 - 1.6267301977040414 - 0.7392311348580665
42 - 1.6267301977040414 - 0.7105177225745898
43 - 1.1170540256527826 - 0.6833547178996264
44 - 1.1170540256527826 - 0.7232079176177068
45 - 1.1170540256527826 - 0.7381079605413914
46 - 1.1281709055747344 - 0.7828598287068604
47 - 1.1976327366028587 - 0.8069872158293746
48 - 1.1976327366028587 - 0.7188278103180515
49 - 1.1976327366028587 - 0.6775683709811924
50 - 1.1976327366028587 - 0.6917524715611183
51 - 1.1976327366028587 - 0.735158834896972
52 - 1.1976327366028587 - 0.7702657423978302
53 - 1.1976327366028587 - 0.7942447461950473
54 - 1.1976327366028587 - 0.8187592121596035
55 - 1.1976327366028587 - 0.7542011238514272
56 - 1.4904459800571523 - 0.7581235003549672
57 - 1.4904459800571523 - 0.7780268791740856
58 - 1.8024492343972935 - 0.8366691876315102
59 - 1.8024492343972935 - 0.8646741486174765
60 - 1.8024492343972935 - 0.8812018437695979
61 - 1.8024492343972935 - 0.9147121148973903
62 - 1.8024492343972935 - 0.8242515179851967
63 - 1.8024492343972935 - 0.8088888823185176
64 - 1.8024492343972935 - 0.8115255228875606
65 - 1.8024492343972935 - 0.8739568643257931
66 - 1.8024492343972935 - 0.8894922691659174
67 - 1.8024492343972935 - 0.9434192802502274
68 - 1.8024492343972935 - 0.9653942572749387
69 - 1.8024492343972935 - 0.8471681451193047
70 - 1.8024492343972935 - 0.8340256707552698
71 - 1.8024492343972935 - 0.830951283416708
72 - 1.8024492343972935 - 0.8452604638331834
73 - 1.8024492343972935 - 0.8596723658858034
74 - 1.8024492343972935 - 0.9001090897960775
75 - 1.8024492343972935 - 0.8977020786142077
76 - 1.8024492343972935 - 0.8439807416182079
77 - 1.8024492343972935 - 0.808902959418657
78 - 1.8024492343972935 - 0.8056778025516567
79 - 1.8024492343972935 - 0.855933498922357
80 - 1.8024492343972935 - 0.8672434723268607
81 - 1.8180017390879069 - 0.9053489651197874
82 - 1.8180017390879069 - 0.9147177980253662
83 - 1.8180017390879069 - 0.8371578359725783
84 - 1.8180017390879069 - 0.7970140739611359
85 - 1.8180017390879069 - 0.8288159512677018
86 - 1.8180017390879069 - 0.859058839589793
87 - 1.8180017390879069 - 0.8844724655478089
88 - 1.8180017390879069 - 0.9277209207869699
89 - 1.8180017390879069 - 0.9403823291111134
90 - 1.8180017390879069 - 0.8410723891942741
91 - 1.8180017390879069 - 0.8412033648087792
92 - 1.8180017390879069 - 0.8804318540761285
93 - 1.8180017390879069 - 0.9047881652292246
94 - 1.8180017390879069 - 0.9161569586938068
95 - 1.8180017390879069 - 0.9555999326005848
96 - 1.8180017390879069 - 0.9783797474399003
97 - 1.8180017390879069 - 0.8743750301992932
98 - 1.8180017390879069 - 0.8687187598938225
99 - 1.8180017390879069 - 0.8866308599323036
100 - 1.8180017390879069 - 0.9071201196189282
101 - 1.8180017390879069 - 0.9256820025828769
102 - 1.8596122441353171 - 0.9989604938313054
103 - 1.8596122441353171 - 1.0049138720190405
104 - 1.8596122441353171 - 0.9013460692407925
105 - 1.8596122441353171 - 0.9126663883837187
106 - 1.8596122441353171 - 0.9416074096850562
107 - 1.8596122441353171 - 0.9636991384115612
108 - 1.8596122441353171 - 0.9792602124943267
109 - 1.8596122441353171 - 1.0020326666868185
110 - 1.8596122441353171 - 1.0021808334675932
111 - 1.8596122441353171 - 0.9323352250854766
112 - 1.8596122441353171 - 0.9336135418551861
113 - 1.8596122441353171 - 0.9406050795497078
114 - 1.8596122441353171 - 0.9769629695966765
115 - 1.8596122441353171 - 0.9873131555280331
116 - 2.1247935424251603 - 1.0490553238703777
117 - 2.1247935424251603 - 1.0706998578049762
118 - 2.1247935424251603 - 0.9403459220089836
119 - 2.1247935424251603 - 0.9168082639042415
120 - 2.1247935424251603 - 0.9327990060800889
121 - 2.1247935424251603 - 0.9663397454190781
122 - 2.1247935424251603 - 1.0081050418832609
123 - 2.131486254792494 - 1.0244063970015487
124 - 2.131486254792494 - 1.0306351054579284
125 - 2.131486254792494 - 0.9655544726723166
126 - 2.131486254792494 - 0.8715603303214223
127 - 2.131486254792494 - 0.8723102830770634
128 - 2.131486254792494 - 0.952799388592438
129 - 2.131486254792494 - 0.9914099567808741
