[ GENERATION 0 ]
Best individual(s) (2)
[[(0.0, 1.0, 1.0, 1.0, 0.0, 0.0, 1.0, 2.0, 0.0, 0.0, 0.0, 3.0, 3.0, 1.0, 0.0, 0.0, 0.0, 0.0, 1.0, 0.0, 0.0, 0.8925152432918898, 0.5614542281523132, 0.28517520581963907, 0.608120209681278, 0.0, 0.0, 0.8482979027967856, 0.1442485082827354, 0.09948983932249422, 0.8812699102390027, 0.0, 0.0, 309.11595515376933, 143.18050912685834, 355.90019863856094, 233.0907693196606, 0.0, 0.0, -0.4059053293426792, -0.3690727680250254, 0.37418457413862005, -0.003990904575397747, 0.0, 0.0, 0.0, 0.0, 0.0, 0.0, 0.0, 0.0] - 0.7161546728313452, [(0.0, 1.0, 1.0, 1.0, 1.0, 1.0, 1.0, 1.0, 1.0, 1.0, 1.0, 2.0, 3.0, 1.0, 3.0, 1.0, 0.0, 1.0, 1.0, 1.0, 1.0, 0.07675345705172054, 0.24244950003500443, 0.6314759207247377, 0.5554790828901124, 0.682474062550241, 0.6742467334950588, 0.15285781569592793, 0.8715309584835421, 0.18325049374776115, 0.9252926529987606, 0.7270927226767884, 0.5170951810020719, 83.9543704772285, 62.26768049359113, 208.40350069718045, 322.7997517182631, 286.94370089578615, 245.3061917106133, 0.30123028451448786, -0.08998212095827296, 0.3288215846380077, -0.2941593505901302, 0.03410387262619052, 0.17223845526663117, 0.0, 0.0, 0.0, 0.0, 0.0, 0.0] - 0.5934527312548382]

[ GENERATION 1 ]
Best individual(s) (2)
[[(0.0, 1.0, 1.0, 1.0, 1.0, 0.0, 2.0, 2.0, 0.0, 0.0, 0.0, 0.0, 1.0, 3.0, 2.0, 0.0, 0.0, 1.0, 1.0, 0.0, 0.0, 0.9123162792855408, 0.37975093755952694, 0.5840033429483397, 0.2145657108621588, 0.1762069857099533, 0.0, 0.2579669399048067, 0.516961298545745, 0.06035886957436698, 0.7219623062144929, 0.12033003605394155, 0.0, 302.7785786076433, 300.1136749129573, 21.086420817050694, 12.695654172541051, 287.8665942893467, 0.0, 0.09103827719864077, 0.12068883205246372, -0.2362642825400848, 0.1470650230523347, 0.2601346126897107, 0.0, 0.0, 0.0, 0.0, 0.0, 0.0, 0.0] - 0.74171477388416, [(0.0, 1.0, 1.0, 1.0, 0.0, 0.0, 1.0, 2.0, 0.0, 0.0, 0.0, 3.0, 3.0, 1.0, 0.0, 0.0, 0.0, 0.0, 1.0, 0.0, 0.0, 0.8925152432918898, 0.5614542281523132, 0.28517520581963907, 0.608120209681278, 0.0, 0.0, 0.8482979027967856, 0.1442485082827354, 0.09948983932249422, 0.8812699102390027, 0.0, 0.0, 309.11595515376933, 143.18050912685834, 355.90019863856094, 233.0907693196606, 0.0, 0.0, -0.4059053293426792, -0.3690727680250254, 0.37418457413862005, -0.003990904575397747, 0.0, 0.0, 0.0, 0.0, 0.0, 0.0, 0.0, 0.0] - 0.7161546728313452]

[ GENERATION 2 ]
Best individual(s) (2)
[[(0.0, 1.0, 1.0, 1.0, 1.0, 1.0, 2.0, 1.0, 1.0, 0.0, 1.0, 0.0, 2.0, 1.0, 3.0, 2.0, 1.0, 0.0, 1.0, 1.0, 0.0, 0.12321116247896047, 0.38513147418927307, 0.7268370850194998, 0.18466910025244032, 0.2658294461981616, 0.07952421248732455, 0.7562098882010492, 0.2554677102535582, 0.5852859462394644, 0.8992138514597644, 0.10483427826019542, 0.9194750002473686, 167.79724709010225, 201.97536509427658, 51.08161024652962, 279.7380391330809, 319.72782541105727, 144.10166890983962, -0.3148224486248751, 0.38902587042054027, 0.4625122837442849, 0.08808708106317709, 0.04330941633315044, 0.42909361281722225, 0.0, 0.0, 0.0, 0.0, 0.0, 0.0] - 0.8238485749398048, [(0.0, 1.0, 1.0, 1.0, 1.0, 0.0, 2.0, 2.0, 0.0, 0.0, 0.0, 0.0, 1.0, 3.0, 2.0, 0.0, 0.0, 1.0, 1.0, 0.0, 0.0, 0.9123162792855408, 0.37975093755952694, 0.5840033429483397, 0.2145657108621588, 0.1762069857099533, 0.0, 0.2579669399048067, 0.516961298545745, 0.06035886957436698, 0.7219623062144929, 0.12033003605394155, 0.0, 302.7785786076433, 300.1136749129573, 21.086420817050694, 12.695654172541051, 287.8665942893467, 0.0, 0.09103827719864077, 0.12068883205246372, -0.2362642825400848, 0.1470650230523347, 0.2601346126897107, 0.0, 0.0, 0.0, 0.0, 0.0, 0.0, 0.0] - 0.74171477388416]

[ GENERATION 3 ]
Best individual(s) (2)
[[(0.0, 1.0, 1.0, 1.0, 1.0, 1.0, 1.0, 2.0, 2.0, 0.0, 0.0, 4.0, 1.0, 3.0, 2.0, 3.0, 1.0, 1.0, 1.0, 0.0, 1.0, 0.330129615131567, 0.41998807290127815, 0.26129904781340163, 0.7560890235177367, 0.11155731441135674, 0.10536574987777414, 0.7715968582009328, 0.6707189306077408, 0.37296108924203086, 0.5487838691031371, 0.7647026473998977, 0.33867664952334453, 106.42905749535323, 155.59314693640306, 228.84711365480163, 66.68244987201356, 151.86277059408286, 267.8818532659085, -0.33354983600491783, -0.3188411814323653, -0.10138503773938345, 0.28780021671317824, -0.3876850838829119, -0.02981695489939884, 0.0, 0.0, 0.0, 0.0, 0.0, 0.0] - 0.8418983758782544, [(0.0, 1.0, 1.0, 1.0, 1.0, 1.0, 2.0, 1.0, 1.0, 0.0, 1.0, 0.0, 2.0, 1.0, 3.0, 2.0, 1.0, 0.0, 1.0, 1.0, 0.0, 0.12321116247896047, 0.38513147418927307, 0.7268370850194998, 0.18466910025244032, 0.2658294461981616, 0.07952421248732455, 0.7562098882010492, 0.2554677102535582, 0.5852859462394644, 0.8992138514597644, 0.10483427826019542, 0.9194750002473686, 167.79724709010225, 201.97536509427658, 51.08161024652962, 279.7380391330809, 319.72782541105727, 144.10166890983962, -0.3148224486248751, 0.38902587042054027, 0.4625122837442849, 0.08808708106317709, 0.04330941633315044, 0.42909361281722225, 0.0, 0.0, 0.0, 0.0, 0.0, 0.0] - 0.8238485749398048]

[ GENERATION 4 ]
Best individual(s) (2)
[[(0.0, 1.0, 1.0, 1.0, 1.0, 1.0, 4.0, 1.0, 0.0, 0.0, 0.0, 2.0, 3.0, 1.0, 0.0, 3.0, 1.0, 0.0, 1.0, 1.0, 0.0, 0.7327718455414264, 0.932940914672058, 0.3232885307960244, 0.9200930405522012, 0.8690713638712719, 0.73136137636636, 0.013185076593230649, 0.1563389739181944, 0.6937637702827334, 0.6774417054604324, 0.6343721970075358, 0.5486123696413342, 138.1468836041674, 25.369232789065393, 224.29259777140322, 157.7086685153054, 317.7064219105606, 105.32772521236937, 0.44890969995563745, -0.3535512280542108, -0.42156113101354287, 0.2842943056416577, -0.0505374931353727, 0.30325828261369714, 0.0, 0.0, 0.0, 0.0, 0.0, 0.0] - 1.170762372233121, [(0.0, 1.0, 1.0, 1.0, 1.0, 1.0, 1.0, 1.0, 1.0, 2.0, 0.0, 4.0, 1.0, 1.0, 1.0, 3.0, 1.0, 0.0, 1.0, 0.0, 0.0, 0.38683051774448185, 0.8235267716909664, 0.5225317872911547, 0.030295722733626573, 0.8159386157604638, 0.3864441726628891, 0.7287379907474946, 0.8934886977701312, 0.31393928974453755, 0.7077537193139489, 0.615173200341361, 0.3454396742479946, 95.6735764143765, 195.36365999465798, 246.6586091233561, 342.3325608289712, 38.321288193845234, 15.034394771581914, 0.12341258991895776, 0.22873637079932574, 0.10270372345888923, -9.723757471488126E-4, 0.23390896284069973, 0.0737940856498509, 0.0, 0.0, 0.0, 0.0, 0.0, 0.0] - 1.0719100027437392]

[ GENERATION 5 ]
Best individual(s) (2)
[[(0.0, 1.0, 1.0, 1.0, 1.0, 1.0, 4.0, 1.0, 0.0, 0.0, 0.0, 2.0, 3.0, 1.0, 0.0, 3.0, 1.0, 0.0, 1.0, 1.0, 0.0, 0.7327718455414264, 0.932940914672058, 0.3232885307960244, 0.9200930405522012, 0.8690713638712719, 0.73136137636636, 0.013185076593230649, 0.1563389739181944, 0.6937637702827334, 0.6774417054604324, 0.6343721970075358, 0.5486123696413342, 138.1468836041674, 25.369232789065393, 224.29259777140322, 157.7086685153054, 317.7064219105606, 105.32772521236937, 0.44890969995563745, -0.3535512280542108, -0.42156113101354287, 0.2842943056416577, -0.0505374931353727, 0.30325828261369714, 0.0, 0.0, 0.0, 0.0, 0.0, 0.0] - 1.170762372233121, [(0.0, 1.0, 1.0, 1.0, 1.0, 0.0, 2.0, 1.0, 1.0, 0.0, 0.0, 2.0, 1.0, 1.0, 1.0, 0.0, 1.0, 0.0, 1.0, 1.0, 0.0, 0.5225862856911179, 0.1313658499631375, 0.7078899184338258, 0.684922798828723, 0.2460900073895772, 0.0, 0.9845919134520378, 0.9849401119948324, 0.12171480938172219, 0.5859725367667682, 0.34920366509308176, 0.0, 192.34047234599083, 309.25490124067653, 226.9024885781015, 149.30643482374754, 100.63835986227693, 0.0, -0.07734915605571457, -0.36819392126437556, -0.3535893181870424, -0.01933545595312569, -0.04382918159195148, 0.0, 0.0, 0.0, 0.0, 0.0, 0.0, 0.0] - 1.1172702412841584]

[ GENERATION 6 ]
Best individual(s) (2)
[[(0.0, 1.0, 1.0, 1.0, 1.0, 1.0, 4.0, 1.0, 0.0, 0.0, 0.0, 2.0, 3.0, 1.0, 0.0, 3.0, 1.0, 0.0, 1.0, 1.0, 0.0, 0.7327718455414264, 0.932940914672058, 0.3232885307960244, 0.9200930405522012, 0.8690713638712719, 0.73136137636636, 0.013185076593230649, 0.1563389739181944, 0.6937637702827334, 0.6774417054604324, 0.6343721970075358, 0.5486123696413342, 138.1468836041674, 25.369232789065393, 224.29259777140322, 157.7086685153054, 317.7064219105606, 105.32772521236937, 0.44890969995563745, -0.3535512280542108, -0.42156113101354287, 0.2842943056416577, -0.0505374931353727, 0.30325828261369714, 0.0, 0.0, 0.0, 0.0, 0.0, 0.0] - 1.170762372233121, [(0.0, 1.0, 1.0, 1.0, 1.0, 0.0, 2.0, 1.0, 1.0, 0.0, 0.0, 2.0, 1.0, 1.0, 1.0, 0.0, 1.0, 0.0, 1.0, 1.0, 0.0, 0.5225862856911179, 0.1313658499631375, 0.7078899184338258, 0.684922798828723, 0.2460900073895772, 0.0, 0.9845919134520378, 0.9849401119948324, 0.12171480938172219, 0.5859725367667682, 0.34920366509308176, 0.0, 192.34047234599083, 309.25490124067653, 226.9024885781015, 149.30643482374754, 100.63835986227693, 0.0, -0.07734915605571457, -0.36819392126437556, -0.3535893181870424, -0.01933545595312569, -0.04382918159195148, 0.0, 0.0, 0.0, 0.0, 0.0, 0.0, 0.0] - 1.1172702412841584]

[ GENERATION 7 ]
Best individual(s) (2)
[[(0.0, 1.0, 1.0, 1.0, 1.0, 1.0, 3.0, 1.0, 1.0, 0.0, 0.0, 2.0, 1.0, 3.0, 1.0, 1.0, 1.0, 0.0, 1.0, 1.0, 1.0, 0.5225862856911179, 0.1313658499631375, 0.7078899184338258, 0.11511800549983608, 0.684922798828723, 0.2460900073895772, 0.9845919134520378, 0.9849401119948324, 0.12171480938172219, 0.7560789303817543, 0.5859725367667682, 0.34920366509308176, 192.34047234599083, 309.25490124067653, 226.9024885781015, 247.5551957985585, 149.30643482374754, 100.63835986227693, -0.07734915605571457, -0.36819392126437556, -0.3535893181870424, -0.05877199807321076, -0.01933545595312569, -0.04382918159195148, 0.0, 0.0, 0.0, 0.0, 0.0, 0.0] - 1.2752286794833154, [(0.0, 1.0, 1.0, 1.0, 1.0, 1.0, 4.0, 1.0, 0.0, 0.0, 0.0, 2.0, 3.0, 1.0, 0.0, 3.0, 1.0, 0.0, 1.0, 1.0, 0.0, 0.7327718455414264, 0.932940914672058, 0.3232885307960244, 0.9200930405522012, 0.8690713638712719, 0.73136137636636, 0.013185076593230649, 0.1563389739181944, 0.6937637702827334, 0.6774417054604324, 0.6343721970075358, 0.5486123696413342, 138.1468836041674, 25.369232789065393, 224.29259777140322, 157.7086685153054, 317.7064219105606, 105.32772521236937, 0.44890969995563745, -0.3535512280542108, -0.42156113101354287, 0.2842943056416577, -0.0505374931353727, 0.30325828261369714, 0.0, 0.0, 0.0, 0.0, 0.0, 0.0] - 1.170762372233121]

[ GENERATION 8 ]
Best individual(s) (2)
[[(0.0, 1.0, 1.0, 1.0, 1.0, 1.0, 3.0, 1.0, 1.0, 0.0, 0.0, 2.0, 1.0, 3.0, 1.0, 1.0, 1.0, 0.0, 1.0, 1.0, 1.0, 0.5225862856911179, 0.1313658499631375, 0.7078899184338258, 0.11511800549983608, 0.684922798828723, 0.2460900073895772, 0.9845919134520378, 0.9849401119948324, 0.12171480938172219, 0.7560789303817543, 0.5859725367667682, 0.34920366509308176, 192.34047234599083, 309.25490124067653, 226.9024885781015, 247.5551957985585, 149.30643482374754, 100.63835986227693, -0.07734915605571457, -0.36819392126437556, -0.3535893181870424, -0.05877199807321076, -0.01933545595312569, -0.04382918159195148, 0.0, 0.0, 0.0, 0.0, 0.0, 0.0] - 1.2752286794833154, [(0.0, 1.0, 1.0, 1.0, 1.0, 1.0, 4.0, 1.0, 0.0, 0.0, 0.0, 2.0, 3.0, 1.0, 0.0, 3.0, 1.0, 0.0, 1.0, 1.0, 0.0, 0.7327718455414264, 0.932940914672058, 0.3232885307960244, 0.9200930405522012, 0.8690713638712719, 0.73136137636636, 0.013185076593230649, 0.1563389739181944, 0.6937637702827334, 0.6774417054604324, 0.6343721970075358, 0.5486123696413342, 138.1468836041674, 25.369232789065393, 224.29259777140322, 157.7086685153054, 317.7064219105606, 105.32772521236937, 0.44890969995563745, -0.3535512280542108, -0.42156113101354287, 0.2842943056416577, -0.0505374931353727, 0.30325828261369714, 0.0, 0.0, 0.0, 0.0, 0.0, 0.0] - 1.170762372233121]

[ GENERATION 9 ]
Best individual(s) (2)
[[(0.0, 1.0, 1.0, 1.0, 1.0, 1.0, 3.0, 1.0, 1.0, 0.0, 0.0, 2.0, 1.0, 3.0, 1.0, 1.0, 1.0, 0.0, 1.0, 1.0, 1.0, 0.5225862856911179, 0.1313658499631375, 0.7078899184338258, 0.11511800549983608, 0.684922798828723, 0.2460900073895772, 0.9845919134520378, 0.9849401119948324, 0.12171480938172219, 0.7560789303817543, 0.5859725367667682, 0.34920366509308176, 192.34047234599083, 309.25490124067653, 226.9024885781015, 247.5551957985585, 149.30643482374754, 100.63835986227693, -0.07734915605571457, -0.36819392126437556, -0.3535893181870424, -0.05877199807321076, -0.01933545595312569, -0.04382918159195148, 0.0, 0.0, 0.0, 0.0, 0.0, 0.0] - 1.2752286794833154, [(0.0, 1.0, 1.0, 1.0, 1.0, 1.0, 4.0, 1.0, 0.0, 0.0, 0.0, 2.0, 3.0, 1.0, 0.0, 2.0, 1.0, 1.0, 1.0, 1.0, 0.0, 0.7327718455414264, 0.932940914672058, 0.3232885307960244, 0.9200930405522012, 0.8690713638712719, 0.73136137636636, 0.013185076593230649, 0.1563389739181944, 0.6937637702827334, 0.6774417054604324, 0.6343721970075358, 0.5486123696413342, 138.1468836041674, 25.369232789065393, 224.29259777140322, 157.7086685153054, 317.7064219105606, 105.32772521236937, 0.44890969995563745, -0.3535512280542108, -0.42156113101354287, 0.2842943056416577, -0.0505374931353727, 0.30325828261369714, 0.0, 0.0, 0.0, 0.0, 0.0, 0.0] - 1.170762372233121]

[ GENERATION 10 ]
Best individual(s) (2)
[[(0.0, 1.0, 1.0, 1.0, 1.0, 1.0, 3.0, 1.0, 1.0, 0.0, 0.0, 2.0, 1.0, 3.0, 1.0, 1.0, 1.0, 0.0, 1.0, 1.0, 1.0, 0.5225862856911179, 0.1313658499631375, 0.7078899184338258, 0.11511800549983608, 0.684922798828723, 0.2460900073895772, 0.9845919134520378, 0.9849401119948324, 0.12171480938172219, 0.7560789303817543, 0.5859725367667682, 0.34920366509308176, 192.34047234599083, 309.25490124067653, 226.9024885781015, 247.5551957985585, 149.30643482374754, 100.63835986227693, -0.07734915605571457, -0.36819392126437556, -0.3535893181870424, -0.05877199807321076, -0.01933545595312569, -0.04382918159195148, 0.0, 0.0, 0.0, 0.0, 0.0, 0.0] - 1.2752286794833154, [(0.0, 1.0, 1.0, 1.0, 1.0, 1.0, 4.0, 1.0, 0.0, 0.0, 0.0, 2.0, 3.0, 1.0, 0.0, 2.0, 1.0, 1.0, 1.0, 1.0, 0.0, 0.7327718455414264, 0.932940914672058, 0.3232885307960244, 0.9200930405522012, 0.8690713638712719, 0.73136137636636, 0.013185076593230649, 0.1563389739181944, 0.6937637702827334, 0.6774417054604324, 0.6343721970075358, 0.5486123696413342, 138.1468836041674, 25.369232789065393, 224.29259777140322, 157.7086685153054, 317.7064219105606, 105.32772521236937, 0.44890969995563745, -0.3535512280542108, -0.42156113101354287, 0.2842943056416577, -0.0505374931353727, 0.30325828261369714, 0.0, 0.0, 0.0, 0.0, 0.0, 0.0] - 1.170762372233121]

[ GENERATION 11 ]
Best individual(s) (2)
[[(0.0, 1.0, 1.0, 1.0, 1.0, 1.0, 1.0, 1.0, 1.0, 2.0, 0.0, 4.0, 1.0, 1.0, 1.0, 3.0, 1.0, 0.0, 1.0, 0.0, 0.0, 0.38683051774448185, 0.8235267716909664, 0.5225317872911547, 0.030295722733626573, 0.8159386157604638, 0.3864441726628891, 0.7287379907474946, 0.8934886977701312, 0.31393928974453755, 0.7077537193139489, 0.615173200341361, 0.3454396742479946, 236.05805101598722, 195.36365999465798, 310.00356103091093, 342.3325608289712, 99.47096047506678, 25.523322539666236, 0.12341258991895776, 0.22873637079932574, 0.10270372345888923, -9.723757471488126E-4, 0.23390896284069973, 0.0737940856498509, 0.0, 0.0, 0.0, 0.0, 0.0, 0.0] - 1.3284312965758318, [(0.0, 1.0, 1.0, 1.0, 1.0, 1.0, 3.0, 1.0, 1.0, 0.0, 0.0, 2.0, 1.0, 3.0, 1.0, 1.0, 1.0, 0.0, 1.0, 1.0, 1.0, 0.5225862856911179, 0.1313658499631375, 0.7078899184338258, 0.11511800549983608, 0.684922798828723, 0.2460900073895772, 0.9845919134520378, 0.9849401119948324, 0.12171480938172219, 0.7560789303817543, 0.5859725367667682, 0.34920366509308176, 192.34047234599083, 309.25490124067653, 226.9024885781015, 247.5551957985585, 149.30643482374754, 100.63835986227693, -0.07734915605571457, -0.36819392126437556, -0.3535893181870424, -0.05877199807321076, -0.01933545595312569, -0.04382918159195148, 0.0, 0.0, 0.0, 0.0, 0.0, 0.0] - 1.2752286794833154]

[ GENERATION 12 ]
Best individual(s) (2)
[[(0.0, 1.0, 1.0, 1.0, 1.0, 1.0, 1.0, 1.0, 1.0, 2.0, 0.0, 4.0, 1.0, 1.0, 1.0, 3.0, 1.0, 0.0, 1.0, 0.0, 0.0, 0.38683051774448185, 0.8235267716909664, 0.5225317872911547, 0.030295722733626573, 0.8159386157604638, 0.3864441726628891, 0.7287379907474946, 0.8934886977701312, 0.31393928974453755, 0.7077537193139489, 0.615173200341361, 0.3454396742479946, 236.05805101598722, 195.36365999465798, 310.00356103091093, 342.3325608289712, 99.47096047506678, 25.523322539666236, 0.12341258991895776, 0.22873637079932574, 0.10270372345888923, -9.723757471488126E-4, 0.23390896284069973, 0.0737940856498509, 0.0, 0.0, 0.0, 0.0, 0.0, 0.0] - 1.3284312965758318, [(0.0, 1.0, 1.0, 1.0, 1.0, 1.0, 3.0, 1.0, 1.0, 0.0, 0.0, 2.0, 1.0, 3.0, 1.0, 1.0, 1.0, 0.0, 1.0, 1.0, 1.0, 0.5225862856911179, 0.1313658499631375, 0.7078899184338258, 0.11511800549983608, 0.684922798828723, 0.2460900073895772, 0.9845919134520378, 0.9849401119948324, 0.12171480938172219, 0.7560789303817543, 0.5859725367667682, 0.34920366509308176, 192.34047234599083, 309.25490124067653, 226.9024885781015, 247.5551957985585, 149.30643482374754, 100.63835986227693, -0.07734915605571457, -0.36819392126437556, -0.3535893181870424, -0.05877199807321076, -0.01933545595312569, -0.04382918159195148, 0.0, 0.0, 0.0, 0.0, 0.0, 0.0] - 1.2752286794833154]

[ GENERATION 13 ]
Best individual(s) (2)
[[(0.0, 1.0, 1.0, 1.0, 1.0, 1.0, 1.0, 1.0, 1.0, 2.0, 0.0, 4.0, 1.0, 1.0, 1.0, 3.0, 1.0, 0.0, 1.0, 0.0, 0.0, 0.38683051774448185, 0.8235267716909664, 0.5225317872911547, 0.030295722733626573, 0.8159386157604638, 0.3864441726628891, 0.7287379907474946, 0.8934886977701312, 0.31393928974453755, 0.7077537193139489, 0.615173200341361, 0.3454396742479946, 236.05805101598722, 195.36365999465798, 310.00356103091093, 342.3325608289712, 99.47096047506678, 25.523322539666236, 0.12341258991895776, 0.22873637079932574, 0.10270372345888923, -9.723757471488126E-4, 0.23390896284069973, 0.0737940856498509, 0.0, 0.0, 0.0, 0.0, 0.0, 0.0] - 1.3284312965758318, [(0.0, 1.0, 1.0, 1.0, 1.0, 1.0, 3.0, 1.0, 1.0, 0.0, 0.0, 2.0, 1.0, 3.0, 1.0, 1.0, 1.0, 0.0, 1.0, 1.0, 1.0, 0.5225862856911179, 0.1313658499631375, 0.7078899184338258, 0.11511800549983608, 0.684922798828723, 0.2460900073895772, 0.9845919134520378, 0.9849401119948324, 0.12171480938172219, 0.7560789303817543, 0.5859725367667682, 0.34920366509308176, 192.34047234599083, 309.25490124067653, 226.9024885781015, 247.5551957985585, 149.30643482374754, 100.63835986227693, -0.07734915605571457, -0.36819392126437556, -0.3535893181870424, -0.05877199807321076, -0.01933545595312569, -0.04382918159195148, 0.0, 0.0, 0.0, 0.0, 0.0, 0.0] - 1.2752286794833154]

[ GENERATION 14 ]
Best individual(s) (2)
[[(0.0, 1.0, 1.0, 1.0, 1.0, 1.0, 1.0, 1.0, 1.0, 2.0, 0.0, 4.0, 1.0, 1.0, 1.0, 3.0, 1.0, 0.0, 1.0, 0.0, 0.0, 0.38683051774448185, 0.8235267716909664, 0.5225317872911547, 0.030295722733626573, 0.8159386157604638, 0.3864441726628891, 0.7287379907474946, 0.8934886977701312, 0.31393928974453755, 0.7077537193139489, 0.615173200341361, 0.3454396742479946, 236.05805101598722, 195.36365999465798, 310.00356103091093, 342.3325608289712, 99.47096047506678, 25.523322539666236, 0.12341258991895776, 0.22873637079932574, 0.10270372345888923, -9.723757471488126E-4, 0.23390896284069973, 0.0737940856498509, 0.0, 0.0, 0.0, 0.0, 0.0, 0.0] - 1.3284312965758318, [(0.0, 1.0, 1.0, 1.0, 1.0, 1.0, 3.0, 1.0, 1.0, 0.0, 0.0, 2.0, 1.0, 3.0, 1.0, 1.0, 1.0, 0.0, 1.0, 1.0, 1.0, 0.5225862856911179, 0.1313658499631375, 0.7078899184338258, 0.11511800549983608, 0.684922798828723, 0.2460900073895772, 0.9845919134520378, 0.9849401119948324, 0.12171480938172219, 0.7560789303817543, 0.5859725367667682, 0.34920366509308176, 192.34047234599083, 309.25490124067653, 226.9024885781015, 247.5551957985585, 149.30643482374754, 100.63835986227693, -0.07734915605571457, -0.36819392126437556, -0.3535893181870424, -0.05877199807321076, -0.01933545595312569, -0.04382918159195148, 0.0, 0.0, 0.0, 0.0, 0.0, 0.0] - 1.2752286794833154]

[ GENERATION 15 ]
Best individual(s) (2)
[[(0.0, 1.0, 1.0, 1.0, 1.0, 1.0, 1.0, 1.0, 1.0, 2.0, 0.0, 4.0, 1.0, 1.0, 1.0, 3.0, 1.0, 0.0, 1.0, 0.0, 0.0, 0.38683051774448185, 0.8235267716909664, 0.5225317872911547, 0.030295722733626573, 0.8159386157604638, 0.3864441726628891, 0.7287379907474946, 0.8934886977701312, 0.31393928974453755, 0.7077537193139489, 0.615173200341361, 0.3454396742479946, 236.05805101598722, 195.36365999465798, 310.00356103091093, 342.3325608289712, 99.47096047506678, 25.523322539666236, 0.12341258991895776, 0.22873637079932574, 0.10270372345888923, -9.723757471488126E-4, 0.23390896284069973, 0.0737940856498509, 0.0, 0.0, 0.0, 0.0, 0.0, 0.0] - 1.3284312965758318, [(0.0, 1.0, 1.0, 1.0, 1.0, 1.0, 3.0, 1.0, 1.0, 0.0, 0.0, 2.0, 1.0, 3.0, 1.0, 1.0, 1.0, 0.0, 1.0, 1.0, 1.0, 0.5225862856911179, 0.1313658499631375, 0.7078899184338258, 0.11511800549983608, 0.684922798828723, 0.2460900073895772, 0.9845919134520378, 0.9849401119948324, 0.12171480938172219, 0.7560789303817543, 0.5859725367667682, 0.34920366509308176, 192.34047234599083, 309.25490124067653, 226.9024885781015, 247.5551957985585, 149.30643482374754, 100.63835986227693, -0.07734915605571457, -0.36819392126437556, -0.3535893181870424, -0.05877199807321076, -0.01933545595312569, -0.04382918159195148, 0.0, 0.0, 0.0, 0.0, 0.0, 0.0] - 1.2752286794833154]

[ GENERATION 16 ]
Best individual(s) (2)
[[(0.0, 1.0, 1.0, 1.0, 1.0, 1.0, 1.0, 1.0, 1.0, 2.0, 0.0, 4.0, 1.0, 1.0, 1.0, 3.0, 1.0, 0.0, 1.0, 0.0, 0.0, 0.38683051774448185, 0.8235267716909664, 0.5225317872911547, 0.030295722733626573, 0.8159386157604638, 0.3864441726628891, 0.7287379907474946, 0.8934886977701312, 0.31393928974453755, 0.7077537193139489, 0.615173200341361, 0.3454396742479946, 236.05805101598722, 195.36365999465798, 310.00356103091093, 342.3325608289712, 99.47096047506678, 25.523322539666236, 0.12341258991895776, 0.22873637079932574, 0.10270372345888923, -9.723757471488126E-4, 0.23390896284069973, 0.0737940856498509, 0.0, 0.0, 0.0, 0.0, 0.0, 0.0] - 1.3284312965758318, [(0.0, 1.0, 1.0, 1.0, 1.0, 1.0, 1.0, 1.0, 1.0, 1.0, 1.0, 2.0, 3.0, 1.0, 3.0, 2.0, 0.0, 1.0, 1.0, 1.0, 1.0, 0.07675345705172054, 0.24244950003500443, 0.6314759207247377, 0.5554790828901124, 0.682474062550241, 0.6742467334950588, 0.15285781569592793, 0.8715309584835421, 0.18325049374776115, 0.9252926529987606, 0.7270927226767884, 0.5170951810020719, 103.0549678293321, 62.26768049359113, 208.40350069718045, 158.1803228930038, 286.94370089578615, 161.2141934109253, 0.30123028451448786, -0.08998212095827296, 0.3288215846380077, -0.2941593505901302, 0.03410387262619052, 0.17223845526663117, 0.0, 0.0, 0.0, 0.0, 0.0, 0.0] - 1.2948005862772938]

[ GENERATION 17 ]
Best individual(s) (2)
[[(0.0, 1.0, 1.0, 1.0, 1.0, 1.0, 1.0, 1.0, 1.0, 2.0, 0.0, 4.0, 1.0, 1.0, 1.0, 3.0, 1.0, 0.0, 1.0, 0.0, 0.0, 0.38683051774448185, 0.8235267716909664, 0.5225317872911547, 0.030295722733626573, 0.8159386157604638, 0.3864441726628891, 0.7287379907474946, 0.8934886977701312, 0.31393928974453755, 0.7077537193139489, 0.615173200341361, 0.3454396742479946, 236.05805101598722, 195.36365999465798, 310.00356103091093, 342.3325608289712, 99.47096047506678, 25.523322539666236, 0.12341258991895776, 0.22873637079932574, 0.10270372345888923, -9.723757471488126E-4, 0.23390896284069973, 0.0737940856498509, 0.0, 0.0, 0.0, 0.0, 0.0, 0.0] - 1.3284312965758318, [(0.0, 1.0, 1.0, 1.0, 1.0, 1.0, 1.0, 1.0, 1.0, 1.0, 1.0, 2.0, 3.0, 1.0, 3.0, 2.0, 0.0, 1.0, 1.0, 1.0, 1.0, 0.07675345705172054, 0.24244950003500443, 0.6314759207247377, 0.5554790828901124, 0.682474062550241, 0.6742467334950588, 0.15285781569592793, 0.8715309584835421, 0.18325049374776115, 0.9252926529987606, 0.7270927226767884, 0.5170951810020719, 103.0549678293321, 62.26768049359113, 208.40350069718045, 158.1803228930038, 286.94370089578615, 161.2141934109253, 0.30123028451448786, -0.08998212095827296, 0.3288215846380077, -0.2941593505901302, 0.03410387262619052, 0.17223845526663117, 0.0, 0.0, 0.0, 0.0, 0.0, 0.0] - 1.2948005862772938]

[ GENERATION 18 ]
Best individual(s) (2)
[[(0.0, 1.0, 1.0, 1.0, 1.0, 1.0, 3.0, 1.0, 0.0, 0.0, 1.0, 3.0, 4.0, 2.0, 1.0, 1.0, 1.0, 1.0, 1.0, 1.0, 1.0, 0.8913288492424537, 0.5960262698183846, 0.05425736489816224, 0.13506092644695644, 0.1433825313503917, 0.7819347244961317, 0.19785088202152834, 0.2204041307679906, 0.16872210611817595, 0.36916046758071486, 0.2714154437560202, 0.238184147079065, 124.89264824303474, 114.40252789933412, 217.86439567368035, 214.25370851053478, 11.81879409796239, 147.09299662018822, 0.04142929461702638, 0.22676727801641394, 0.07580237959702707, 0.410807626935501, -0.2709433204720515, 0.25381693713482933, 0.0, 0.0, 0.0, 0.0, 0.0, 0.0] - 1.5252504572187526, [(0.0, 1.0, 1.0, 1.0, 1.0, 1.0, 2.0, 1.0, 0.0, 2.0, 0.0, 4.0, 0.0, 1.0, 3.0, 1.0, 0.0, 0.0, 1.0, 0.0, 0.0, 0.04875167819623183, 0.002723022501870287, 0.6590188327367372, 0.04196965450549317, 0.18324065877021856, 0.15669215541715742, 0.158279115050332, 0.29004859332806654, 0.2859197347075424, 0.06394537052421945, 0.056318730720171795, 0.7389154423496596, 20.921079668704003, 245.8562028762956, 20.89237287120117, 132.60080355871858, 22.264250958538284, 87.98525491876018, -0.4608434059092166, 0.4664231126211793, -0.3656443616938827, 0.32568397301786245, -0.39288912498532547, 0.46985258522295703, 0.0, 0.0, 0.0, 0.0, 0.0, 0.0] - 1.466964743854548]

[ GENERATION 19 ]
Best individual(s) (2)
[[(0.0, 1.0, 1.0, 1.0, 1.0, 0.0, 1.0, 1.0, 1.0, 1.0, 0.0, 4.0, 1.0, 1.0, 1.0, 0.0, 1.0, 0.0, 1.0, 0.0, 0.0, 0.38683051774448185, 0.8235267716909664, 0.5225317872911547, 0.030295722733626573, 0.8159386157604638, 0.0, 0.7287379907474946, 0.8934886977701312, 0.31393928974453755, 0.7077537193139489, 0.615173200341361, 0.0, 236.05805101598722, 195.36365999465798, 131.19994284693112, 88.51297805767594, 160.15391437746933, 0.0, 0.12341258991895776, 0.22873637079932574, 0.10270372345888923, -9.723757471488126E-4, 0.23390896284069973, 0.0, 0.0, 0.0, 0.0, 0.0, 0.0, 0.0] - 1.8038367620729996, [(0.0, 1.0, 1.0, 1.0, 1.0, 0.0, 2.0, 1.0, 0.0, 1.0, 0.0, 3.0, 4.0, 1.0, 1.0, 0.0, 1.0, 1.0, 1.0, 1.0, 0.0, 0.8913288492424537, 0.5960262698183846, 0.05425736489816224, 0.1433825313503917, 0.7819347244961317, 0.0, 0.19785088202152834, 0.2204041307679906, 0.16872210611817595, 0.2714154437560202, 0.238184147079065, 0.0, 124.89264824303474, 114.40252789933412, 217.86439567368035, 11.81879409796239, 147.09299662018822, 0.0, 0.04142929461702638, 0.22676727801641394, 0.07580237959702707, -0.2709433204720515, 0.25381693713482933, 0.0, 0.0, 0.0, 0.0, 0.0, 0.0, 0.0] - 1.748920472129333]

[ GENERATION 20 ]
Best individual(s) (2)
[[(0.0, 1.0, 1.0, 1.0, 1.0, 0.0, 1.0, 1.0, 1.0, 1.0, 0.0, 4.0, 1.0, 1.0, 1.0, 0.0, 1.0, 0.0, 1.0, 0.0, 0.0, 0.38683051774448185, 0.8235267716909664, 0.5225317872911547, 0.030295722733626573, 0.8159386157604638, 0.0, 0.7287379907474946, 0.8934886977701312, 0.31393928974453755, 0.7077537193139489, 0.615173200341361, 0.0, 236.05805101598722, 195.36365999465798, 131.19994284693112, 88.51297805767594, 160.15391437746933, 0.0, 0.12341258991895776, 0.22873637079932574, 0.10270372345888923, -9.723757471488126E-4, 0.23390896284069973, 0.0, 0.0, 0.0, 0.0, 0.0, 0.0, 0.0] - 1.8038367620729996, [(0.0, 1.0, 1.0, 1.0, 1.0, 0.0, 2.0, 1.0, 0.0, 1.0, 0.0, 3.0, 4.0, 1.0, 1.0, 0.0, 1.0, 1.0, 1.0, 1.0, 0.0, 0.8913288492424537, 0.5960262698183846, 0.05425736489816224, 0.1433825313503917, 0.7819347244961317, 0.0, 0.19785088202152834, 0.2204041307679906, 0.16872210611817595, 0.2714154437560202, 0.238184147079065, 0.0, 124.89264824303474, 114.40252789933412, 217.86439567368035, 11.81879409796239, 147.09299662018822, 0.0, 0.04142929461702638, 0.22676727801641394, 0.07580237959702707, -0.2709433204720515, 0.25381693713482933, 0.0, 0.0, 0.0, 0.0, 0.0, 0.0, 0.0] - 1.748920472129333]

[ GENERATION 21 ]
Best individual(s) (2)
[[(0.0, 1.0, 1.0, 1.0, 1.0, 0.0, 1.0, 1.0, 1.0, 1.0, 0.0, 4.0, 1.0, 1.0, 1.0, 0.0, 1.0, 0.0, 1.0, 0.0, 0.0, 0.38683051774448185, 0.8235267716909664, 0.5225317872911547, 0.030295722733626573, 0.8159386157604638, 0.0, 0.7287379907474946, 0.8934886977701312, 0.31393928974453755, 0.7077537193139489, 0.615173200341361, 0.0, 236.05805101598722, 195.36365999465798, 131.19994284693112, 88.51297805767594, 160.15391437746933, 0.0, 0.12341258991895776, 0.22873637079932574, 0.10270372345888923, -9.723757471488126E-4, 0.23390896284069973, 0.0, 0.0, 0.0, 0.0, 0.0, 0.0, 0.0] - 1.8038367620729996, [(0.0, 1.0, 1.0, 1.0, 1.0, 1.0, 2.0, 1.0, 0.0, 2.0, 0.0, 4.0, 0.0, 1.0, 3.0, 1.0, 0.0, 0.0, 1.0, 0.0, 0.0, 0.04875167819623183, 0.002723022501870287, 0.6590188327367372, 0.04196965450549317, 0.18324065877021856, 0.15669215541715742, 0.158279115050332, 0.29004859332806654, 0.2859197347075424, 0.06394537052421945, 0.056318730720171795, 0.7389154423496596, 20.921079668704003, 245.8562028762956, 20.89237287120117, 132.60080355871858, 22.264250958538284, 87.98525491876018, -0.4608434059092166, 0.4664231126211793, -0.3656443616938827, 0.32568397301786245, -0.39288912498532547, 0.46985258522295703, 0.0, 0.0, 0.0, 0.0, 0.0, 0.0] - 1.466964743854548]

[ GENERATION 22 ]
Best individual(s) (2)
[[(0.0, 1.0, 1.0, 1.0, 1.0, 0.0, 1.0, 1.0, 1.0, 1.0, 0.0, 4.0, 1.0, 1.0, 1.0, 0.0, 1.0, 0.0, 1.0, 0.0, 0.0, 0.38683051774448185, 0.8235267716909664, 0.5225317872911547, 0.030295722733626573, 0.8159386157604638, 0.0, 0.7287379907474946, 0.8934886977701312, 0.31393928974453755, 0.7077537193139489, 0.615173200341361, 0.0, 236.05805101598722, 195.36365999465798, 131.19994284693112, 88.51297805767594, 160.15391437746933, 0.0, 0.12341258991895776, 0.22873637079932574, 0.10270372345888923, -9.723757471488126E-4, 0.23390896284069973, 0.0, 0.0, 0.0, 0.0, 0.0, 0.0, 0.0] - 1.8038367620729996, [(0.0, 1.0, 1.0, 1.0, 1.0, 1.0, 2.0, 1.0, 0.0, 2.0, 0.0, 4.0, 0.0, 1.0, 3.0, 1.0, 0.0, 0.0, 1.0, 0.0, 0.0, 0.04875167819623183, 0.002723022501870287, 0.6590188327367372, 0.04196965450549317, 0.18324065877021856, 0.15669215541715742, 0.158279115050332, 0.29004859332806654, 0.2859197347075424, 0.06394537052421945, 0.056318730720171795, 0.7389154423496596, 20.921079668704003, 245.8562028762956, 20.89237287120117, 132.60080355871858, 22.264250958538284, 87.98525491876018, -0.4608434059092166, 0.4664231126211793, -0.3656443616938827, 0.32568397301786245, -0.39288912498532547, 0.46985258522295703, 0.0, 0.0, 0.0, 0.0, 0.0, 0.0] - 1.466964743854548]

[ GENERATION 23 ]
Best individual(s) (2)
[[(0.0, 1.0, 1.0, 1.0, 1.0, 0.0, 1.0, 1.0, 1.0, 1.0, 0.0, 4.0, 1.0, 1.0, 1.0, 0.0, 1.0, 0.0, 1.0, 0.0, 0.0, 0.38683051774448185, 0.8235267716909664, 0.5225317872911547, 0.030295722733626573, 0.8159386157604638, 0.0, 0.7287379907474946, 0.8934886977701312, 0.31393928974453755, 0.7077537193139489, 0.615173200341361, 0.0, 236.05805101598722, 195.36365999465798, 131.19994284693112, 88.51297805767594, 160.15391437746933, 0.0, 0.12341258991895776, 0.22873637079932574, 0.10270372345888923, -9.723757471488126E-4, 0.23390896284069973, 0.0, 0.0, 0.0, 0.0, 0.0, 0.0, 0.0] - 1.8038367620729996, [(0.0, 1.0, 1.0, 1.0, 1.0, 1.0, 2.0, 1.0, 0.0, 2.0, 0.0, 4.0, 0.0, 1.0, 3.0, 1.0, 0.0, 0.0, 1.0, 0.0, 0.0, 0.04875167819623183, 0.002723022501870287, 0.6590188327367372, 0.04196965450549317, 0.18324065877021856, 0.15669215541715742, 0.158279115050332, 0.29004859332806654, 0.2859197347075424, 0.06394537052421945, 0.056318730720171795, 0.7389154423496596, 20.921079668704003, 245.8562028762956, 20.89237287120117, 132.60080355871858, 22.264250958538284, 87.98525491876018, -0.4608434059092166, 0.4664231126211793, -0.3656443616938827, 0.32568397301786245, -0.39288912498532547, 0.46985258522295703, 0.0, 0.0, 0.0, 0.0, 0.0, 0.0] - 1.466964743854548]

[ GENERATION 24 ]
Best individual(s) (2)
[[(0.0, 1.0, 1.0, 1.0, 1.0, 0.0, 1.0, 1.0, 1.0, 1.0, 0.0, 2.0, 1.0, 1.0, 1.0, 0.0, 1.0, 0.0, 1.0, 0.0, 0.0, 0.38683051774448185, 0.8235267716909664, 0.5225317872911547, 0.030295722733626573, 0.8159386157604638, 0.0, 0.7287379907474946, 0.8934886977701312, 0.31393928974453755, 0.7077537193139489, 0.615173200341361, 0.0, 236.05805101598722, 195.36365999465798, 131.19994284693112, 88.51297805767594, 160.15391437746933, 0.0, 0.12341258991895776, 0.22873637079932574, 0.10270372345888923, -9.723757471488126E-4, 0.23390896284069973, 0.0, 0.0, 0.0, 0.0, 0.0, 0.0, 0.0] - 2.000078135726995, [(0.0, 1.0, 1.0, 1.0, 1.0, 1.0, 2.0, 1.0, 0.0, 2.0, 0.0, 4.0, 0.0, 1.0, 3.0, 1.0, 0.0, 0.0, 1.0, 0.0, 0.0, 0.04875167819623183, 0.002723022501870287, 0.6590188327367372, 0.04196965450549317, 0.18324065877021856, 0.15669215541715742, 0.158279115050332, 0.29004859332806654, 0.2859197347075424, 0.06394537052421945, 0.056318730720171795, 0.7389154423496596, 20.921079668704003, 245.8562028762956, 20.89237287120117, 132.60080355871858, 22.264250958538284, 87.98525491876018, -0.4608434059092166, 0.4664231126211793, -0.3656443616938827, 0.32568397301786245, -0.39288912498532547, 0.46985258522295703, 0.0, 0.0, 0.0, 0.0, 0.0, 0.0] - 1.466964743854548]

[ GENERATION 25 ]
Best individual(s) (2)
[[(0.0, 1.0, 1.0, 1.0, 1.0, 0.0, 1.0, 1.0, 1.0, 1.0, 0.0, 2.0, 1.0, 1.0, 1.0, 0.0, 1.0, 0.0, 1.0, 0.0, 0.0, 0.38683051774448185, 0.8235267716909664, 0.5225317872911547, 0.030295722733626573, 0.8159386157604638, 0.0, 0.7287379907474946, 0.8934886977701312, 0.31393928974453755, 0.7077537193139489, 0.615173200341361, 0.0, 236.05805101598722, 195.36365999465798, 131.19994284693112, 88.51297805767594, 160.15391437746933, 0.0, 0.12341258991895776, 0.22873637079932574, 0.10270372345888923, -9.723757471488126E-4, 0.23390896284069973, 0.0, 0.0, 0.0, 0.0, 0.0, 0.0, 0.0] - 2.000078135726995, [(0.0, 1.0, 1.0, 1.0, 1.0, 1.0, 1.0, 1.0, 1.0, 1.0, 1.0, 2.0, 3.0, 1.0, 3.0, 2.0, 0.0, 1.0, 1.0, 1.0, 1.0, 0.07675345705172054, 0.24244950003500443, 0.6314759207247377, 0.5554790828901124, 0.682474062550241, 0.6742467334950588, 0.15285781569592793, 0.8715309584835421, 0.18325049374776115, 0.9252926529987606, 0.7270927226767884, 0.5170951810020719, 61.14915117476187, 229.55722899835612, 128.416472815373, 158.1803228930038, 286.94370089578615, 161.2141934109253, 0.30123028451448786, -0.08998212095827296, 0.3288215846380077, -0.2941593505901302, 0.03410387262619052, 0.17223845526663117, 0.0, 0.0, 0.0, 0.0, 0.0, 0.0] - 1.6913869145272418]

[ GENERATION 26 ]
Best individual(s) (2)
[[(0.0, 1.0, 1.0, 1.0, 1.0, 0.0, 1.0, 1.0, 1.0, 1.0, 0.0, 2.0, 1.0, 1.0, 1.0, 0.0, 1.0, 0.0, 1.0, 0.0, 0.0, 0.38683051774448185, 0.8235267716909664, 0.5225317872911547, 0.030295722733626573, 0.8159386157604638, 0.0, 0.7287379907474946, 0.8934886977701312, 0.31393928974453755, 0.7077537193139489, 0.615173200341361, 0.0, 236.05805101598722, 195.36365999465798, 131.19994284693112, 88.51297805767594, 160.15391437746933, 0.0, 0.12341258991895776, 0.22873637079932574, 0.10270372345888923, -9.723757471488126E-4, 0.23390896284069973, 0.0, 0.0, 0.0, 0.0, 0.0, 0.0, 0.0] - 2.000078135726995, [(0.0, 1.0, 1.0, 1.0, 1.0, 1.0, 1.0, 1.0, 1.0, 1.0, 1.0, 2.0, 3.0, 1.0, 3.0, 2.0, 0.0, 1.0, 1.0, 1.0, 1.0, 0.07675345705172054, 0.24244950003500443, 0.6314759207247377, 0.5554790828901124, 0.682474062550241, 0.6742467334950588, 0.15285781569592793, 0.8715309584835421, 0.18325049374776115, 0.9252926529987606, 0.7270927226767884, 0.5170951810020719, 61.14915117476187, 229.55722899835612, 128.416472815373, 158.1803228930038, 286.94370089578615, 161.2141934109253, 0.30123028451448786, -0.08998212095827296, 0.3288215846380077, -0.2941593505901302, 0.03410387262619052, 0.17223845526663117, 0.0, 0.0, 0.0, 0.0, 0.0, 0.0] - 1.6913869145272418]

[ GENERATION 27 ]
Best individual(s) (2)
[[(0.0, 1.0, 1.0, 1.0, 1.0, 0.0, 1.0, 1.0, 1.0, 1.0, 0.0, 2.0, 1.0, 1.0, 1.0, 0.0, 1.0, 0.0, 1.0, 0.0, 0.0, 0.38683051774448185, 0.8235267716909664, 0.5225317872911547, 0.030295722733626573, 0.8159386157604638, 0.0, 0.7287379907474946, 0.8934886977701312, 0.31393928974453755, 0.7077537193139489, 0.615173200341361, 0.0, 236.05805101598722, 195.36365999465798, 131.19994284693112, 88.51297805767594, 160.15391437746933, 0.0, 0.12341258991895776, 0.22873637079932574, 0.10270372345888923, -9.723757471488126E-4, 0.23390896284069973, 0.0, 0.0, 0.0, 0.0, 0.0, 0.0, 0.0] - 2.000078135726995, [(0.0, 1.0, 1.0, 1.0, 1.0, 1.0, 1.0, 1.0, 1.0, 1.0, 1.0, 2.0, 3.0, 1.0, 3.0, 2.0, 0.0, 1.0, 1.0, 1.0, 1.0, 0.07675345705172054, 0.24244950003500443, 0.6314759207247377, 0.5554790828901124, 0.682474062550241, 0.6742467334950588, 0.15285781569592793, 0.8715309584835421, 0.18325049374776115, 0.9252926529987606, 0.7270927226767884, 0.5170951810020719, 61.14915117476187, 229.55722899835612, 128.416472815373, 158.1803228930038, 286.94370089578615, 161.2141934109253, 0.30123028451448786, -0.08998212095827296, 0.3288215846380077, -0.2941593505901302, 0.03410387262619052, 0.17223845526663117, 0.0, 0.0, 0.0, 0.0, 0.0, 0.0] - 1.6913869145272418]

[ GENERATION 28 ]
Best individual(s) (2)
[[(0.0, 1.0, 1.0, 1.0, 1.0, 0.0, 1.0, 1.0, 1.0, 1.0, 0.0, 2.0, 1.0, 1.0, 1.0, 0.0, 1.0, 0.0, 1.0, 0.0, 0.0, 0.38683051774448185, 0.8235267716909664, 0.5225317872911547, 0.030295722733626573, 0.8159386157604638, 0.0, 0.7287379907474946, 0.8934886977701312, 0.31393928974453755, 0.7077537193139489, 0.615173200341361, 0.0, 236.05805101598722, 195.36365999465798, 131.19994284693112, 88.51297805767594, 160.15391437746933, 0.0, 0.12341258991895776, 0.22873637079932574, 0.10270372345888923, -9.723757471488126E-4, 0.23390896284069973, 0.0, 0.0, 0.0, 0.0, 0.0, 0.0, 0.0] - 2.000078135726995, [(0.0, 1.0, 1.0, 1.0, 1.0, 1.0, 1.0, 1.0, 1.0, 1.0, 1.0, 2.0, 3.0, 1.0, 3.0, 2.0, 0.0, 1.0, 1.0, 1.0, 1.0, 0.07675345705172054, 0.24244950003500443, 0.6314759207247377, 0.5554790828901124, 0.682474062550241, 0.6742467334950588, 0.15285781569592793, 0.8715309584835421, 0.18325049374776115, 0.9252926529987606, 0.7270927226767884, 0.5170951810020719, 61.14915117476187, 229.55722899835612, 128.416472815373, 158.1803228930038, 286.94370089578615, 161.2141934109253, 0.30123028451448786, -0.08998212095827296, 0.3288215846380077, -0.2941593505901302, 0.03410387262619052, 0.17223845526663117, 0.0, 0.0, 0.0, 0.0, 0.0, 0.0] - 1.6913869145272418]

[ GENERATION 29 ]
Best individual(s) (2)
[[(0.0, 1.0, 1.0, 1.0, 1.0, 0.0, 1.0, 1.0, 1.0, 1.0, 0.0, 2.0, 1.0, 1.0, 1.0, 0.0, 1.0, 0.0, 1.0, 0.0, 0.0, 0.38683051774448185, 0.8235267716909664, 0.5225317872911547, 0.030295722733626573, 0.8159386157604638, 0.0, 0.7287379907474946, 0.8934886977701312, 0.31393928974453755, 0.7077537193139489, 0.615173200341361, 0.0, 236.05805101598722, 195.36365999465798, 131.19994284693112, 88.51297805767594, 160.15391437746933, 0.0, 0.12341258991895776, 0.22873637079932574, 0.10270372345888923, -9.723757471488126E-4, 0.23390896284069973, 0.0, 0.0, 0.0, 0.0, 0.0, 0.0, 0.0] - 2.000078135726995, [(0.0, 1.0, 1.0, 1.0, 1.0, 1.0, 1.0, 1.0, 1.0, 1.0, 1.0, 2.0, 3.0, 1.0, 3.0, 2.0, 0.0, 1.0, 1.0, 1.0, 1.0, 0.07675345705172054, 0.24244950003500443, 0.6314759207247377, 0.5554790828901124, 0.682474062550241, 0.6742467334950588, 0.15285781569592793, 0.8715309584835421, 0.18325049374776115, 0.9252926529987606, 0.7270927226767884, 0.5170951810020719, 61.14915117476187, 229.55722899835612, 128.416472815373, 158.1803228930038, 286.94370089578615, 161.2141934109253, 0.30123028451448786, -0.08998212095827296, 0.3288215846380077, -0.2941593505901302, 0.03410387262619052, 0.17223845526663117, 0.0, 0.0, 0.0, 0.0, 0.0, 0.0] - 1.6913869145272418]

[ GENERATION 30 ]
Best individual(s) (2)
[[(0.0, 1.0, 1.0, 1.0, 1.0, 0.0, 1.0, 1.0, 1.0, 1.0, 0.0, 2.0, 1.0, 1.0, 1.0, 0.0, 1.0, 0.0, 1.0, 0.0, 0.0, 0.38683051774448185, 0.8235267716909664, 0.5225317872911547, 0.030295722733626573, 0.8159386157604638, 0.0, 0.7287379907474946, 0.8934886977701312, 0.31393928974453755, 0.7077537193139489, 0.615173200341361, 0.0, 236.05805101598722, 195.36365999465798, 131.19994284693112, 88.51297805767594, 160.15391437746933, 0.0, 0.12341258991895776, 0.22873637079932574, 0.10270372345888923, -9.723757471488126E-4, 0.23390896284069973, 0.0, 0.0, 0.0, 0.0, 0.0, 0.0, 0.0] - 2.000078135726995, [(0.0, 1.0, 1.0, 1.0, 1.0, 1.0, 1.0, 1.0, 1.0, 1.0, 1.0, 2.0, 3.0, 1.0, 3.0, 2.0, 0.0, 1.0, 1.0, 1.0, 1.0, 0.07675345705172054, 0.24244950003500443, 0.6314759207247377, 0.5554790828901124, 0.682474062550241, 0.6742467334950588, 0.15285781569592793, 0.8715309584835421, 0.18325049374776115, 0.9252926529987606, 0.7270927226767884, 0.5170951810020719, 61.14915117476187, 229.55722899835612, 128.416472815373, 158.1803228930038, 286.94370089578615, 161.2141934109253, 0.30123028451448786, -0.08998212095827296, 0.3288215846380077, -0.2941593505901302, 0.03410387262619052, 0.17223845526663117, 0.0, 0.0, 0.0, 0.0, 0.0, 0.0] - 1.6913869145272418]

[ GENERATION 31 ]
Best individual(s) (2)
[[(0.0, 1.0, 1.0, 1.0, 1.0, 0.0, 1.0, 1.0, 1.0, 1.0, 0.0, 2.0, 1.0, 1.0, 1.0, 0.0, 1.0, 0.0, 1.0, 0.0, 0.0, 0.38683051774448185, 0.8235267716909664, 0.5225317872911547, 0.030295722733626573, 0.8159386157604638, 0.0, 0.7287379907474946, 0.8934886977701312, 0.31393928974453755, 0.7077537193139489, 0.615173200341361, 0.0, 236.05805101598722, 195.36365999465798, 131.19994284693112, 88.51297805767594, 160.15391437746933, 0.0, 0.12341258991895776, 0.22873637079932574, 0.10270372345888923, -9.723757471488126E-4, 0.23390896284069973, 0.0, 0.0, 0.0, 0.0, 0.0, 0.0, 0.0] - 2.000078135726995, [(0.0, 1.0, 1.0, 1.0, 1.0, 1.0, 1.0, 1.0, 1.0, 1.0, 1.0, 2.0, 3.0, 1.0, 3.0, 2.0, 0.0, 1.0, 1.0, 1.0, 1.0, 0.07675345705172054, 0.24244950003500443, 0.6314759207247377, 0.5554790828901124, 0.682474062550241, 0.6742467334950588, 0.15285781569592793, 0.8715309584835421, 0.18325049374776115, 0.9252926529987606, 0.7270927226767884, 0.5170951810020719, 61.14915117476187, 229.55722899835612, 128.416472815373, 158.1803228930038, 286.94370089578615, 161.2141934109253, 0.30123028451448786, -0.08998212095827296, 0.3288215846380077, -0.2941593505901302, 0.03410387262619052, 0.17223845526663117, 0.0, 0.0, 0.0, 0.0, 0.0, 0.0] - 1.6913869145272418]

[ GENERATION 32 ]
Best individual(s) (2)
[[(0.0, 1.0, 1.0, 1.0, 1.0, 0.0, 1.0, 1.0, 1.0, 1.0, 0.0, 2.0, 1.0, 1.0, 1.0, 0.0, 1.0, 0.0, 1.0, 0.0, 0.0, 0.38683051774448185, 0.8235267716909664, 0.5225317872911547, 0.030295722733626573, 0.8159386157604638, 0.0, 0.7287379907474946, 0.8934886977701312, 0.31393928974453755, 0.7077537193139489, 0.615173200341361, 0.0, 236.05805101598722, 195.36365999465798, 131.19994284693112, 88.51297805767594, 160.15391437746933, 0.0, 0.12341258991895776, 0.22873637079932574, 0.10270372345888923, -9.723757471488126E-4, 0.23390896284069973, 0.0, 0.0, 0.0, 0.0, 0.0, 0.0, 0.0] - 2.000078135726995, [(0.0, 1.0, 1.0, 1.0, 1.0, 1.0, 1.0, 1.0, 1.0, 1.0, 1.0, 2.0, 3.0, 1.0, 3.0, 2.0, 0.0, 1.0, 1.0, 1.0, 1.0, 0.07675345705172054, 0.24244950003500443, 0.6314759207247377, 0.5554790828901124, 0.682474062550241, 0.6742467334950588, 0.15285781569592793, 0.8715309584835421, 0.18325049374776115, 0.9252926529987606, 0.7270927226767884, 0.5170951810020719, 61.14915117476187, 229.55722899835612, 128.416472815373, 158.1803228930038, 286.94370089578615, 161.2141934109253, 0.30123028451448786, -0.08998212095827296, 0.3288215846380077, -0.2941593505901302, 0.03410387262619052, 0.17223845526663117, 0.0, 0.0, 0.0, 0.0, 0.0, 0.0] - 1.6913869145272418]

[ GENERATION 33 ]
Best individual(s) (2)
[[(0.0, 1.0, 1.0, 1.0, 1.0, 0.0, 1.0, 1.0, 1.0, 1.0, 0.0, 2.0, 1.0, 1.0, 1.0, 0.0, 1.0, 0.0, 1.0, 0.0, 0.0, 0.38683051774448185, 0.8235267716909664, 0.5225317872911547, 0.030295722733626573, 0.8159386157604638, 0.0, 0.7287379907474946, 0.8934886977701312, 0.31393928974453755, 0.7077537193139489, 0.615173200341361, 0.0, 236.05805101598722, 195.36365999465798, 131.19994284693112, 88.51297805767594, 160.15391437746933, 0.0, 0.12341258991895776, 0.22873637079932574, 0.10270372345888923, -9.723757471488126E-4, 0.23390896284069973, 0.0, 0.0, 0.0, 0.0, 0.0, 0.0, 0.0] - 2.000078135726995, [(0.0, 1.0, 1.0, 1.0, 1.0, 1.0, 1.0, 1.0, 1.0, 1.0, 1.0, 2.0, 3.0, 1.0, 3.0, 2.0, 0.0, 1.0, 1.0, 1.0, 1.0, 0.07675345705172054, 0.24244950003500443, 0.6314759207247377, 0.5554790828901124, 0.682474062550241, 0.6742467334950588, 0.15285781569592793, 0.8715309584835421, 0.18325049374776115, 0.9252926529987606, 0.7270927226767884, 0.5170951810020719, 61.14915117476187, 229.55722899835612, 128.416472815373, 158.1803228930038, 286.94370089578615, 161.2141934109253, 0.30123028451448786, -0.08998212095827296, 0.3288215846380077, -0.2941593505901302, 0.03410387262619052, 0.17223845526663117, 0.0, 0.0, 0.0, 0.0, 0.0, 0.0] - 1.6913869145272418]

[ GENERATION 34 ]
Best individual(s) (2)
[[(0.0, 1.0, 1.0, 1.0, 1.0, 0.0, 1.0, 1.0, 1.0, 1.0, 0.0, 2.0, 1.0, 1.0, 1.0, 0.0, 1.0, 0.0, 1.0, 0.0, 0.0, 0.38683051774448185, 0.8235267716909664, 0.5225317872911547, 0.030295722733626573, 0.8159386157604638, 0.0, 0.7287379907474946, 0.8934886977701312, 0.31393928974453755, 0.7077537193139489, 0.615173200341361, 0.0, 236.05805101598722, 195.36365999465798, 131.19994284693112, 88.51297805767594, 160.15391437746933, 0.0, 0.12341258991895776, 0.22873637079932574, 0.10270372345888923, -9.723757471488126E-4, 0.23390896284069973, 0.0, 0.0, 0.0, 0.0, 0.0, 0.0, 0.0] - 2.000078135726995, [(0.0, 1.0, 1.0, 1.0, 1.0, 1.0, 1.0, 1.0, 1.0, 1.0, 1.0, 2.0, 3.0, 1.0, 3.0, 2.0, 0.0, 1.0, 1.0, 1.0, 1.0, 0.07675345705172054, 0.24244950003500443, 0.6314759207247377, 0.5554790828901124, 0.682474062550241, 0.6742467334950588, 0.15285781569592793, 0.8715309584835421, 0.18325049374776115, 0.9252926529987606, 0.7270927226767884, 0.5170951810020719, 61.14915117476187, 229.55722899835612, 128.416472815373, 158.1803228930038, 286.94370089578615, 161.2141934109253, 0.30123028451448786, -0.08998212095827296, 0.3288215846380077, -0.2941593505901302, 0.03410387262619052, 0.17223845526663117, 0.0, 0.0, 0.0, 0.0, 0.0, 0.0] - 1.6913869145272418]

[ GENERATION 35 ]
Best individual(s) (2)
[[(0.0, 1.0, 1.0, 1.0, 1.0, 0.0, 1.0, 1.0, 1.0, 1.0, 0.0, 2.0, 1.0, 1.0, 1.0, 0.0, 1.0, 0.0, 1.0, 0.0, 0.0, 0.38683051774448185, 0.8235267716909664, 0.5225317872911547, 0.030295722733626573, 0.8159386157604638, 0.0, 0.7287379907474946, 0.8934886977701312, 0.31393928974453755, 0.7077537193139489, 0.615173200341361, 0.0, 236.05805101598722, 195.36365999465798, 131.19994284693112, 88.51297805767594, 160.15391437746933, 0.0, 0.12341258991895776, 0.22873637079932574, 0.10270372345888923, -9.723757471488126E-4, 0.23390896284069973, 0.0, 0.0, 0.0, 0.0, 0.0, 0.0, 0.0] - 2.000078135726995, [(0.0, 1.0, 1.0, 1.0, 1.0, 1.0, 1.0, 1.0, 1.0, 1.0, 1.0, 2.0, 3.0, 1.0, 3.0, 2.0, 0.0, 1.0, 1.0, 1.0, 1.0, 0.07675345705172054, 0.24244950003500443, 0.6314759207247377, 0.5554790828901124, 0.682474062550241, 0.6742467334950588, 0.15285781569592793, 0.8715309584835421, 0.18325049374776115, 0.9252926529987606, 0.7270927226767884, 0.5170951810020719, 61.14915117476187, 229.55722899835612, 128.416472815373, 158.1803228930038, 286.94370089578615, 161.2141934109253, 0.30123028451448786, -0.08998212095827296, 0.3288215846380077, -0.2941593505901302, 0.03410387262619052, 0.17223845526663117, 0.0, 0.0, 0.0, 0.0, 0.0, 0.0] - 1.6913869145272418]

[ GENERATION 36 ]
Best individual(s) (2)
[[(0.0, 1.0, 1.0, 1.0, 1.0, 0.0, 1.0, 1.0, 1.0, 1.0, 0.0, 2.0, 1.0, 1.0, 1.0, 0.0, 1.0, 0.0, 1.0, 0.0, 0.0, 0.38683051774448185, 0.8235267716909664, 0.5225317872911547, 0.030295722733626573, 0.8159386157604638, 0.0, 0.7287379907474946, 0.8934886977701312, 0.31393928974453755, 0.7077537193139489, 0.615173200341361, 0.0, 236.05805101598722, 195.36365999465798, 131.19994284693112, 88.51297805767594, 160.15391437746933, 0.0, 0.12341258991895776, 0.22873637079932574, 0.10270372345888923, -9.723757471488126E-4, 0.23390896284069973, 0.0, 0.0, 0.0, 0.0, 0.0, 0.0, 0.0] - 2.000078135726995, [(0.0, 1.0, 1.0, 1.0, 1.0, 1.0, 1.0, 1.0, 1.0, 1.0, 1.0, 2.0, 3.0, 1.0, 3.0, 2.0, 0.0, 1.0, 1.0, 1.0, 1.0, 0.07675345705172054, 0.24244950003500443, 0.6314759207247377, 0.5554790828901124, 0.682474062550241, 0.6742467334950588, 0.15285781569592793, 0.8715309584835421, 0.18325049374776115, 0.9252926529987606, 0.7270927226767884, 0.5170951810020719, 61.14915117476187, 229.55722899835612, 128.416472815373, 158.1803228930038, 286.94370089578615, 161.2141934109253, 0.30123028451448786, -0.08998212095827296, 0.3288215846380077, -0.2941593505901302, 0.03410387262619052, 0.17223845526663117, 0.0, 0.0, 0.0, 0.0, 0.0, 0.0] - 1.6913869145272418]

[ GENERATION 37 ]
Best individual(s) (2)
[[(0.0, 1.0, 1.0, 1.0, 1.0, 0.0, 1.0, 1.0, 1.0, 1.0, 0.0, 2.0, 1.0, 1.0, 1.0, 0.0, 1.0, 0.0, 1.0, 0.0, 0.0, 0.38683051774448185, 0.8235267716909664, 0.5225317872911547, 0.030295722733626573, 0.8159386157604638, 0.0, 0.7287379907474946, 0.8934886977701312, 0.31393928974453755, 0.7077537193139489, 0.615173200341361, 0.0, 236.05805101598722, 195.36365999465798, 131.19994284693112, 88.51297805767594, 160.15391437746933, 0.0, 0.12341258991895776, 0.22873637079932574, 0.10270372345888923, -9.723757471488126E-4, 0.23390896284069973, 0.0, 0.0, 0.0, 0.0, 0.0, 0.0, 0.0] - 2.000078135726995, [(0.0, 1.0, 1.0, 1.0, 1.0, 1.0, 1.0, 1.0, 1.0, 1.0, 1.0, 2.0, 3.0, 1.0, 3.0, 2.0, 0.0, 1.0, 1.0, 1.0, 1.0, 0.07675345705172054, 0.24244950003500443, 0.6314759207247377, 0.5554790828901124, 0.682474062550241, 0.6742467334950588, 0.15285781569592793, 0.8715309584835421, 0.18325049374776115, 0.9252926529987606, 0.7270927226767884, 0.5170951810020719, 61.14915117476187, 229.55722899835612, 128.416472815373, 158.1803228930038, 286.94370089578615, 161.2141934109253, 0.30123028451448786, -0.08998212095827296, 0.3288215846380077, -0.2941593505901302, 0.03410387262619052, 0.17223845526663117, 0.0, 0.0, 0.0, 0.0, 0.0, 0.0] - 1.6913869145272418]

[ GENERATION 38 ]
Best individual(s) (2)
[[(0.0, 1.0, 1.0, 1.0, 1.0, 0.0, 1.0, 1.0, 1.0, 1.0, 0.0, 2.0, 1.0, 1.0, 1.0, 0.0, 1.0, 0.0, 1.0, 0.0, 0.0, 0.38683051774448185, 0.8235267716909664, 0.5225317872911547, 0.030295722733626573, 0.8159386157604638, 0.0, 0.7287379907474946, 0.8934886977701312, 0.31393928974453755, 0.7077537193139489, 0.615173200341361, 0.0, 236.05805101598722, 195.36365999465798, 131.19994284693112, 88.51297805767594, 160.15391437746933, 0.0, 0.12341258991895776, 0.22873637079932574, 0.10270372345888923, -9.723757471488126E-4, 0.23390896284069973, 0.0, 0.0, 0.0, 0.0, 0.0, 0.0, 0.0] - 2.000078135726995, [(0.0, 1.0, 1.0, 1.0, 1.0, 1.0, 1.0, 1.0, 1.0, 1.0, 1.0, 4.0, 3.0, 1.0, 3.0, 2.0, 0.0, 1.0, 1.0, 1.0, 1.0, 0.07675345705172054, 0.24244950003500443, 0.6314759207247377, 0.5554790828901124, 0.682474062550241, 0.6742467334950588, 0.15285781569592793, 0.8715309584835421, 0.18325049374776115, 0.9252926529987606, 0.7270927226767884, 0.5170951810020719, 61.14915117476187, 229.55722899835612, 128.416472815373, 158.1803228930038, 286.94370089578615, 161.2141934109253, 0.30123028451448786, -0.08998212095827296, 0.3288215846380077, -0.2941593505901302, 0.03410387262619052, 0.17223845526663117, 0.0, 0.0, 0.0, 0.0, 0.0, 0.0] - 1.6994500534537453]

[ GENERATION 39 ]
Best individual(s) (2)
[[(0.0, 1.0, 1.0, 1.0, 1.0, 0.0, 1.0, 1.0, 1.0, 1.0, 0.0, 2.0, 1.0, 1.0, 1.0, 0.0, 1.0, 0.0, 1.0, 0.0, 0.0, 0.38683051774448185, 0.8235267716909664, 0.5225317872911547, 0.030295722733626573, 0.8159386157604638, 0.0, 0.7287379907474946, 0.8934886977701312, 0.31393928974453755, 0.7077537193139489, 0.615173200341361, 0.0, 71.68704597432443, 195.36365999465798, 131.19994284693112, 88.51297805767594, 160.15391437746933, 0.0, 0.12341258991895776, 0.22873637079932574, 0.10270372345888923, -9.723757471488126E-4, 0.23390896284069973, 0.0, 0.0, 0.0, 0.0, 0.0, 0.0, 0.0] - 2.000078135726995, [(0.0, 1.0, 1.0, 1.0, 1.0, 1.0, 2.0, 1.0, 1.0, 1.0, 0.0, 1.0, 3.0, 2.0, 1.0, 1.0, 0.0, 1.0, 1.0, 1.0, 1.0, 0.07387921085792348, 0.5938477955653194, 0.6575342129937849, 0.8431941933857761, 0.5174234612440528, 0.6087856220633797, 0.12603650373592712, 0.8327804534800426, 0.9318526335516496, 0.09078605413323138, 0.8898198971911109, 0.21047356422287922, 134.59970548947493, 336.71903314775204, 84.29245609101449, 255.5872884588019, 268.71418654808724, 268.8072638779857, -0.4928530597113562, -0.11412157411673651, 0.47582387536694215, -0.10970543036410052, 0.4404651704760276, 0.1164716748993817, 0.0, 0.0, 0.0, 0.0, 0.0, 0.0] - 1.7818955060897492]

[ GENERATION 40 ]
Best individual(s) (2)
[[(0.0, 1.0, 1.0, 1.0, 1.0, 0.0, 1.0, 1.0, 1.0, 1.0, 0.0, 2.0, 1.0, 1.0, 1.0, 0.0, 1.0, 0.0, 1.0, 0.0, 0.0, 0.38683051774448185, 0.8235267716909664, 0.5225317872911547, 0.030295722733626573, 0.8159386157604638, 0.0, 0.7287379907474946, 0.8934886977701312, 0.31393928974453755, 0.7077537193139489, 0.615173200341361, 0.0, 71.68704597432443, 195.36365999465798, 131.19994284693112, 88.51297805767594, 160.15391437746933, 0.0, 0.12341258991895776, 0.22873637079932574, 0.10270372345888923, -9.723757471488126E-4, 0.23390896284069973, 0.0, 0.0, 0.0, 0.0, 0.0, 0.0, 0.0] - 2.000078135726995, [(0.0, 1.0, 1.0, 1.0, 1.0, 1.0, 2.0, 1.0, 1.0, 1.0, 0.0, 1.0, 3.0, 2.0, 1.0, 1.0, 0.0, 1.0, 1.0, 1.0, 1.0, 0.07387921085792348, 0.5938477955653194, 0.6575342129937849, 0.8431941933857761, 0.5174234612440528, 0.6087856220633797, 0.12603650373592712, 0.8327804534800426, 0.9318526335516496, 0.09078605413323138, 0.8898198971911109, 0.21047356422287922, 134.59970548947493, 336.71903314775204, 84.29245609101449, 255.5872884588019, 268.71418654808724, 268.8072638779857, -0.4928530597113562, -0.11412157411673651, 0.47582387536694215, -0.10970543036410052, 0.4404651704760276, 0.1164716748993817, 0.0, 0.0, 0.0, 0.0, 0.0, 0.0] - 1.7818955060897492]

