0 - 0.008193628008787831 - -0.0021054361366320035
1 - 0.03823872065792481 - -0.004775285115889952
2 - 0.07904158408443133 - 6.742895478358433E-5
3 - 0.07904158408443133 - 8.67616774272998E-4
4 - 0.08851044345647097 - 0.0037282945251187498
5 - 0.08851044345647097 - 0.00402074698438355
6 - 0.08851044345647097 - -0.0023348614172315737
7 - 0.08851044345647097 - -0.006030314340629657
8 - 0.08851044345647097 - -0.003779018120500649
9 - 0.23402632276217142 - 0.004254610671705449
10 - 0.2709578263262908 - 0.01436577018224246
11 - 0.2709578263262908 - 0.02057534218899188
12 - 0.2709578263262908 - 0.022322246125296874
13 - 0.2709578263262908 - 0.005019024290148382
14 - 0.2709578263262908 - 0.006372456696044537
15 - 0.2709578263262908 - -0.002827057573328298
16 - 0.2709578263262908 - 0.010783154125632192
17 - 0.2709578263262908 - 0.022774518928933195
18 - 0.2709578263262908 - 0.035713163199246376
19 - 0.9242027841508389 - 0.05364334517992272
20 - 1.0792847613493601 - 0.05878868213480778
21 - 1.0792847613493601 - 0.020024695845446937
22 - 1.0792847613493601 - 0.02790831914203106
23 - 1.0792847613493601 - 0.0363495934625583
24 - 1.0792847613493601 - 0.04535235528572229
25 - 1.0792847613493601 - 0.05505288812341559
26 - 1.0792847613493601 - 0.07390543829911622
27 - 1.0792847613493601 - 0.07804464299047444
28 - 1.0792847613493601 - 0.04105485433896926
29 - 1.0792847613493601 - 0.03168238870646746
30 - 1.0792847613493601 - 0.046497177666800164
31 - 1.0792847613493601 - 0.056686054041541256
32 - 1.0792847613493601 - 0.08273505902902499
33 - 1.0792847613493601 - 0.12470919322935514
34 - 1.0792847613493601 - 0.12266839226130588
35 - 1.0792847613493601 - 0.055771732882009636
36 - 1.0792847613493601 - 0.05781259638847892
37 - 1.0792847613493601 - 0.07425804445421819
38 - 1.0792847613493601 - 0.08999099170910388
39 - 1.0792847613493601 - 0.10497475730273435
40 - 1.0792847613493601 - 0.130789066615204
41 - 1.0792847613493601 - 0.1364872820172362
42 - 1.0792847613493601 - 0.06518816633935787
43 - 1.0792847613493601 - 0.06905813484758257
44 - 1.0792847613493601 - 0.08859358981660385
45 - 1.0792847613493601 - 0.09912951432926397
46 - 1.0792847613493601 - 0.11855457085105933
47 - 1.0792847613493601 - 0.16359213039663395
48 - 1.0792847613493601 - 0.1748165445454773
49 - 1.0792847613493601 - 0.10658215948385223
50 - 1.0792847613493601 - 0.0681214899143591
51 - 1.0792847613493601 - 0.08568046876333332
52 - 1.0792847613493601 - 0.10477488642039437
53 - 1.0792847613493601 - 0.11550252544261941
54 - 1.0792847613493601 - 0.17107298584274147
55 - 1.0792847613493601 - 0.17476247340867598
56 - 1.0792847613493601 - 0.1096640043051351
57 - 1.0792847613493601 - 0.0902340740825942
58 - 1.0792847613493601 - 0.11297690866153665
59 - 1.2906497066219649 - 0.14219824393374433
60 - 1.2906497066219649 - 0.16121806692484825
61 - 1.2906497066219649 - 0.2146104251985283
62 - 1.2906497066219649 - 0.2359579739511295
63 - 1.2906497066219649 - 0.13469060005227218
64 - 1.2906497066219649 - 0.11665719275319131
65 - 1.2906497066219649 - 0.16057975920421694
66 - 1.2906497066219649 - 0.16975629315393845
67 - 1.2906497066219649 - 0.18729915207826714
68 - 1.2906497066219649 - 0.24851939142349394
69 - 1.3037792881329855 - 0.27073882278709804
70 - 1.3037792881329855 - 0.14353030118281213
71 - 1.3037792881329855 - 0.10085072071587398
72 - 1.3072758009036383 - 0.13016580397001237
73 - 1.3072758009036383 - 0.1357538046589131
74 - 1.3072758009036383 - 0.1625250217691791
75 - 1.3914830062538386 - 0.26629483623825456
76 - 1.3914830062538386 - 0.30849313800841616
77 - 1.3914830062538386 - 0.20193912010538045
