0 - 1.5137579246458495 - 0.28428105152822847
1 - 1.5137579246458495 - 0.30702275979208143
2 - 1.5137579246458495 - 0.39831285109576064
3 - 1.5137579246458495 - 0.42218420823578856
4 - 1.6163169705038662 - 0.5734071504673516
5 - 1.678031432971564 - 0.6064183347782351
6 - 1.678031432971564 - 0.5841417981747006
7 - 1.7774482214342018 - 0.6201985436382301
8 - 1.7774482214342018 - 0.6293268435183859
9 - 1.7774482214342018 - 0.7202604007344747
10 - 1.7774482214342018 - 0.7399451528868334
11 - 1.7774482214342018 - 0.8673495617944669
12 - 1.7774482214342018 - 0.8944945410586014
13 - 1.7774482214342018 - 0.8381422581379662
14 - 1.7774482214342018 - 0.681441656995111
15 - 1.7774482214342018 - 0.6765056877259547
16 - 1.7774482214342018 - 0.7413204921289257
17 - 1.7774482214342018 - 0.7551701493252495
18 - 1.7774482214342018 - 0.8312539021422112
19 - 1.7774482214342018 - 0.8724230080937364
20 - 1.7774482214342018 - 0.8187617505931835
21 - 1.7774482214342018 - 0.6816716628160007
22 - 1.7774482214342018 - 0.7087814333230156
23 - 1.7774482214342018 - 0.7480419247841495
24 - 1.7774482214342018 - 0.7934409383175767
25 - 1.7774482214342018 - 0.8722214531568018
26 - 1.7774482214342018 - 0.881592421492617
27 - 1.7774482214342018 - 0.7894487644509439
28 - 1.7774482214342018 - 0.796622039091187
29 - 1.7774482214342018 - 0.7794635991799371
30 - 1.7774482214342018 - 0.8175027798233898
31 - 1.7774482214342018 - 0.8317545268451656
32 - 1.7774482214342018 - 0.9353590003859289
33 - 1.7774482214342018 - 0.953083837801735
34 - 1.7774482214342018 - 0.8720758619873992
35 - 1.7774482214342018 - 0.852582863632706
36 - 1.7774482214342018 - 0.8558053070754357
37 - 1.7774482214342018 - 0.8760014803452723
38 - 1.7774482214342018 - 0.897622429050662
39 - 2.0319208265333986 - 0.9609142630415664
40 - 2.0319208265333986 - 0.9740262293727024
41 - 2.0319208265333986 - 0.8781512172789366
42 - 2.0319208265333986 - 0.8215141067369547
43 - 2.0319208265333986 - 0.883428556420245
44 - 2.24116842824116 - 0.9294225317935467
45 - 2.24116842824116 - 0.9500524758548211
