0 - 0.002900251497824987 - -0.005312991453441402
1 - 0.015190655986467997 - -0.008110351447612628
2 - 0.03043820522725582 - -0.004207732271606801
3 - 0.03043820522725582 - -0.0015960035553689526
4 - 0.09769555367529392 - 0.0014806060286597738
5 - 0.09769555367529392 - 0.0019121836364623351
6 - 0.09769555367529392 - -0.0038125058135847225
7 - 0.09769555367529392 - -0.01343282625007608
8 - 0.09769555367529392 - -0.010282509539677754
9 - 0.09769555367529392 - -0.0042155431875714085
10 - 0.09769555367529392 - -0.002129708211935697
11 - 0.09769555367529392 - 0.006385513745408393
12 - 0.09769555367529392 - 0.008010169341226479
13 - 0.09769555367529392 - 0.0041649741402337275
14 - 0.09769555367529392 - -0.01675496463719658
15 - 0.09769555367529392 - -0.019196800308030414
16 - 0.13951806103189787 - -0.004112701620142616
17 - 0.1487682998801271 - 0.0019065377891577865
18 - 0.1487682998801271 - 0.005663403396320066
19 - 0.1487682998801271 - 0.012221605634840671
20 - 0.1487682998801271 - 0.009261612441429559
21 - 0.1487682998801271 - 0.0029855829641504297
22 - 0.1487682998801271 - -0.004460035731505437
23 - 0.1487682998801271 - 0.0019849468629339157
24 - 0.1487682998801271 - 0.008091879648181931
25 - 0.1999300946481526 - 0.022207218470687927
26 - 0.1999300946481526 - 0.026046232658579062
27 - 0.1999300946481526 - 0.017960987217835886
28 - 0.1999300946481526 - -0.008987544239062116
29 - 0.1999300946481526 - -0.01123902394566054
30 - 0.1999300946481526 - 0.005250140212786695
31 - 0.1999300946481526 - 0.016013184534773853
32 - 0.1999300946481526 - 0.030536603238397214
33 - 0.1999300946481526 - 0.04371540998684699
34 - 0.1999300946481526 - 0.04632891555672057
35 - 0.2009126078337431 - 0.017352262832573614
36 - 0.2009126078337431 - 0.014079008911915792
37 - 0.2009126078337431 - 0.02344191186331348
38 - 0.2009126078337431 - 0.0340604923844997
39 - 0.2152947032203277 - 0.045183404514439945
40 - 0.2896756757982075 - 0.05978578472083125
41 - 0.40303009739145634 - 0.0552624390846783
42 - 0.40303009739145634 - 0.010546705771448613
43 - 0.7266809917986393 - 0.022134930552711016
44 - 0.7266809917986393 - 0.03144985764816132
45 - 0.7266809917986393 - 0.04958940217711641
46 - 0.7266809917986393 - 0.05867128195653397
47 - 0.7266809917986393 - 0.06905144774209476
48 - 0.7266809917986393 - 0.05830300918518333
49 - 0.7266809917986393 - 0.03061190037828661
50 - 0.7266809917986393 - 0.0297769092215458
51 - 0.7266809917986393 - 0.04245669377531157
52 - 0.7266809917986393 - 0.04717214736321087
53 - 0.7266809917986393 - 0.057513043695944364
54 - 0.7274205128351847 - 0.08456751040750533
55 - 0.7274205128351847 - 0.086519351224415
56 - 0.7274205128351847 - 0.04886551186827999
57 - 0.7274205128351847 - 0.0207058434538097
58 - 0.7274205128351847 - 0.042320699017336656
59 - 0.7274205128351847 - 0.05119049132037616
60 - 0.7274205128351847 - 0.06234653235447087
61 - 0.7274205128351847 - 0.09899034912385109
62 - 0.7274205128351847 - 0.09912512428466777
63 - 0.7274205128351847 - 0.037098197269090936
64 - 0.7274205128351847 - 0.039029197239912425
65 - 0.7274205128351847 - 0.054512695000327446
66 - 0.7274205128351847 - 0.06439596272769751
67 - 0.7274205128351847 - 0.07063508952760456
68 - 0.7274205128351847 - 0.10168488173667964
69 - 0.7274205128351847 - 0.10364253712066177
70 - 0.7274205128351847 - 0.044338131401891585
71 - 0.7274205128351847 - 0.044669216178808716
72 - 0.7274205128351847 - 0.06375409468195964
73 - 0.7274205128351847 - 0.06882438609689415
74 - 0.7274205128351847 - 0.07689723704602026
75 - 0.7274205128351847 - 0.10265963690074083
76 - 0.7274205128351847 - 0.11740912264228731
77 - 0.7274205128351847 - 0.05973159670698808
78 - 0.7274205128351847 - 0.04905489558586851
79 - 0.7274205128351847 - 0.07629564799154955
