[ GENERATION 0 ]
Best individual(s) (2)
[[(0.0, 1.0, 1.0, 1.0, 1.0, 1.0, 1.0, 3.0, 1.0, 0.0, 0.0, 2.0, 1.0, 2.0, 3.0, 2.0, 1.0, 0.0, 0.0, 0.0, 0.0, 0.8244051053984575, 0.6801747734414645, 0.03569034879616051, 0.3660065024840915, 0.37224329672933554, 0.8073552929165023, 0.8137935831431691, 0.9056112442655108, 0.7072848047374709, 0.7185716218458219, 0.8900511119786934, 0.05569920289855268, 156.50512932734563, 70.04180237962237, 110.36956760108512, 152.63030243105825, 344.2128162699203, 213.8319734414153, -0.43461244903948093, -0.034626970951867175, 0.39961656009962354, -0.348059133933853, -0.31374468181670523, -0.2845046504801072, 0.0, 0.0, 0.0, 0.0, 0.0, 0.0] - 0.7745430934494094, [(0.0, 1.0, 1.0, 1.0, 1.0, 1.0, 3.0, 2.0, 0.0, 0.0, 0.0, 1.0, 0.0, 4.0, 2.0, 3.0, 1.0, 0.0, 0.0, 1.0, 1.0, 0.8723791314497831, 0.19927665083282486, 0.7845300830746452, 0.6063117363656315, 0.040868227902004395, 0.767779532725938, 0.7110564993453703, 0.7026661232848406, 0.8056089495373295, 0.5779047678168423, 0.0034820459810552817, 0.5432567436535812, 199.72444772549025, 293.2171245183612, 344.2155005117155, 154.83071082401594, 68.35341106729359, 35.10820618854238, -0.3371053037496231, -0.2775059243777993, -0.4893417522989245, 0.22233073611930787, 0.19202247498871972, 0.46065364814212495, 0.0, 0.0, 0.0, 0.0, 0.0, 0.0] - 0.6463990495764218]

[ GENERATION 1 ]
Best individual(s) (2)
[[(0.0, 1.0, 1.0, 1.0, 1.0, 1.0, 1.0, 3.0, 1.0, 0.0, 0.0, 2.0, 1.0, 2.0, 3.0, 2.0, 1.0, 0.0, 0.0, 0.0, 0.0, 0.8244051053984575, 0.6801747734414645, 0.03569034879616051, 0.3660065024840915, 0.37224329672933554, 0.8073552929165023, 0.8137935831431691, 0.9056112442655108, 0.7072848047374709, 0.7185716218458219, 0.8900511119786934, 0.05569920289855268, 156.50512932734563, 70.04180237962237, 110.36956760108512, 152.63030243105825, 344.2128162699203, 213.8319734414153, -0.43461244903948093, -0.034626970951867175, 0.39961656009962354, -0.348059133933853, -0.31374468181670523, -0.2845046504801072, 0.0, 0.0, 0.0, 0.0, 0.0, 0.0] - 0.7745430934494094, [(0.0, 1.0, 1.0, 1.0, 1.0, 1.0, 3.0, 2.0, 0.0, 0.0, 0.0, 1.0, 0.0, 4.0, 2.0, 3.0, 1.0, 0.0, 0.0, 1.0, 1.0, 0.8723791314497831, 0.19927665083282486, 0.7845300830746452, 0.6063117363656315, 0.040868227902004395, 0.767779532725938, 0.7110564993453703, 0.7026661232848406, 0.8056089495373295, 0.5779047678168423, 0.0034820459810552817, 0.5432567436535812, 199.72444772549025, 293.2171245183612, 344.2155005117155, 154.83071082401594, 68.35341106729359, 35.10820618854238, -0.3371053037496231, -0.2775059243777993, -0.4893417522989245, 0.22233073611930787, 0.19202247498871972, 0.46065364814212495, 0.0, 0.0, 0.0, 0.0, 0.0, 0.0] - 0.6463990495764218]

[ GENERATION 2 ]
Best individual(s) (2)
[[(0.0, 1.0, 1.0, 1.0, 1.0, 1.0, 2.0, 3.0, 0.0, 0.0, 0.0, 2.0, 1.0, 1.0, 3.0, 2.0, 1.0, 1.0, 0.0, 1.0, 0.0, 0.3605903409545991, 0.9802143152395423, 0.12582052471438354, 0.1064986237434028, 0.2648102105233191, 0.019625418363370395, 0.03465762451885235, 0.3508536993311894, 0.1325853427232151, 0.3834670986105796, 0.5375964863614333, 0.6098246410849827, 186.45811747566333, 117.59528016152015, 127.97400166463493, 171.78342699680505, 35.84387839708547, 347.5530674638043, 0.14292472464160433, 0.022402908856650083, 0.3586050422046151, -0.23366532540589746, -0.07358479167644394, -0.0266655473935985, 0.0, 0.0, 0.0, 0.0, 0.0, 0.0] - 0.8108281428135655, [(0.0, 1.0, 1.0, 1.0, 1.0, 1.0, 1.0, 1.0, 3.0, 0.0, 0.0, 1.0, 3.0, 2.0, 3.0, 1.0, 1.0, 1.0, 0.0, 0.0, 1.0, 0.686779853464492, 0.3718698864952693, 0.3766329067465445, 0.31701501308915137, 0.44146852663089786, 0.09549550018968311, 0.14449763175758712, 0.4192717020180362, 0.6560912213856348, 0.8712342165111104, 0.017864509461137823, 0.44906526374982536, 98.53050719204577, 140.49511429540365, 129.9178505822345, 325.7331576383129, 47.828266113828114, 185.4960036782768, -0.19967569704610255, -0.0253579237317475, -0.2721635302555203, -0.05292446391687655, -0.03611655898525523, 0.3729836180900544, 0.0, 0.0, 0.0, 0.0, 0.0, 0.0] - 0.7803762584012637]

[ GENERATION 3 ]
Best individual(s) (2)
[[(0.0, 1.0, 1.0, 1.0, 1.0, 1.0, 2.0, 3.0, 0.0, 0.0, 0.0, 2.0, 1.0, 1.0, 3.0, 2.0, 1.0, 1.0, 0.0, 1.0, 0.0, 0.3605903409545991, 0.9802143152395423, 0.12582052471438354, 0.1064986237434028, 0.2648102105233191, 0.019625418363370395, 0.03465762451885235, 0.3508536993311894, 0.1325853427232151, 0.3834670986105796, 0.5375964863614333, 0.6098246410849827, 186.45811747566333, 117.59528016152015, 127.97400166463493, 171.78342699680505, 35.84387839708547, 347.5530674638043, 0.14292472464160433, 0.022402908856650083, 0.3586050422046151, -0.23366532540589746, -0.07358479167644394, -0.0266655473935985, 0.0, 0.0, 0.0, 0.0, 0.0, 0.0] - 0.8108281428135655, [(0.0, 1.0, 1.0, 1.0, 1.0, 1.0, 1.0, 1.0, 3.0, 0.0, 0.0, 1.0, 3.0, 2.0, 3.0, 1.0, 1.0, 1.0, 0.0, 0.0, 1.0, 0.686779853464492, 0.3718698864952693, 0.3766329067465445, 0.31701501308915137, 0.44146852663089786, 0.09549550018968311, 0.14449763175758712, 0.4192717020180362, 0.6560912213856348, 0.8712342165111104, 0.017864509461137823, 0.44906526374982536, 98.53050719204577, 140.49511429540365, 129.9178505822345, 325.7331576383129, 47.828266113828114, 185.4960036782768, -0.19967569704610255, -0.0253579237317475, -0.2721635302555203, -0.05292446391687655, -0.03611655898525523, 0.3729836180900544, 0.0, 0.0, 0.0, 0.0, 0.0, 0.0] - 0.7803762584012637]

[ GENERATION 4 ]
Best individual(s) (2)
[[(0.0, 1.0, 1.0, 1.0, 1.0, 1.0, 2.0, 0.0, 1.0, 2.0, 0.0, 1.0, 2.0, 1.0, 3.0, 1.0, 0.0, 1.0, 1.0, 1.0, 1.0, 0.9656987561807786, 0.17423280604219482, 0.5562599407860804, 0.12153379325611591, 0.965474045376716, 0.15367495972123302, 0.4731632297045447, 0.3432453919451506, 0.6488670515737106, 0.3973809705218342, 0.28507149854052527, 0.5536673127667845, 126.0958204198063, 159.92179648288564, 235.04416386264623, 129.45769897048368, 226.77411030772606, 97.60210241197807, 0.34887206633959833, 0.003972782492669857, 0.2342370235034874, -0.03157884300388303, -0.48683401910667135, -0.44106254587684735, 0.0, 0.0, 0.0, 0.0, 0.0, 0.0] - 1.4306190018030038, [(0.0, 1.0, 1.0, 1.0, 1.0, 1.0, 1.0, 3.0, 1.0, 0.0, 0.0, 2.0, 3.0, 1.0, 2.0, 1.0, 0.0, 1.0, 0.0, 0.0, 0.0, 0.9701738782246461, 0.5550943707969384, 0.38302817825229507, 0.04365895879280024, 0.3380787640989418, 0.29697344381914115, 0.3427238695938918, 0.9024339703847418, 0.6308110811235348, 0.7645875631375989, 0.5279255496263826, 0.8564485175516854, 241.9583119506484, 214.09744240619528, 324.82436779889827, 178.4977328770273, 325.2151314860476, 341.27848076333817, 0.38756619689128347, -0.3344779570241091, 0.44434528163256304, -0.3422904628804285, 0.35169777913635636, -0.3629807298486899, 0.0, 0.0, 0.0, 0.0, 0.0, 0.0] - 0.9777049663132094]

[ GENERATION 5 ]
Best individual(s) (2)
[[(0.0, 1.0, 1.0, 1.0, 1.0, 1.0, 2.0, 0.0, 1.0, 2.0, 0.0, 1.0, 2.0, 1.0, 3.0, 1.0, 0.0, 1.0, 1.0, 1.0, 1.0, 0.9656987561807786, 0.17423280604219482, 0.5562599407860804, 0.12153379325611591, 0.965474045376716, 0.15367495972123302, 0.4731632297045447, 0.3432453919451506, 0.6488670515737106, 0.3973809705218342, 0.28507149854052527, 0.5536673127667845, 126.0958204198063, 159.92179648288564, 235.04416386264623, 129.45769897048368, 226.77411030772606, 97.60210241197807, 0.34887206633959833, 0.003972782492669857, 0.2342370235034874, -0.03157884300388303, -0.48683401910667135, -0.44106254587684735, 0.0, 0.0, 0.0, 0.0, 0.0, 0.0] - 1.4306190018030038, [(0.0, 1.0, 1.0, 1.0, 1.0, 1.0, 1.0, 3.0, 1.0, 0.0, 0.0, 2.0, 3.0, 1.0, 2.0, 1.0, 0.0, 1.0, 0.0, 0.0, 0.0, 0.9701738782246461, 0.5550943707969384, 0.38302817825229507, 0.04365895879280024, 0.3380787640989418, 0.29697344381914115, 0.3427238695938918, 0.9024339703847418, 0.6308110811235348, 0.7645875631375989, 0.5279255496263826, 0.8564485175516854, 241.9583119506484, 214.09744240619528, 324.82436779889827, 178.4977328770273, 325.2151314860476, 341.27848076333817, 0.38756619689128347, -0.3344779570241091, 0.44434528163256304, -0.3422904628804285, 0.35169777913635636, -0.3629807298486899, 0.0, 0.0, 0.0, 0.0, 0.0, 0.0] - 0.9777049663132094]

[ GENERATION 6 ]
Best individual(s) (2)
[[(0.0, 1.0, 1.0, 1.0, 1.0, 1.0, 2.0, 0.0, 1.0, 2.0, 0.0, 1.0, 2.0, 1.0, 3.0, 1.0, 0.0, 1.0, 1.0, 1.0, 1.0, 0.9656987561807786, 0.17423280604219482, 0.5562599407860804, 0.12153379325611591, 0.965474045376716, 0.15367495972123302, 0.4731632297045447, 0.3432453919451506, 0.6488670515737106, 0.3973809705218342, 0.28507149854052527, 0.5536673127667845, 126.0958204198063, 159.92179648288564, 235.04416386264623, 129.45769897048368, 226.77411030772606, 97.60210241197807, 0.34887206633959833, 0.003972782492669857, 0.2342370235034874, -0.03157884300388303, -0.48683401910667135, -0.44106254587684735, 0.0, 0.0, 0.0, 0.0, 0.0, 0.0] - 1.4306190018030038, [(0.0, 1.0, 1.0, 1.0, 0.0, 0.0, 1.0, 1.0, 1.0, 0.0, 0.0, 3.0, 1.0, 1.0, 0.0, 0.0, 1.0, 1.0, 1.0, 0.0, 0.0, 0.10160472663041864, 0.18677026712308542, 0.3985609953362701, 0.10667961909409607, 0.0, 0.0, 0.7884276117978993, 0.030930046179042825, 0.5863278381392093, 0.809377820562265, 0.0, 0.0, 177.5309990774153, 207.99926795826178, 172.73940574265706, 67.11479224700986, 0.0, 0.0, -0.15285197115083748, 0.32248967952078067, -0.3960867013660624, 0.3434728015273687, 0.0, 0.0, 0.0, 0.0, 0.0, 0.0, 0.0, 0.0] - 1.0539165232540206]

[ GENERATION 7 ]
Best individual(s) (2)
[[(0.0, 1.0, 1.0, 1.0, 1.0, 1.0, 2.0, 0.0, 1.0, 2.0, 0.0, 1.0, 2.0, 1.0, 3.0, 1.0, 0.0, 1.0, 1.0, 1.0, 1.0, 0.9656987561807786, 0.17423280604219482, 0.5562599407860804, 0.12153379325611591, 0.965474045376716, 0.15367495972123302, 0.4731632297045447, 0.3432453919451506, 0.6488670515737106, 0.3973809705218342, 0.28507149854052527, 0.5536673127667845, 126.0958204198063, 159.92179648288564, 235.04416386264623, 129.45769897048368, 226.77411030772606, 97.60210241197807, 0.34887206633959833, 0.003972782492669857, 0.2342370235034874, -0.03157884300388303, -0.48683401910667135, -0.44106254587684735, 0.0, 0.0, 0.0, 0.0, 0.0, 0.0] - 1.4306190018030038, [(0.0, 1.0, 1.0, 1.0, 1.0, 0.0, 1.0, 1.0, 1.0, 1.0, 0.0, 3.0, 1.0, 1.0, 1.0, 0.0, 1.0, 1.0, 1.0, 1.0, 0.0, 0.10160472663041864, 0.18677026712308542, 0.3985609953362701, 0.10667961909409607, 0.8308714898862222, 0.0, 0.7884276117978993, 0.030930046179042825, 0.5863278381392093, 0.809377820562265, 0.327654221789645, 0.0, 177.5309990774153, 207.99926795826178, 172.73940574265706, 67.11479224700986, 100.93331343196103, 0.0, -0.15285197115083748, 0.32248967952078067, -0.3960867013660624, 0.3434728015273687, 0.4906558222624209, 0.0, 0.0, 0.0, 0.0, 0.0, 0.0, 0.0] - 1.1583573842257793]

[ GENERATION 8 ]
Best individual(s) (2)
[[(0.0, 1.0, 1.0, 1.0, 1.0, 1.0, 2.0, 0.0, 1.0, 2.0, 0.0, 1.0, 2.0, 1.0, 3.0, 1.0, 0.0, 1.0, 1.0, 1.0, 1.0, 0.9656987561807786, 0.17423280604219482, 0.5562599407860804, 0.12153379325611591, 0.965474045376716, 0.15367495972123302, 0.4731632297045447, 0.3432453919451506, 0.6488670515737106, 0.3973809705218342, 0.28507149854052527, 0.5536673127667845, 126.0958204198063, 159.92179648288564, 235.04416386264623, 129.45769897048368, 226.77411030772606, 97.60210241197807, 0.34887206633959833, 0.003972782492669857, 0.2342370235034874, -0.03157884300388303, -0.48683401910667135, -0.44106254587684735, 0.0, 0.0, 0.0, 0.0, 0.0, 0.0] - 1.4306190018030038, [(0.0, 1.0, 1.0, 1.0, 1.0, 1.0, 1.0, 3.0, 1.0, 0.0, 0.0, 2.0, 3.0, 1.0, 2.0, 1.0, 0.0, 1.0, 0.0, 0.0, 0.0, 0.9701738782246461, 0.5550943707969384, 0.38302817825229507, 0.04365895879280024, 0.3380787640989418, 0.29697344381914115, 0.3427238695938918, 0.9024339703847418, 0.6308110811235348, 0.7645875631375989, 0.5279255496263826, 0.8564485175516854, 241.9583119506484, 214.09744240619528, 324.82436779889827, 178.4977328770273, 325.2151314860476, 341.27848076333817, 0.38756619689128347, -0.3344779570241091, 0.44434528163256304, -0.3422904628804285, 0.35169777913635636, -0.3629807298486899, 0.0, 0.0, 0.0, 0.0, 0.0, 0.0] - 0.9777049663132094]

[ GENERATION 9 ]
Best individual(s) (2)
[[(0.0, 1.0, 1.0, 1.0, 1.0, 1.0, 2.0, 0.0, 1.0, 2.0, 0.0, 1.0, 2.0, 1.0, 3.0, 1.0, 0.0, 1.0, 1.0, 0.0, 1.0, 0.9656987561807786, 0.17423280604219482, 0.5562599407860804, 0.12153379325611591, 0.965474045376716, 0.15367495972123302, 0.4731632297045447, 0.3432453919451506, 0.6488670515737106, 0.3973809705218342, 0.28507149854052527, 0.5536673127667845, 126.0958204198063, 159.92179648288564, 235.04416386264623, 129.45769897048368, 226.77411030772606, 97.60210241197807, 0.34887206633959833, 0.003972782492669857, 0.2342370235034874, -0.03157884300388303, -0.48683401910667135, -0.44106254587684735, 0.0, 0.0, 0.0, 0.0, 0.0, 0.0] - 1.4565101241034295, [(0.0, 1.0, 1.0, 1.0, 1.0, 1.0, 1.0, 3.0, 1.0, 0.0, 0.0, 2.0, 3.0, 1.0, 2.0, 1.0, 0.0, 1.0, 0.0, 0.0, 0.0, 0.9701738782246461, 0.5550943707969384, 0.38302817825229507, 0.04365895879280024, 0.3380787640989418, 0.29697344381914115, 0.3427238695938918, 0.9024339703847418, 0.6308110811235348, 0.7645875631375989, 0.5279255496263826, 0.8564485175516854, 241.9583119506484, 214.09744240619528, 324.82436779889827, 178.4977328770273, 325.2151314860476, 341.27848076333817, 0.38756619689128347, -0.3344779570241091, 0.44434528163256304, -0.3422904628804285, 0.35169777913635636, -0.3629807298486899, 0.0, 0.0, 0.0, 0.0, 0.0, 0.0] - 0.9777049663132094]

[ GENERATION 10 ]
Best individual(s) (2)
[[(0.0, 1.0, 1.0, 1.0, 1.0, 1.0, 2.0, 0.0, 1.0, 2.0, 0.0, 1.0, 2.0, 1.0, 3.0, 1.0, 0.0, 1.0, 1.0, 0.0, 1.0, 0.9656987561807786, 0.17423280604219482, 0.5562599407860804, 0.12153379325611591, 0.965474045376716, 0.15367495972123302, 0.4731632297045447, 0.3432453919451506, 0.6488670515737106, 0.3973809705218342, 0.28507149854052527, 0.5536673127667845, 126.0958204198063, 159.92179648288564, 235.04416386264623, 129.45769897048368, 226.77411030772606, 97.60210241197807, 0.34887206633959833, 0.003972782492669857, 0.2342370235034874, -0.03157884300388303, -0.48683401910667135, -0.44106254587684735, 0.0, 0.0, 0.0, 0.0, 0.0, 0.0] - 1.4565101241034295, [(0.0, 1.0, 1.0, 1.0, 1.0, 1.0, 1.0, 3.0, 1.0, 0.0, 0.0, 4.0, 2.0, 3.0, 1.0, 1.0, 1.0, 0.0, 1.0, 0.0, 0.0, 0.41604667432620057, 0.7178317077199843, 0.015483874313727664, 0.46928126293041084, 0.30433666495989464, 0.423138443713588, 0.22329327714544756, 0.3693202850330327, 0.3263242553420309, 0.1299312012371613, 0.211188179018582, 0.3011547679351445, 160.2741916162335, 55.838830748567915, 351.9197609640641, 111.63741963961344, 310.7488655470984, 120.65342891143219, 0.12553159785043633, -0.14653988918282146, -0.09892236625271245, -0.17167858298480987, 0.27229851299844077, 0.4553862527347564, 0.0, 0.0, 0.0, 0.0, 0.0, 0.0] - 1.0315038689393925]

[ GENERATION 11 ]
Best individual(s) (2)
[[(0.0, 1.0, 1.0, 1.0, 1.0, 1.0, 2.0, 0.0, 1.0, 2.0, 0.0, 1.0, 2.0, 1.0, 3.0, 1.0, 0.0, 1.0, 1.0, 0.0, 1.0, 0.9656987561807786, 0.17423280604219482, 0.5562599407860804, 0.12153379325611591, 0.965474045376716, 0.15367495972123302, 0.4731632297045447, 0.3432453919451506, 0.6488670515737106, 0.3973809705218342, 0.28507149854052527, 0.5536673127667845, 201.76363831298397, 121.70095059387754, 235.04416386264623, 129.45769897048368, 302.2059186171423, 97.60210241197807, 0.34887206633959833, 0.003972782492669857, 0.2342370235034874, -0.03157884300388303, -0.48683401910667135, -0.44106254587684735, 0.0, 0.0, 0.0, 0.0, 0.0, 0.0] - 1.4938841642745742, [(0.0, 1.0, 1.0, 1.0, 1.0, 1.0, 1.0, 1.0, 3.0, 0.0, 0.0, 1.0, 3.0, 2.0, 3.0, 1.0, 1.0, 1.0, 0.0, 0.0, 1.0, 0.686779853464492, 0.3718698864952693, 0.3766329067465445, 0.31701501308915137, 0.44146852663089786, 0.09549550018968311, 0.14449763175758712, 0.4192717020180362, 0.6560912213856348, 0.8712342165111104, 0.017864509461137823, 0.44906526374982536, 69.76714330521756, 62.93935063148954, 138.3171027816333, 43.58949656563864, 343.6087884240359, 205.27420929028054, -0.19967569704610255, -0.0253579237317475, -0.2721635302555203, -0.05292446391687655, -0.03611655898525523, 0.3729836180900544, 0.0, 0.0, 0.0, 0.0, 0.0, 0.0] - 1.4254261120554055]

[ GENERATION 12 ]
Best individual(s) (2)
[[(0.0, 1.0, 1.0, 1.0, 1.0, 0.0, 1.0, 1.0, 2.0, 0.0, 0.0, 1.0, 3.0, 2.0, 1.0, 0.0, 1.0, 1.0, 0.0, 1.0, 0.0, 0.686779853464492, 0.3718698864952693, 0.3766329067465445, 0.31701501308915137, 0.09549550018968311, 0.0, 0.14449763175758712, 0.4192717020180362, 0.6560912213856348, 0.8712342165111104, 0.44906526374982536, 0.0, 69.76714330521756, 62.93935063148954, 138.3171027816333, 43.58949656563864, 205.27420929028054, 0.0, -0.19967569704610255, -0.0253579237317475, -0.2721635302555203, -0.05292446391687655, 0.3729836180900544, 0.0, 0.0, 0.0, 0.0, 0.0, 0.0, 0.0] - 1.7765103673892924, [(0.0, 1.0, 1.0, 1.0, 1.0, 1.0, 2.0, 0.0, 1.0, 2.0, 0.0, 1.0, 2.0, 1.0, 3.0, 1.0, 0.0, 1.0, 1.0, 0.0, 1.0, 0.9656987561807786, 0.17423280604219482, 0.5562599407860804, 0.12153379325611591, 0.965474045376716, 0.15367495972123302, 0.4731632297045447, 0.3432453919451506, 0.6488670515737106, 0.3973809705218342, 0.28507149854052527, 0.5536673127667845, 201.76363831298397, 121.70095059387754, 235.04416386264623, 129.45769897048368, 302.2059186171423, 97.60210241197807, 0.34887206633959833, 0.003972782492669857, 0.2342370235034874, -0.03157884300388303, -0.48683401910667135, -0.44106254587684735, 0.0, 0.0, 0.0, 0.0, 0.0, 0.0] - 1.4938841642745742]

[ GENERATION 13 ]
Best individual(s) (2)
[[(0.0, 1.0, 1.0, 1.0, 1.0, 0.0, 1.0, 1.0, 2.0, 0.0, 0.0, 1.0, 3.0, 2.0, 1.0, 0.0, 1.0, 1.0, 0.0, 1.0, 0.0, 0.686779853464492, 0.3718698864952693, 0.3766329067465445, 0.31701501308915137, 0.09549550018968311, 0.0, 0.14449763175758712, 0.4192717020180362, 0.6560912213856348, 0.8712342165111104, 0.44906526374982536, 0.0, 69.76714330521756, 62.93935063148954, 138.3171027816333, 43.58949656563864, 205.27420929028054, 0.0, -0.19967569704610255, -0.0253579237317475, -0.2721635302555203, -0.05292446391687655, 0.3729836180900544, 0.0, 0.0, 0.0, 0.0, 0.0, 0.0, 0.0] - 1.7765103673892924, [(0.0, 1.0, 1.0, 1.0, 1.0, 1.0, 2.0, 0.0, 1.0, 2.0, 0.0, 1.0, 2.0, 1.0, 3.0, 1.0, 0.0, 1.0, 1.0, 0.0, 1.0, 0.9656987561807786, 0.17423280604219482, 0.5562599407860804, 0.12153379325611591, 0.965474045376716, 0.15367495972123302, 0.4731632297045447, 0.3432453919451506, 0.6488670515737106, 0.3973809705218342, 0.28507149854052527, 0.5536673127667845, 201.76363831298397, 121.70095059387754, 235.04416386264623, 129.45769897048368, 302.2059186171423, 97.60210241197807, 0.34887206633959833, 0.003972782492669857, 0.2342370235034874, -0.03157884300388303, -0.48683401910667135, -0.44106254587684735, 0.0, 0.0, 0.0, 0.0, 0.0, 0.0] - 1.4938841642745742]

[ GENERATION 14 ]
Best individual(s) (2)
[[(0.0, 1.0, 1.0, 1.0, 1.0, 1.0, 1.0, 1.0, 3.0, 0.0, 0.0, 1.0, 3.0, 2.0, 1.0, 3.0, 1.0, 1.0, 0.0, 1.0, 1.0, 0.686779853464492, 0.3718698864952693, 0.3766329067465445, 0.31701501308915137, 0.09549550018968311, 0.5488360677363363, 0.14449763175758712, 0.4192717020180362, 0.6560912213856348, 0.8712342165111104, 0.44906526374982536, 0.2527693609065609, 69.76714330521756, 62.93935063148954, 138.3171027816333, 43.58949656563864, 205.27420929028054, 271.2563802047541, -0.19967569704610255, -0.0253579237317475, -0.2721635302555203, -0.05292446391687655, 0.3729836180900544, -0.11968953292577844, 0.0, 0.0, 0.0, 0.0, 0.0, 0.0] - 1.9981926396951468, [(0.0, 1.0, 1.0, 1.0, 1.0, 1.0, 2.0, 0.0, 1.0, 2.0, 0.0, 1.0, 2.0, 1.0, 3.0, 1.0, 0.0, 1.0, 1.0, 0.0, 1.0, 0.9656987561807786, 0.17423280604219482, 0.5562599407860804, 0.12153379325611591, 0.965474045376716, 0.15367495972123302, 0.4731632297045447, 0.3432453919451506, 0.6488670515737106, 0.3973809705218342, 0.28507149854052527, 0.5536673127667845, 201.76363831298397, 121.70095059387754, 235.04416386264623, 129.45769897048368, 302.2059186171423, 97.60210241197807, 0.34887206633959833, 0.003972782492669857, 0.2342370235034874, -0.03157884300388303, -0.48683401910667135, -0.44106254587684735, 0.0, 0.0, 0.0, 0.0, 0.0, 0.0] - 1.4938841642745742]

[ GENERATION 15 ]
Best individual(s) (2)
[[(0.0, 1.0, 1.0, 1.0, 1.0, 1.0, 1.0, 1.0, 3.0, 0.0, 0.0, 1.0, 3.0, 2.0, 1.0, 3.0, 1.0, 1.0, 0.0, 1.0, 1.0, 0.686779853464492, 0.3718698864952693, 0.3766329067465445, 0.31701501308915137, 0.09549550018968311, 0.5488360677363363, 0.14449763175758712, 0.4192717020180362, 0.6560912213856348, 0.8712342165111104, 0.44906526374982536, 0.2527693609065609, 69.76714330521756, 62.93935063148954, 138.3171027816333, 43.58949656563864, 205.27420929028054, 271.2563802047541, -0.19967569704610255, -0.0253579237317475, -0.2721635302555203, -0.05292446391687655, 0.3729836180900544, -0.11968953292577844, 0.0, 0.0, 0.0, 0.0, 0.0, 0.0] - 1.9981926396951468, [(0.0, 1.0, 1.0, 1.0, 1.0, 1.0, 2.0, 0.0, 1.0, 2.0, 0.0, 1.0, 2.0, 1.0, 3.0, 1.0, 0.0, 1.0, 1.0, 0.0, 1.0, 0.9656987561807786, 0.17423280604219482, 0.5562599407860804, 0.12153379325611591, 0.965474045376716, 0.15367495972123302, 0.4731632297045447, 0.3432453919451506, 0.6488670515737106, 0.3973809705218342, 0.28507149854052527, 0.5536673127667845, 201.76363831298397, 121.70095059387754, 235.04416386264623, 129.45769897048368, 302.2059186171423, 97.60210241197807, 0.34887206633959833, 0.003972782492669857, 0.2342370235034874, -0.03157884300388303, -0.48683401910667135, -0.44106254587684735, 0.0, 0.0, 0.0, 0.0, 0.0, 0.0] - 1.4938841642745742]

[ GENERATION 16 ]
Best individual(s) (2)
[[(0.0, 1.0, 1.0, 1.0, 1.0, 1.0, 1.0, 1.0, 3.0, 0.0, 0.0, 1.0, 3.0, 2.0, 1.0, 3.0, 1.0, 1.0, 0.0, 1.0, 1.0, 0.686779853464492, 0.3718698864952693, 0.3766329067465445, 0.31701501308915137, 0.09549550018968311, 0.5488360677363363, 0.14449763175758712, 0.4192717020180362, 0.6560912213856348, 0.8712342165111104, 0.44906526374982536, 0.2527693609065609, 69.76714330521756, 62.93935063148954, 138.3171027816333, 43.58949656563864, 205.27420929028054, 271.2563802047541, -0.19967569704610255, -0.0253579237317475, -0.2721635302555203, -0.05292446391687655, 0.3729836180900544, -0.11968953292577844, 0.0, 0.0, 0.0, 0.0, 0.0, 0.0] - 1.9981926396951468, [(0.0, 1.0, 1.0, 1.0, 1.0, 1.0, 2.0, 0.0, 1.0, 2.0, 0.0, 1.0, 2.0, 1.0, 3.0, 1.0, 0.0, 1.0, 1.0, 0.0, 1.0, 0.9656987561807786, 0.17423280604219482, 0.5562599407860804, 0.12153379325611591, 0.965474045376716, 0.15367495972123302, 0.4731632297045447, 0.3432453919451506, 0.6488670515737106, 0.3973809705218342, 0.28507149854052527, 0.5536673127667845, 201.76363831298397, 121.70095059387754, 235.04416386264623, 129.45769897048368, 302.2059186171423, 97.60210241197807, 0.34887206633959833, 0.003972782492669857, 0.2342370235034874, -0.03157884300388303, -0.48683401910667135, -0.44106254587684735, 0.0, 0.0, 0.0, 0.0, 0.0, 0.0] - 1.4938841642745742]

[ GENERATION 17 ]
Best individual(s) (2)
[[(0.0, 1.0, 1.0, 1.0, 1.0, 1.0, 1.0, 1.0, 3.0, 0.0, 0.0, 1.0, 3.0, 2.0, 1.0, 3.0, 1.0, 1.0, 0.0, 1.0, 1.0, 0.686779853464492, 0.3718698864952693, 0.3766329067465445, 0.31701501308915137, 0.09549550018968311, 0.5488360677363363, 0.14449763175758712, 0.4192717020180362, 0.6560912213856348, 0.8712342165111104, 0.44906526374982536, 0.2527693609065609, 69.76714330521756, 62.93935063148954, 138.3171027816333, 43.58949656563864, 205.27420929028054, 271.2563802047541, -0.19967569704610255, -0.0253579237317475, -0.2721635302555203, -0.05292446391687655, 0.3729836180900544, -0.11968953292577844, 0.0, 0.0, 0.0, 0.0, 0.0, 0.0] - 1.9981926396951468, [(0.0, 1.0, 1.0, 1.0, 1.0, 1.0, 2.0, 1.0, 1.0, 0.0, 1.0, 1.0, 4.0, 1.0, 2.0, 1.0, 0.0, 1.0, 1.0, 1.0, 1.0, 0.8943058741314353, 0.5182353019569098, 0.05989900787758373, 0.3020462247343144, 0.5252648975497846, 0.2268066295830501, 0.1499081875661883, 0.34592900330542464, 0.5529814260609721, 0.45088765202211767, 0.6583102040533364, 0.5042909842971316, 303.45246212601376, 52.40434082657511, 291.6419333505554, 241.5353741094212, 17.134017958249785, 240.86114679698048, 0.1819808690848551, 0.12451762335997962, 0.20217201619122271, -0.13346784866355543, 0.4519143295204179, -0.2525445462197271, 0.0, 0.0, 0.0, 0.0, 0.0, 0.0] - 1.6210381529106728]

[ GENERATION 18 ]
Best individual(s) (2)
[[(0.0, 1.0, 1.0, 1.0, 1.0, 1.0, 1.0, 1.0, 2.0, 1.0, 0.0, 3.0, 2.0, 1.0, 2.0, 1.0, 1.0, 0.0, 1.0, 0.0, 1.0, 0.10160472663041864, 0.18677026712308542, 0.3985609953362701, 0.10667961909409607, 0.5152122891840563, 0.8308714898862222, 0.7884276117978993, 0.030930046179042825, 0.5863278381392093, 0.809377820562265, 0.11805682735524681, 0.327654221789645, 116.23025985646109, 212.8135853477948, 172.73940574265706, 129.46976088359722, 145.08563209552452, 100.93331343196103, -0.15285197115083748, 0.32248967952078067, -0.3960867013660624, 0.3434728015273687, -0.18578537266557593, 0.4906558222624209, 0.0, 0.0, 0.0, 0.0, 0.0, 0.0] - 2.356695127381547, [(0.0, 1.0, 1.0, 1.0, 1.0, 1.0, 1.0, 1.0, 3.0, 0.0, 0.0, 1.0, 3.0, 2.0, 1.0, 3.0, 1.0, 1.0, 0.0, 1.0, 1.0, 0.686779853464492, 0.3718698864952693, 0.3766329067465445, 0.31701501308915137, 0.09549550018968311, 0.5488360677363363, 0.14449763175758712, 0.4192717020180362, 0.6560912213856348, 0.8712342165111104, 0.44906526374982536, 0.2527693609065609, 69.76714330521756, 62.93935063148954, 138.3171027816333, 43.58949656563864, 205.27420929028054, 271.2563802047541, -0.19967569704610255, -0.0253579237317475, -0.2721635302555203, -0.05292446391687655, 0.3729836180900544, -0.11968953292577844, 0.0, 0.0, 0.0, 0.0, 0.0, 0.0] - 1.9981926396951468]

[ GENERATION 19 ]
Best individual(s) (2)
[[(0.0, 1.0, 1.0, 1.0, 1.0, 1.0, 1.0, 1.0, 2.0, 1.0, 0.0, 3.0, 2.0, 1.0, 2.0, 1.0, 1.0, 0.0, 1.0, 0.0, 1.0, 0.10160472663041864, 0.18677026712308542, 0.3985609953362701, 0.10667961909409607, 0.5152122891840563, 0.8308714898862222, 0.7884276117978993, 0.030930046179042825, 0.5863278381392093, 0.809377820562265, 0.11805682735524681, 0.327654221789645, 116.23025985646109, 212.8135853477948, 172.73940574265706, 129.46976088359722, 145.08563209552452, 100.93331343196103, -0.15285197115083748, 0.32248967952078067, -0.3960867013660624, 0.3434728015273687, -0.18578537266557593, 0.4906558222624209, 0.0, 0.0, 0.0, 0.0, 0.0, 0.0] - 2.356695127381547, [(0.0, 1.0, 1.0, 1.0, 1.0, 1.0, 1.0, 1.0, 3.0, 0.0, 0.0, 1.0, 3.0, 2.0, 1.0, 3.0, 1.0, 1.0, 0.0, 1.0, 1.0, 0.686779853464492, 0.3718698864952693, 0.3766329067465445, 0.31701501308915137, 0.09549550018968311, 0.5488360677363363, 0.14449763175758712, 0.4192717020180362, 0.6560912213856348, 0.8712342165111104, 0.44906526374982536, 0.2527693609065609, 69.76714330521756, 62.93935063148954, 138.3171027816333, 43.58949656563864, 205.27420929028054, 271.2563802047541, -0.19967569704610255, -0.0253579237317475, -0.2721635302555203, -0.05292446391687655, 0.3729836180900544, -0.11968953292577844, 0.0, 0.0, 0.0, 0.0, 0.0, 0.0] - 1.9981926396951468]

[ GENERATION 20 ]
Best individual(s) (2)
[[(0.0, 1.0, 1.0, 1.0, 1.0, 1.0, 1.0, 1.0, 2.0, 1.0, 0.0, 3.0, 2.0, 1.0, 2.0, 1.0, 1.0, 0.0, 1.0, 0.0, 1.0, 0.10160472663041864, 0.18677026712308542, 0.3985609953362701, 0.10667961909409607, 0.5152122891840563, 0.8308714898862222, 0.7884276117978993, 0.030930046179042825, 0.5863278381392093, 0.809377820562265, 0.11805682735524681, 0.327654221789645, 116.23025985646109, 212.8135853477948, 172.73940574265706, 129.46976088359722, 145.08563209552452, 100.93331343196103, -0.15285197115083748, 0.32248967952078067, -0.3960867013660624, 0.3434728015273687, -0.18578537266557593, 0.4906558222624209, 0.0, 0.0, 0.0, 0.0, 0.0, 0.0] - 2.356695127381547, [(0.0, 1.0, 1.0, 1.0, 1.0, 1.0, 1.0, 1.0, 3.0, 0.0, 0.0, 1.0, 3.0, 2.0, 1.0, 3.0, 1.0, 1.0, 0.0, 1.0, 1.0, 0.686779853464492, 0.3718698864952693, 0.3766329067465445, 0.31701501308915137, 0.09549550018968311, 0.5488360677363363, 0.14449763175758712, 0.4192717020180362, 0.6560912213856348, 0.8712342165111104, 0.44906526374982536, 0.2527693609065609, 69.76714330521756, 62.93935063148954, 138.3171027816333, 43.58949656563864, 205.27420929028054, 271.2563802047541, -0.19967569704610255, -0.0253579237317475, -0.2721635302555203, -0.05292446391687655, 0.3729836180900544, -0.11968953292577844, 0.0, 0.0, 0.0, 0.0, 0.0, 0.0] - 1.9981926396951468]

[ GENERATION 21 ]
Best individual(s) (2)
[[(0.0, 1.0, 1.0, 1.0, 1.0, 1.0, 1.0, 1.0, 2.0, 1.0, 0.0, 3.0, 2.0, 1.0, 2.0, 1.0, 1.0, 0.0, 1.0, 0.0, 1.0, 0.10160472663041864, 0.18677026712308542, 0.3985609953362701, 0.10667961909409607, 0.5152122891840563, 0.8308714898862222, 0.7884276117978993, 0.030930046179042825, 0.5863278381392093, 0.809377820562265, 0.11805682735524681, 0.327654221789645, 116.23025985646109, 212.8135853477948, 172.73940574265706, 129.46976088359722, 145.08563209552452, 100.93331343196103, -0.15285197115083748, 0.32248967952078067, -0.3960867013660624, 0.3434728015273687, -0.18578537266557593, 0.4906558222624209, 0.0, 0.0, 0.0, 0.0, 0.0, 0.0] - 2.356695127381547, [(0.0, 1.0, 1.0, 1.0, 1.0, 1.0, 1.0, 1.0, 3.0, 0.0, 0.0, 1.0, 3.0, 2.0, 1.0, 3.0, 1.0, 1.0, 0.0, 1.0, 1.0, 0.686779853464492, 0.3718698864952693, 0.3766329067465445, 0.31701501308915137, 0.09549550018968311, 0.5488360677363363, 0.14449763175758712, 0.4192717020180362, 0.6560912213856348, 0.8712342165111104, 0.44906526374982536, 0.2527693609065609, 69.76714330521756, 62.93935063148954, 138.3171027816333, 43.58949656563864, 205.27420929028054, 271.2563802047541, -0.19967569704610255, -0.0253579237317475, -0.2721635302555203, -0.05292446391687655, 0.3729836180900544, -0.11968953292577844, 0.0, 0.0, 0.0, 0.0, 0.0, 0.0] - 1.9981926396951468]

[ GENERATION 22 ]
Best individual(s) (2)
[[(0.0, 1.0, 1.0, 1.0, 1.0, 1.0, 1.0, 1.0, 2.0, 1.0, 0.0, 3.0, 2.0, 1.0, 2.0, 1.0, 1.0, 0.0, 1.0, 0.0, 1.0, 0.10160472663041864, 0.18677026712308542, 0.3985609953362701, 0.10667961909409607, 0.5152122891840563, 0.8308714898862222, 0.7884276117978993, 0.030930046179042825, 0.5863278381392093, 0.809377820562265, 0.11805682735524681, 0.327654221789645, 116.23025985646109, 212.8135853477948, 172.73940574265706, 129.46976088359722, 145.08563209552452, 100.93331343196103, -0.15285197115083748, 0.32248967952078067, -0.3960867013660624, 0.3434728015273687, -0.18578537266557593, 0.4906558222624209, 0.0, 0.0, 0.0, 0.0, 0.0, 0.0] - 2.356695127381547, [(0.0, 1.0, 1.0, 1.0, 1.0, 1.0, 1.0, 1.0, 3.0, 0.0, 0.0, 1.0, 3.0, 2.0, 1.0, 3.0, 1.0, 1.0, 0.0, 1.0, 1.0, 0.686779853464492, 0.3718698864952693, 0.3766329067465445, 0.31701501308915137, 0.09549550018968311, 0.5488360677363363, 0.14449763175758712, 0.4192717020180362, 0.6560912213856348, 0.8712342165111104, 0.44906526374982536, 0.2527693609065609, 69.76714330521756, 62.93935063148954, 138.3171027816333, 43.58949656563864, 205.27420929028054, 271.2563802047541, -0.19967569704610255, -0.0253579237317475, -0.2721635302555203, -0.05292446391687655, 0.3729836180900544, -0.11968953292577844, 0.0, 0.0, 0.0, 0.0, 0.0, 0.0] - 1.9981926396951468]

[ GENERATION 23 ]
Best individual(s) (2)
[[(0.0, 1.0, 1.0, 1.0, 1.0, 1.0, 1.0, 1.0, 2.0, 1.0, 0.0, 3.0, 2.0, 1.0, 2.0, 1.0, 1.0, 0.0, 1.0, 0.0, 1.0, 0.10160472663041864, 0.18677026712308542, 0.3985609953362701, 0.10667961909409607, 0.5152122891840563, 0.8308714898862222, 0.7884276117978993, 0.030930046179042825, 0.5863278381392093, 0.809377820562265, 0.11805682735524681, 0.327654221789645, 116.23025985646109, 212.8135853477948, 172.73940574265706, 129.46976088359722, 145.08563209552452, 100.93331343196103, -0.15285197115083748, 0.32248967952078067, -0.3960867013660624, 0.3434728015273687, -0.18578537266557593, 0.4906558222624209, 0.0, 0.0, 0.0, 0.0, 0.0, 0.0] - 2.356695127381547, [(0.0, 1.0, 1.0, 1.0, 1.0, 1.0, 1.0, 1.0, 3.0, 0.0, 0.0, 1.0, 3.0, 2.0, 1.0, 3.0, 1.0, 1.0, 0.0, 1.0, 1.0, 0.686779853464492, 0.3718698864952693, 0.3766329067465445, 0.31701501308915137, 0.09549550018968311, 0.5488360677363363, 0.14449763175758712, 0.4192717020180362, 0.6560912213856348, 0.8712342165111104, 0.44906526374982536, 0.2527693609065609, 69.76714330521756, 62.93935063148954, 138.3171027816333, 43.58949656563864, 205.27420929028054, 271.2563802047541, -0.19967569704610255, -0.0253579237317475, -0.2721635302555203, -0.05292446391687655, 0.3729836180900544, -0.11968953292577844, 0.0, 0.0, 0.0, 0.0, 0.0, 0.0] - 1.9981926396951468]

[ GENERATION 24 ]
Best individual(s) (2)
[[(0.0, 1.0, 1.0, 1.0, 1.0, 1.0, 1.0, 1.0, 2.0, 1.0, 0.0, 4.0, 2.0, 1.0, 2.0, 1.0, 0.0, 0.0, 1.0, 0.0, 1.0, 0.10160472663041864, 0.18677026712308542, 0.3985609953362701, 0.10667961909409607, 0.5152122891840563, 0.8308714898862222, 0.7884276117978993, 0.030930046179042825, 0.5863278381392093, 0.809377820562265, 0.11805682735524681, 0.327654221789645, 116.23025985646109, 212.8135853477948, 172.73940574265706, 129.46976088359722, 145.08563209552452, 100.93331343196103, -0.15285197115083748, 0.32248967952078067, -0.3960867013660624, 0.3434728015273687, -0.18578537266557593, 0.4906558222624209, 0.0, 0.0, 0.0, 0.0, 0.0, 0.0] - 2.4172231049208492, [(0.0, 1.0, 1.0, 1.0, 1.0, 1.0, 1.0, 1.0, 3.0, 0.0, 0.0, 1.0, 3.0, 2.0, 1.0, 3.0, 1.0, 1.0, 0.0, 1.0, 1.0, 0.686779853464492, 0.3718698864952693, 0.3766329067465445, 0.31701501308915137, 0.09549550018968311, 0.5488360677363363, 0.14449763175758712, 0.4192717020180362, 0.6560912213856348, 0.8712342165111104, 0.44906526374982536, 0.2527693609065609, 69.76714330521756, 62.93935063148954, 138.3171027816333, 43.58949656563864, 205.27420929028054, 271.2563802047541, -0.19967569704610255, -0.0253579237317475, -0.2721635302555203, -0.05292446391687655, 0.3729836180900544, -0.11968953292577844, 0.0, 0.0, 0.0, 0.0, 0.0, 0.0] - 1.9981926396951468]

[ GENERATION 25 ]
Best individual(s) (2)
[[(0.0, 1.0, 1.0, 1.0, 1.0, 1.0, 1.0, 1.0, 2.0, 1.0, 0.0, 4.0, 2.0, 1.0, 2.0, 1.0, 0.0, 0.0, 1.0, 0.0, 1.0, 0.10160472663041864, 0.18677026712308542, 0.3985609953362701, 0.10667961909409607, 0.5152122891840563, 0.8308714898862222, 0.7884276117978993, 0.030930046179042825, 0.5863278381392093, 0.809377820562265, 0.11805682735524681, 0.327654221789645, 116.23025985646109, 212.8135853477948, 172.73940574265706, 129.46976088359722, 145.08563209552452, 100.93331343196103, -0.15285197115083748, 0.32248967952078067, -0.3960867013660624, 0.3434728015273687, -0.18578537266557593, 0.4906558222624209, 0.0, 0.0, 0.0, 0.0, 0.0, 0.0] - 2.4172231049208492, [(0.0, 1.0, 1.0, 1.0, 1.0, 1.0, 1.0, 1.0, 3.0, 0.0, 0.0, 1.0, 3.0, 2.0, 1.0, 3.0, 1.0, 1.0, 0.0, 1.0, 1.0, 0.686779853464492, 0.3718698864952693, 0.3766329067465445, 0.31701501308915137, 0.09549550018968311, 0.5488360677363363, 0.14449763175758712, 0.4192717020180362, 0.6560912213856348, 0.8712342165111104, 0.44906526374982536, 0.2527693609065609, 69.76714330521756, 62.93935063148954, 138.3171027816333, 43.58949656563864, 205.27420929028054, 271.2563802047541, -0.19967569704610255, -0.0253579237317475, -0.2721635302555203, -0.05292446391687655, 0.3729836180900544, -0.11968953292577844, 0.0, 0.0, 0.0, 0.0, 0.0, 0.0] - 1.9981926396951468]

[ GENERATION 26 ]
Best individual(s) (2)
[[(0.0, 1.0, 1.0, 1.0, 1.0, 1.0, 1.0, 1.0, 2.0, 1.0, 0.0, 4.0, 2.0, 1.0, 2.0, 1.0, 0.0, 0.0, 1.0, 0.0, 1.0, 0.10160472663041864, 0.18677026712308542, 0.3985609953362701, 0.10667961909409607, 0.5152122891840563, 0.8308714898862222, 0.7884276117978993, 0.030930046179042825, 0.5863278381392093, 0.809377820562265, 0.11805682735524681, 0.327654221789645, 116.23025985646109, 212.8135853477948, 172.73940574265706, 129.46976088359722, 145.08563209552452, 100.93331343196103, -0.15285197115083748, 0.32248967952078067, -0.3960867013660624, 0.3434728015273687, -0.18578537266557593, 0.4906558222624209, 0.0, 0.0, 0.0, 0.0, 0.0, 0.0] - 2.4172231049208492, [(0.0, 1.0, 1.0, 1.0, 1.0, 1.0, 1.0, 1.0, 3.0, 0.0, 0.0, 1.0, 3.0, 2.0, 1.0, 3.0, 1.0, 1.0, 0.0, 1.0, 1.0, 0.686779853464492, 0.3718698864952693, 0.3766329067465445, 0.31701501308915137, 0.09549550018968311, 0.5488360677363363, 0.14449763175758712, 0.4192717020180362, 0.6560912213856348, 0.8712342165111104, 0.44906526374982536, 0.2527693609065609, 69.76714330521756, 62.93935063148954, 138.3171027816333, 43.58949656563864, 205.27420929028054, 271.2563802047541, -0.19967569704610255, -0.0253579237317475, -0.2721635302555203, -0.05292446391687655, 0.3729836180900544, -0.11968953292577844, 0.0, 0.0, 0.0, 0.0, 0.0, 0.0] - 1.9981926396951468]

[ GENERATION 27 ]
Best individual(s) (2)
[[(0.0, 1.0, 1.0, 1.0, 1.0, 1.0, 1.0, 1.0, 2.0, 1.0, 0.0, 4.0, 2.0, 1.0, 2.0, 1.0, 0.0, 0.0, 1.0, 0.0, 1.0, 0.10160472663041864, 0.18677026712308542, 0.3985609953362701, 0.10667961909409607, 0.5152122891840563, 0.8308714898862222, 0.7884276117978993, 0.030930046179042825, 0.5863278381392093, 0.809377820562265, 0.11805682735524681, 0.327654221789645, 116.23025985646109, 212.8135853477948, 172.73940574265706, 129.46976088359722, 145.08563209552452, 100.93331343196103, -0.15285197115083748, 0.32248967952078067, -0.3960867013660624, 0.3434728015273687, -0.18578537266557593, 0.4906558222624209, 0.0, 0.0, 0.0, 0.0, 0.0, 0.0] - 2.4172231049208492, [(0.0, 1.0, 1.0, 1.0, 1.0, 1.0, 1.0, 1.0, 3.0, 0.0, 0.0, 1.0, 3.0, 2.0, 1.0, 3.0, 1.0, 1.0, 0.0, 1.0, 1.0, 0.686779853464492, 0.3718698864952693, 0.3766329067465445, 0.31701501308915137, 0.09549550018968311, 0.5488360677363363, 0.14449763175758712, 0.4192717020180362, 0.6560912213856348, 0.8712342165111104, 0.44906526374982536, 0.2527693609065609, 69.76714330521756, 62.93935063148954, 138.3171027816333, 43.58949656563864, 205.27420929028054, 271.2563802047541, -0.19967569704610255, -0.0253579237317475, -0.2721635302555203, -0.05292446391687655, 0.3729836180900544, -0.11968953292577844, 0.0, 0.0, 0.0, 0.0, 0.0, 0.0] - 1.9981926396951468]

[ GENERATION 28 ]
Best individual(s) (2)
[[(0.0, 1.0, 1.0, 1.0, 1.0, 1.0, 1.0, 1.0, 2.0, 1.0, 0.0, 4.0, 2.0, 1.0, 2.0, 1.0, 0.0, 0.0, 1.0, 0.0, 1.0, 0.10160472663041864, 0.18677026712308542, 0.3985609953362701, 0.10667961909409607, 0.5152122891840563, 0.8308714898862222, 0.7884276117978993, 0.030930046179042825, 0.5863278381392093, 0.809377820562265, 0.11805682735524681, 0.327654221789645, 116.23025985646109, 212.8135853477948, 172.73940574265706, 129.46976088359722, 145.08563209552452, 100.93331343196103, -0.15285197115083748, 0.32248967952078067, -0.3960867013660624, 0.3434728015273687, -0.18578537266557593, 0.4906558222624209, 0.0, 0.0, 0.0, 0.0, 0.0, 0.0] - 2.4172231049208492, [(0.0, 1.0, 1.0, 1.0, 1.0, 1.0, 1.0, 1.0, 3.0, 0.0, 0.0, 1.0, 3.0, 2.0, 1.0, 3.0, 1.0, 1.0, 0.0, 1.0, 1.0, 0.686779853464492, 0.3718698864952693, 0.3766329067465445, 0.31701501308915137, 0.09549550018968311, 0.5488360677363363, 0.14449763175758712, 0.4192717020180362, 0.6560912213856348, 0.8712342165111104, 0.44906526374982536, 0.2527693609065609, 69.76714330521756, 62.93935063148954, 138.3171027816333, 43.58949656563864, 205.27420929028054, 271.2563802047541, -0.19967569704610255, -0.0253579237317475, -0.2721635302555203, -0.05292446391687655, 0.3729836180900544, -0.11968953292577844, 0.0, 0.0, 0.0, 0.0, 0.0, 0.0] - 1.9981926396951468]

[ GENERATION 29 ]
Best individual(s) (2)
[[(0.0, 1.0, 1.0, 1.0, 1.0, 1.0, 1.0, 1.0, 2.0, 1.0, 0.0, 4.0, 2.0, 1.0, 2.0, 1.0, 0.0, 0.0, 1.0, 0.0, 1.0, 0.10160472663041864, 0.18677026712308542, 0.3985609953362701, 0.10667961909409607, 0.5152122891840563, 0.8308714898862222, 0.7884276117978993, 0.030930046179042825, 0.5863278381392093, 0.809377820562265, 0.11805682735524681, 0.327654221789645, 116.23025985646109, 212.8135853477948, 172.73940574265706, 129.46976088359722, 145.08563209552452, 100.93331343196103, -0.15285197115083748, 0.32248967952078067, -0.3960867013660624, 0.3434728015273687, -0.18578537266557593, 0.4906558222624209, 0.0, 0.0, 0.0, 0.0, 0.0, 0.0] - 2.4172231049208492, [(0.0, 1.0, 1.0, 1.0, 1.0, 1.0, 1.0, 1.0, 3.0, 0.0, 0.0, 1.0, 3.0, 2.0, 1.0, 3.0, 1.0, 1.0, 0.0, 1.0, 1.0, 0.686779853464492, 0.3718698864952693, 0.3766329067465445, 0.31701501308915137, 0.09549550018968311, 0.5488360677363363, 0.14449763175758712, 0.4192717020180362, 0.6560912213856348, 0.8712342165111104, 0.44906526374982536, 0.2527693609065609, 69.76714330521756, 62.93935063148954, 138.3171027816333, 43.58949656563864, 205.27420929028054, 271.2563802047541, -0.19967569704610255, -0.0253579237317475, -0.2721635302555203, -0.05292446391687655, 0.3729836180900544, -0.11968953292577844, 0.0, 0.0, 0.0, 0.0, 0.0, 0.0] - 1.9981926396951468]

[ GENERATION 30 ]
Best individual(s) (2)
[[(0.0, 1.0, 1.0, 1.0, 1.0, 1.0, 1.0, 1.0, 2.0, 1.0, 0.0, 4.0, 2.0, 1.0, 2.0, 1.0, 0.0, 0.0, 1.0, 0.0, 1.0, 0.10160472663041864, 0.18677026712308542, 0.3985609953362701, 0.10667961909409607, 0.5152122891840563, 0.8308714898862222, 0.7884276117978993, 0.030930046179042825, 0.5863278381392093, 0.809377820562265, 0.11805682735524681, 0.327654221789645, 116.23025985646109, 212.8135853477948, 172.73940574265706, 129.46976088359722, 145.08563209552452, 100.93331343196103, -0.15285197115083748, 0.32248967952078067, -0.3960867013660624, 0.3434728015273687, -0.18578537266557593, 0.4906558222624209, 0.0, 0.0, 0.0, 0.0, 0.0, 0.0] - 2.4172231049208492, [(0.0, 1.0, 1.0, 1.0, 1.0, 1.0, 1.0, 1.0, 3.0, 0.0, 0.0, 1.0, 3.0, 2.0, 1.0, 3.0, 1.0, 1.0, 0.0, 1.0, 1.0, 0.686779853464492, 0.3718698864952693, 0.3766329067465445, 0.31701501308915137, 0.09549550018968311, 0.5488360677363363, 0.14449763175758712, 0.4192717020180362, 0.6560912213856348, 0.8712342165111104, 0.44906526374982536, 0.2527693609065609, 69.76714330521756, 62.93935063148954, 138.3171027816333, 43.58949656563864, 205.27420929028054, 271.2563802047541, -0.19967569704610255, -0.0253579237317475, -0.2721635302555203, -0.05292446391687655, 0.3729836180900544, -0.11968953292577844, 0.0, 0.0, 0.0, 0.0, 0.0, 0.0] - 1.9981926396951468]

[ GENERATION 31 ]
Best individual(s) (2)
[[(0.0, 1.0, 1.0, 1.0, 1.0, 1.0, 1.0, 1.0, 2.0, 1.0, 0.0, 4.0, 2.0, 1.0, 2.0, 1.0, 0.0, 0.0, 1.0, 0.0, 1.0, 0.10160472663041864, 0.18677026712308542, 0.3985609953362701, 0.10667961909409607, 0.5152122891840563, 0.8308714898862222, 0.7884276117978993, 0.030930046179042825, 0.5863278381392093, 0.809377820562265, 0.11805682735524681, 0.327654221789645, 116.23025985646109, 212.8135853477948, 172.73940574265706, 129.46976088359722, 145.08563209552452, 100.93331343196103, -0.15285197115083748, 0.32248967952078067, -0.3960867013660624, 0.3434728015273687, -0.18578537266557593, 0.4906558222624209, 0.0, 0.0, 0.0, 0.0, 0.0, 0.0] - 2.4172231049208492, [(0.0, 1.0, 1.0, 1.0, 1.0, 1.0, 1.0, 1.0, 3.0, 0.0, 0.0, 1.0, 3.0, 2.0, 1.0, 3.0, 1.0, 1.0, 0.0, 1.0, 1.0, 0.686779853464492, 0.3718698864952693, 0.3766329067465445, 0.31701501308915137, 0.09549550018968311, 0.5488360677363363, 0.14449763175758712, 0.4192717020180362, 0.6560912213856348, 0.8712342165111104, 0.44906526374982536, 0.2527693609065609, 69.76714330521756, 62.93935063148954, 138.3171027816333, 43.58949656563864, 205.27420929028054, 271.2563802047541, -0.19967569704610255, -0.0253579237317475, -0.2721635302555203, -0.05292446391687655, 0.3729836180900544, -0.11968953292577844, 0.0, 0.0, 0.0, 0.0, 0.0, 0.0] - 1.9981926396951468]

[ GENERATION 32 ]
Best individual(s) (2)
[[(0.0, 1.0, 1.0, 1.0, 1.0, 1.0, 1.0, 1.0, 2.0, 1.0, 0.0, 4.0, 2.0, 1.0, 2.0, 1.0, 0.0, 0.0, 1.0, 0.0, 1.0, 0.10160472663041864, 0.18677026712308542, 0.3985609953362701, 0.10667961909409607, 0.5152122891840563, 0.8308714898862222, 0.7884276117978993, 0.030930046179042825, 0.5863278381392093, 0.809377820562265, 0.11805682735524681, 0.327654221789645, 116.23025985646109, 212.8135853477948, 172.73940574265706, 125.454260184385, 223.24062891160534, 358.3771014266376, -0.15285197115083748, 0.32248967952078067, -0.3960867013660624, 0.3434728015273687, -0.18578537266557593, 0.4906558222624209, 0.0, 0.0, 0.0, 0.0, 0.0, 0.0] - 2.4280840069182013, [(0.0, 1.0, 1.0, 1.0, 1.0, 1.0, 1.0, 1.0, 3.0, 0.0, 0.0, 1.0, 3.0, 2.0, 1.0, 3.0, 1.0, 1.0, 0.0, 1.0, 1.0, 0.686779853464492, 0.3718698864952693, 0.3766329067465445, 0.31701501308915137, 0.09549550018968311, 0.5488360677363363, 0.14449763175758712, 0.4192717020180362, 0.6560912213856348, 0.8712342165111104, 0.44906526374982536, 0.2527693609065609, 69.76714330521756, 62.93935063148954, 138.3171027816333, 43.58949656563864, 205.27420929028054, 271.2563802047541, -0.19967569704610255, -0.0253579237317475, -0.2721635302555203, -0.05292446391687655, 0.3729836180900544, -0.11968953292577844, 0.0, 0.0, 0.0, 0.0, 0.0, 0.0] - 1.9981926396951468]

[ GENERATION 33 ]
Best individual(s) (2)
[[(0.0, 1.0, 1.0, 1.0, 1.0, 1.0, 1.0, 1.0, 2.0, 1.0, 0.0, 4.0, 2.0, 1.0, 2.0, 1.0, 0.0, 0.0, 1.0, 0.0, 1.0, 0.10160472663041864, 0.18677026712308542, 0.3985609953362701, 0.10667961909409607, 0.5152122891840563, 0.8308714898862222, 0.7884276117978993, 0.030930046179042825, 0.5863278381392093, 0.809377820562265, 0.11805682735524681, 0.327654221789645, 116.23025985646109, 212.8135853477948, 172.73940574265706, 125.454260184385, 223.24062891160534, 358.3771014266376, -0.15285197115083748, 0.32248967952078067, -0.3960867013660624, 0.3434728015273687, -0.18578537266557593, 0.4906558222624209, 0.0, 0.0, 0.0, 0.0, 0.0, 0.0] - 2.4280840069182013, [(0.0, 1.0, 1.0, 1.0, 1.0, 1.0, 1.0, 1.0, 3.0, 0.0, 0.0, 1.0, 3.0, 2.0, 1.0, 3.0, 1.0, 1.0, 0.0, 1.0, 1.0, 0.686779853464492, 0.3718698864952693, 0.3766329067465445, 0.31701501308915137, 0.09549550018968311, 0.5488360677363363, 0.14449763175758712, 0.4192717020180362, 0.6560912213856348, 0.8712342165111104, 0.44906526374982536, 0.2527693609065609, 69.76714330521756, 62.93935063148954, 138.3171027816333, 43.58949656563864, 205.27420929028054, 271.2563802047541, -0.19967569704610255, -0.0253579237317475, -0.2721635302555203, -0.05292446391687655, 0.3729836180900544, -0.11968953292577844, 0.0, 0.0, 0.0, 0.0, 0.0, 0.0] - 1.9981926396951468]

[ GENERATION 34 ]
Best individual(s) (2)
[[(0.0, 1.0, 1.0, 1.0, 1.0, 1.0, 1.0, 1.0, 2.0, 1.0, 0.0, 4.0, 2.0, 1.0, 2.0, 1.0, 0.0, 0.0, 1.0, 0.0, 1.0, 0.10160472663041864, 0.18677026712308542, 0.3985609953362701, 0.10667961909409607, 0.5152122891840563, 0.8308714898862222, 0.7884276117978993, 0.030930046179042825, 0.5863278381392093, 0.809377820562265, 0.11805682735524681, 0.327654221789645, 116.23025985646109, 212.8135853477948, 172.73940574265706, 125.454260184385, 223.24062891160534, 358.3771014266376, -0.15285197115083748, 0.32248967952078067, -0.3960867013660624, 0.3434728015273687, -0.18578537266557593, 0.4906558222624209, 0.0, 0.0, 0.0, 0.0, 0.0, 0.0] - 2.4280840069182013, [(0.0, 1.0, 1.0, 1.0, 1.0, 1.0, 1.0, 1.0, 3.0, 0.0, 0.0, 1.0, 3.0, 2.0, 1.0, 3.0, 1.0, 1.0, 0.0, 1.0, 1.0, 0.686779853464492, 0.3718698864952693, 0.3766329067465445, 0.31701501308915137, 0.09549550018968311, 0.5488360677363363, 0.14449763175758712, 0.4192717020180362, 0.6560912213856348, 0.8712342165111104, 0.44906526374982536, 0.2527693609065609, 69.76714330521756, 62.93935063148954, 138.3171027816333, 43.58949656563864, 205.27420929028054, 271.2563802047541, -0.19967569704610255, -0.0253579237317475, -0.2721635302555203, -0.05292446391687655, 0.3729836180900544, -0.11968953292577844, 0.0, 0.0, 0.0, 0.0, 0.0, 0.0] - 1.9981926396951468]

[ GENERATION 35 ]
Best individual(s) (2)
[[(0.0, 1.0, 1.0, 1.0, 1.0, 1.0, 1.0, 1.0, 2.0, 1.0, 0.0, 4.0, 2.0, 1.0, 2.0, 1.0, 0.0, 0.0, 1.0, 0.0, 1.0, 0.10160472663041864, 0.18677026712308542, 0.3985609953362701, 0.10667961909409607, 0.5152122891840563, 0.8308714898862222, 0.7884276117978993, 0.030930046179042825, 0.5863278381392093, 0.809377820562265, 0.11805682735524681, 0.327654221789645, 116.23025985646109, 212.8135853477948, 172.73940574265706, 125.454260184385, 223.24062891160534, 358.3771014266376, -0.15285197115083748, 0.32248967952078067, -0.3960867013660624, 0.3434728015273687, -0.18578537266557593, 0.4906558222624209, 0.0, 0.0, 0.0, 0.0, 0.0, 0.0] - 2.4280840069182013, [(0.0, 1.0, 1.0, 1.0, 1.0, 1.0, 1.0, 1.0, 3.0, 0.0, 0.0, 1.0, 3.0, 2.0, 1.0, 3.0, 1.0, 1.0, 0.0, 1.0, 1.0, 0.686779853464492, 0.3718698864952693, 0.3766329067465445, 0.31701501308915137, 0.09549550018968311, 0.5488360677363363, 0.14449763175758712, 0.4192717020180362, 0.6560912213856348, 0.8712342165111104, 0.44906526374982536, 0.2527693609065609, 69.76714330521756, 62.93935063148954, 138.3171027816333, 43.58949656563864, 205.27420929028054, 271.2563802047541, -0.19967569704610255, -0.0253579237317475, -0.2721635302555203, -0.05292446391687655, 0.3729836180900544, -0.11968953292577844, 0.0, 0.0, 0.0, 0.0, 0.0, 0.0] - 1.9981926396951468]

[ GENERATION 36 ]
Best individual(s) (2)
[[(0.0, 1.0, 1.0, 1.0, 1.0, 1.0, 1.0, 1.0, 2.0, 1.0, 0.0, 4.0, 2.0, 1.0, 2.0, 1.0, 0.0, 0.0, 1.0, 0.0, 1.0, 0.10160472663041864, 0.18677026712308542, 0.3985609953362701, 0.10667961909409607, 0.5152122891840563, 0.8308714898862222, 0.7884276117978993, 0.030930046179042825, 0.5863278381392093, 0.809377820562265, 0.11805682735524681, 0.327654221789645, 116.23025985646109, 212.8135853477948, 172.73940574265706, 125.454260184385, 223.24062891160534, 358.3771014266376, -0.15285197115083748, 0.32248967952078067, -0.3960867013660624, 0.3434728015273687, -0.18578537266557593, 0.4906558222624209, 0.0, 0.0, 0.0, 0.0, 0.0, 0.0] - 2.4280840069182013, [(0.0, 1.0, 1.0, 1.0, 1.0, 1.0, 1.0, 1.0, 3.0, 0.0, 0.0, 1.0, 3.0, 2.0, 1.0, 3.0, 1.0, 1.0, 0.0, 1.0, 1.0, 0.686779853464492, 0.3718698864952693, 0.3766329067465445, 0.31701501308915137, 0.09549550018968311, 0.5488360677363363, 0.14449763175758712, 0.4192717020180362, 0.6560912213856348, 0.8712342165111104, 0.44906526374982536, 0.2527693609065609, 69.76714330521756, 62.93935063148954, 138.3171027816333, 43.58949656563864, 205.27420929028054, 271.2563802047541, -0.19967569704610255, -0.0253579237317475, -0.2721635302555203, -0.05292446391687655, 0.3729836180900544, -0.11968953292577844, 0.0, 0.0, 0.0, 0.0, 0.0, 0.0] - 1.9981926396951468]

[ GENERATION 37 ]
Best individual(s) (2)
[[(0.0, 1.0, 1.0, 1.0, 1.0, 1.0, 1.0, 1.0, 2.0, 1.0, 0.0, 0.0, 2.0, 1.0, 2.0, 1.0, 0.0, 0.0, 1.0, 0.0, 1.0, 0.10160472663041864, 0.18677026712308542, 0.3985609953362701, 0.10667961909409607, 0.5152122891840563, 0.8308714898862222, 0.7884276117978993, 0.030930046179042825, 0.5863278381392093, 0.809377820562265, 0.11805682735524681, 0.327654221789645, 116.23025985646109, 212.8135853477948, 172.73940574265706, 125.454260184385, 223.24062891160534, 358.3771014266376, -0.15285197115083748, 0.32248967952078067, -0.3960867013660624, 0.3434728015273687, -0.18578537266557593, 0.4906558222624209, 0.0, 0.0, 0.0, 0.0, 0.0, 0.0] - 2.452140363253132, [(0.0, 1.0, 1.0, 1.0, 1.0, 1.0, 1.0, 1.0, 3.0, 0.0, 0.0, 1.0, 3.0, 2.0, 1.0, 3.0, 1.0, 1.0, 0.0, 1.0, 1.0, 0.686779853464492, 0.3718698864952693, 0.3766329067465445, 0.31701501308915137, 0.09549550018968311, 0.5488360677363363, 0.14449763175758712, 0.4192717020180362, 0.6560912213856348, 0.8712342165111104, 0.44906526374982536, 0.2527693609065609, 69.76714330521756, 62.93935063148954, 138.3171027816333, 43.58949656563864, 205.27420929028054, 271.2563802047541, -0.19967569704610255, -0.0253579237317475, -0.2721635302555203, -0.05292446391687655, 0.3729836180900544, -0.11968953292577844, 0.0, 0.0, 0.0, 0.0, 0.0, 0.0] - 1.9981926396951468]

[ GENERATION 38 ]
Best individual(s) (2)
[[(0.0, 1.0, 1.0, 1.0, 1.0, 1.0, 1.0, 1.0, 2.0, 1.0, 0.0, 0.0, 2.0, 1.0, 2.0, 1.0, 0.0, 0.0, 1.0, 0.0, 1.0, 0.10160472663041864, 0.18677026712308542, 0.3985609953362701, 0.10667961909409607, 0.5152122891840563, 0.8308714898862222, 0.7884276117978993, 0.030930046179042825, 0.5863278381392093, 0.809377820562265, 0.11805682735524681, 0.327654221789645, 116.23025985646109, 212.8135853477948, 172.73940574265706, 125.454260184385, 223.24062891160534, 358.3771014266376, -0.15285197115083748, 0.32248967952078067, -0.3960867013660624, 0.3434728015273687, -0.18578537266557593, 0.4906558222624209, 0.0, 0.0, 0.0, 0.0, 0.0, 0.0] - 2.452140363253132, [(0.0, 1.0, 1.0, 1.0, 1.0, 1.0, 1.0, 1.0, 3.0, 0.0, 0.0, 1.0, 3.0, 2.0, 1.0, 3.0, 1.0, 1.0, 0.0, 1.0, 1.0, 0.686779853464492, 0.3718698864952693, 0.3766329067465445, 0.31701501308915137, 0.09549550018968311, 0.5488360677363363, 0.14449763175758712, 0.4192717020180362, 0.6560912213856348, 0.8712342165111104, 0.44906526374982536, 0.2527693609065609, 69.76714330521756, 62.93935063148954, 138.3171027816333, 43.58949656563864, 205.27420929028054, 271.2563802047541, -0.19967569704610255, -0.0253579237317475, -0.2721635302555203, -0.05292446391687655, 0.3729836180900544, -0.11968953292577844, 0.0, 0.0, 0.0, 0.0, 0.0, 0.0] - 1.9981926396951468]

[ GENERATION 39 ]
Best individual(s) (2)
[[(0.0, 1.0, 1.0, 1.0, 1.0, 1.0, 1.0, 1.0, 2.0, 1.0, 0.0, 0.0, 2.0, 1.0, 2.0, 1.0, 0.0, 0.0, 1.0, 0.0, 1.0, 0.10160472663041864, 0.18677026712308542, 0.3985609953362701, 0.10667961909409607, 0.5152122891840563, 0.8308714898862222, 0.7884276117978993, 0.030930046179042825, 0.5863278381392093, 0.809377820562265, 0.11805682735524681, 0.327654221789645, 116.23025985646109, 212.8135853477948, 172.73940574265706, 125.454260184385, 223.24062891160534, 358.3771014266376, -0.15285197115083748, 0.32248967952078067, -0.3960867013660624, 0.3434728015273687, -0.18578537266557593, 0.4906558222624209, 0.0, 0.0, 0.0, 0.0, 0.0, 0.0] - 2.452140363253132, [(0.0, 1.0, 1.0, 1.0, 1.0, 1.0, 1.0, 1.0, 3.0, 0.0, 0.0, 1.0, 3.0, 2.0, 1.0, 3.0, 1.0, 1.0, 0.0, 1.0, 1.0, 0.686779853464492, 0.3718698864952693, 0.3766329067465445, 0.31701501308915137, 0.09549550018968311, 0.5488360677363363, 0.14449763175758712, 0.4192717020180362, 0.6560912213856348, 0.8712342165111104, 0.44906526374982536, 0.2527693609065609, 69.76714330521756, 62.93935063148954, 138.3171027816333, 43.58949656563864, 205.27420929028054, 271.2563802047541, -0.19967569704610255, -0.0253579237317475, -0.2721635302555203, -0.05292446391687655, 0.3729836180900544, -0.11968953292577844, 0.0, 0.0, 0.0, 0.0, 0.0, 0.0] - 1.9981926396951468]

[ GENERATION 40 ]
Best individual(s) (2)
[[(0.0, 1.0, 1.0, 1.0, 1.0, 1.0, 1.0, 1.0, 2.0, 1.0, 0.0, 0.0, 2.0, 1.0, 2.0, 1.0, 0.0, 0.0, 1.0, 0.0, 1.0, 0.10160472663041864, 0.18677026712308542, 0.3985609953362701, 0.10667961909409607, 0.5152122891840563, 0.8308714898862222, 0.7884276117978993, 0.030930046179042825, 0.5863278381392093, 0.809377820562265, 0.11805682735524681, 0.327654221789645, 116.23025985646109, 212.8135853477948, 172.73940574265706, 125.454260184385, 223.24062891160534, 358.3771014266376, -0.15285197115083748, 0.32248967952078067, -0.3960867013660624, 0.3434728015273687, -0.18578537266557593, 0.4906558222624209, 0.0, 0.0, 0.0, 0.0, 0.0, 0.0] - 2.452140363253132, [(0.0, 1.0, 1.0, 1.0, 1.0, 1.0, 1.0, 1.0, 3.0, 0.0, 0.0, 1.0, 3.0, 2.0, 1.0, 3.0, 1.0, 1.0, 0.0, 1.0, 1.0, 0.686779853464492, 0.3718698864952693, 0.3766329067465445, 0.31701501308915137, 0.09549550018968311, 0.5488360677363363, 0.14449763175758712, 0.4192717020180362, 0.6560912213856348, 0.8712342165111104, 0.44906526374982536, 0.2527693609065609, 69.76714330521756, 62.93935063148954, 138.3171027816333, 43.58949656563864, 205.27420929028054, 271.2563802047541, -0.19967569704610255, -0.0253579237317475, -0.2721635302555203, -0.05292446391687655, 0.3729836180900544, -0.11968953292577844, 0.0, 0.0, 0.0, 0.0, 0.0, 0.0] - 1.9981926396951468]

[ GENERATION 41 ]
Best individual(s) (2)
[[(0.0, 1.0, 1.0, 1.0, 1.0, 1.0, 1.0, 1.0, 2.0, 1.0, 0.0, 0.0, 2.0, 1.0, 2.0, 1.0, 0.0, 0.0, 1.0, 0.0, 1.0, 0.10160472663041864, 0.18677026712308542, 0.3985609953362701, 0.10667961909409607, 0.5152122891840563, 0.8308714898862222, 0.7884276117978993, 0.030930046179042825, 0.5863278381392093, 0.809377820562265, 0.11805682735524681, 0.327654221789645, 116.23025985646109, 212.8135853477948, 172.73940574265706, 125.454260184385, 223.24062891160534, 358.3771014266376, -0.15285197115083748, 0.32248967952078067, -0.3960867013660624, 0.3434728015273687, -0.18578537266557593, 0.4906558222624209, 0.0, 0.0, 0.0, 0.0, 0.0, 0.0] - 2.452140363253132, [(0.0, 1.0, 1.0, 1.0, 1.0, 1.0, 1.0, 1.0, 3.0, 0.0, 0.0, 1.0, 3.0, 2.0, 1.0, 3.0, 1.0, 1.0, 0.0, 1.0, 1.0, 0.686779853464492, 0.3718698864952693, 0.3766329067465445, 0.31701501308915137, 0.09549550018968311, 0.5488360677363363, 0.14449763175758712, 0.4192717020180362, 0.6560912213856348, 0.8712342165111104, 0.44906526374982536, 0.2527693609065609, 69.76714330521756, 62.93935063148954, 138.3171027816333, 43.58949656563864, 205.27420929028054, 271.2563802047541, -0.19967569704610255, -0.0253579237317475, -0.2721635302555203, -0.05292446391687655, 0.3729836180900544, -0.11968953292577844, 0.0, 0.0, 0.0, 0.0, 0.0, 0.0] - 1.9981926396951468]

[ GENERATION 42 ]
Best individual(s) (2)
[[(0.0, 1.0, 1.0, 1.0, 1.0, 1.0, 1.0, 1.0, 2.0, 1.0, 0.0, 0.0, 2.0, 1.0, 2.0, 1.0, 0.0, 0.0, 1.0, 0.0, 1.0, 0.10160472663041864, 0.18677026712308542, 0.3985609953362701, 0.10667961909409607, 0.5152122891840563, 0.8308714898862222, 0.7884276117978993, 0.030930046179042825, 0.5863278381392093, 0.809377820562265, 0.11805682735524681, 0.327654221789645, 116.23025985646109, 212.8135853477948, 172.73940574265706, 125.454260184385, 223.24062891160534, 358.3771014266376, -0.15285197115083748, 0.32248967952078067, -0.3960867013660624, 0.3434728015273687, -0.18578537266557593, 0.4906558222624209, 0.0, 0.0, 0.0, 0.0, 0.0, 0.0] - 2.452140363253132, [(0.0, 1.0, 1.0, 1.0, 1.0, 1.0, 1.0, 1.0, 3.0, 0.0, 0.0, 1.0, 3.0, 2.0, 1.0, 3.0, 1.0, 1.0, 0.0, 1.0, 1.0, 0.686779853464492, 0.3718698864952693, 0.3766329067465445, 0.31701501308915137, 0.09549550018968311, 0.5488360677363363, 0.14449763175758712, 0.4192717020180362, 0.6560912213856348, 0.8712342165111104, 0.44906526374982536, 0.2527693609065609, 69.76714330521756, 62.93935063148954, 138.3171027816333, 43.58949656563864, 205.27420929028054, 271.2563802047541, -0.19967569704610255, -0.0253579237317475, -0.2721635302555203, -0.05292446391687655, 0.3729836180900544, -0.11968953292577844, 0.0, 0.0, 0.0, 0.0, 0.0, 0.0] - 1.9981926396951468]

[ GENERATION 43 ]
Best individual(s) (2)
[[(0.0, 1.0, 1.0, 1.0, 1.0, 1.0, 1.0, 1.0, 2.0, 1.0, 0.0, 0.0, 2.0, 1.0, 2.0, 1.0, 0.0, 0.0, 1.0, 0.0, 1.0, 0.10160472663041864, 0.18677026712308542, 0.3985609953362701, 0.10667961909409607, 0.5152122891840563, 0.8308714898862222, 0.7884276117978993, 0.030930046179042825, 0.5863278381392093, 0.809377820562265, 0.11805682735524681, 0.327654221789645, 116.23025985646109, 212.8135853477948, 172.73940574265706, 125.454260184385, 223.24062891160534, 358.3771014266376, -0.15285197115083748, 0.32248967952078067, -0.3960867013660624, 0.3434728015273687, -0.18578537266557593, 0.4906558222624209, 0.0, 0.0, 0.0, 0.0, 0.0, 0.0] - 2.452140363253132, [(0.0, 1.0, 1.0, 1.0, 1.0, 1.0, 1.0, 1.0, 3.0, 0.0, 0.0, 1.0, 3.0, 2.0, 1.0, 3.0, 1.0, 1.0, 0.0, 1.0, 1.0, 0.686779853464492, 0.3718698864952693, 0.3766329067465445, 0.31701501308915137, 0.09549550018968311, 0.5488360677363363, 0.14449763175758712, 0.4192717020180362, 0.6560912213856348, 0.8712342165111104, 0.44906526374982536, 0.2527693609065609, 69.76714330521756, 62.93935063148954, 138.3171027816333, 43.58949656563864, 205.27420929028054, 271.2563802047541, -0.19967569704610255, -0.0253579237317475, -0.2721635302555203, -0.05292446391687655, 0.3729836180900544, -0.11968953292577844, 0.0, 0.0, 0.0, 0.0, 0.0, 0.0] - 1.9981926396951468]

[ GENERATION 44 ]
Best individual(s) (2)
[[(0.0, 1.0, 1.0, 1.0, 1.0, 1.0, 1.0, 1.0, 2.0, 1.0, 0.0, 3.0, 2.0, 1.0, 2.0, 1.0, 1.0, 0.0, 1.0, 0.0, 1.0, 0.10160472663041864, 0.18677026712308542, 0.3985609953362701, 0.10667961909409607, 0.5152122891840563, 0.8308714898862222, 0.7884276117978993, 0.030930046179042825, 0.5863278381392093, 0.809377820562265, 0.11805682735524681, 0.327654221789645, 116.23025985646109, 212.8135853477948, 172.73940574265706, 125.454260184385, 223.24062891160534, 358.3771014266376, -0.15285197115083748, 0.32248967952078067, -0.3960867013660624, 0.3434728015273687, -0.18578537266557593, 0.4906558222624209, 0.0, 0.0, 0.0, 0.0, 0.0, 0.0] - 2.452923075132932, [(0.0, 1.0, 1.0, 1.0, 1.0, 1.0, 1.0, 1.0, 3.0, 0.0, 0.0, 1.0, 3.0, 2.0, 1.0, 3.0, 1.0, 1.0, 0.0, 1.0, 1.0, 0.686779853464492, 0.3718698864952693, 0.3766329067465445, 0.31701501308915137, 0.09549550018968311, 0.5488360677363363, 0.14449763175758712, 0.4192717020180362, 0.6560912213856348, 0.8712342165111104, 0.44906526374982536, 0.2527693609065609, 69.76714330521756, 62.93935063148954, 138.3171027816333, 43.58949656563864, 205.27420929028054, 271.2563802047541, -0.19967569704610255, -0.0253579237317475, -0.2721635302555203, -0.05292446391687655, 0.3729836180900544, -0.11968953292577844, 0.0, 0.0, 0.0, 0.0, 0.0, 0.0] - 1.9981926396951468]

[ GENERATION 45 ]
Best individual(s) (2)
[[(0.0, 1.0, 1.0, 1.0, 1.0, 1.0, 1.0, 1.0, 2.0, 1.0, 0.0, 2.0, 2.0, 1.0, 2.0, 1.0, 0.0, 0.0, 1.0, 0.0, 1.0, 0.10160472663041864, 0.18677026712308542, 0.3985609953362701, 0.10667961909409607, 0.5152122891840563, 0.8308714898862222, 0.7884276117978993, 0.030930046179042825, 0.5863278381392093, 0.809377820562265, 0.11805682735524681, 0.327654221789645, 116.23025985646109, 212.8135853477948, 172.73940574265706, 125.454260184385, 223.24062891160534, 358.3771014266376, -0.15285197115083748, 0.32248967952078067, -0.3960867013660624, 0.3434728015273687, -0.18578537266557593, 0.4906558222624209, 0.0, 0.0, 0.0, 0.0, 0.0, 0.0] - 2.4618245960143237, [(0.0, 1.0, 1.0, 1.0, 1.0, 1.0, 1.0, 1.0, 3.0, 0.0, 0.0, 1.0, 3.0, 2.0, 1.0, 3.0, 1.0, 1.0, 0.0, 1.0, 1.0, 0.686779853464492, 0.3718698864952693, 0.3766329067465445, 0.31701501308915137, 0.09549550018968311, 0.5488360677363363, 0.14449763175758712, 0.4192717020180362, 0.6560912213856348, 0.8712342165111104, 0.44906526374982536, 0.2527693609065609, 69.76714330521756, 62.93935063148954, 138.3171027816333, 43.58949656563864, 205.27420929028054, 271.2563802047541, -0.19967569704610255, -0.0253579237317475, -0.2721635302555203, -0.05292446391687655, 0.3729836180900544, -0.11968953292577844, 0.0, 0.0, 0.0, 0.0, 0.0, 0.0] - 1.9981926396951468]

[ GENERATION 46 ]
Best individual(s) (2)
[[(0.0, 1.0, 1.0, 1.0, 1.0, 1.0, 1.0, 1.0, 2.0, 1.0, 0.0, 2.0, 2.0, 1.0, 2.0, 1.0, 0.0, 0.0, 1.0, 0.0, 1.0, 0.10160472663041864, 0.18677026712308542, 0.3985609953362701, 0.10667961909409607, 0.5152122891840563, 0.8308714898862222, 0.7884276117978993, 0.030930046179042825, 0.5863278381392093, 0.809377820562265, 0.11805682735524681, 0.327654221789645, 116.23025985646109, 212.8135853477948, 172.73940574265706, 125.454260184385, 223.24062891160534, 358.3771014266376, -0.15285197115083748, 0.32248967952078067, -0.3960867013660624, 0.3434728015273687, -0.18578537266557593, 0.4906558222624209, 0.0, 0.0, 0.0, 0.0, 0.0, 0.0] - 2.4618245960143237, [(0.0, 1.0, 1.0, 1.0, 1.0, 1.0, 1.0, 1.0, 3.0, 0.0, 0.0, 1.0, 3.0, 2.0, 1.0, 3.0, 1.0, 1.0, 0.0, 1.0, 1.0, 0.686779853464492, 0.3718698864952693, 0.3766329067465445, 0.31701501308915137, 0.09549550018968311, 0.5488360677363363, 0.14449763175758712, 0.4192717020180362, 0.6560912213856348, 0.8712342165111104, 0.44906526374982536, 0.2527693609065609, 69.76714330521756, 62.93935063148954, 138.3171027816333, 43.58949656563864, 205.27420929028054, 271.2563802047541, -0.19967569704610255, -0.0253579237317475, -0.2721635302555203, -0.05292446391687655, 0.3729836180900544, -0.11968953292577844, 0.0, 0.0, 0.0, 0.0, 0.0, 0.0] - 1.9981926396951468]

[ GENERATION 47 ]
Best individual(s) (2)
[[(0.0, 1.0, 1.0, 1.0, 1.0, 1.0, 1.0, 1.0, 2.0, 1.0, 0.0, 2.0, 2.0, 1.0, 2.0, 1.0, 0.0, 0.0, 1.0, 0.0, 1.0, 0.10160472663041864, 0.18677026712308542, 0.3985609953362701, 0.10667961909409607, 0.5152122891840563, 0.8308714898862222, 0.7884276117978993, 0.030930046179042825, 0.5863278381392093, 0.809377820562265, 0.11805682735524681, 0.327654221789645, 116.23025985646109, 212.8135853477948, 172.73940574265706, 125.454260184385, 223.24062891160534, 358.3771014266376, -0.15285197115083748, 0.32248967952078067, -0.3960867013660624, 0.3434728015273687, -0.18578537266557593, 0.4906558222624209, 0.0, 0.0, 0.0, 0.0, 0.0, 0.0] - 2.4618245960143237, [(0.0, 1.0, 1.0, 1.0, 1.0, 1.0, 1.0, 1.0, 3.0, 0.0, 0.0, 1.0, 3.0, 2.0, 1.0, 3.0, 1.0, 1.0, 0.0, 1.0, 1.0, 0.686779853464492, 0.3718698864952693, 0.3766329067465445, 0.31701501308915137, 0.09549550018968311, 0.5488360677363363, 0.14449763175758712, 0.4192717020180362, 0.6560912213856348, 0.8712342165111104, 0.44906526374982536, 0.2527693609065609, 69.76714330521756, 62.93935063148954, 138.3171027816333, 43.58949656563864, 205.27420929028054, 271.2563802047541, -0.19967569704610255, -0.0253579237317475, -0.2721635302555203, -0.05292446391687655, 0.3729836180900544, -0.11968953292577844, 0.0, 0.0, 0.0, 0.0, 0.0, 0.0] - 1.9981926396951468]

[ GENERATION 48 ]
Best individual(s) (2)
[[(0.0, 1.0, 1.0, 1.0, 1.0, 1.0, 1.0, 1.0, 2.0, 1.0, 0.0, 2.0, 2.0, 1.0, 2.0, 1.0, 0.0, 0.0, 1.0, 0.0, 1.0, 0.10160472663041864, 0.18677026712308542, 0.3985609953362701, 0.10667961909409607, 0.5152122891840563, 0.8308714898862222, 0.7884276117978993, 0.030930046179042825, 0.5863278381392093, 0.809377820562265, 0.11805682735524681, 0.327654221789645, 116.23025985646109, 212.8135853477948, 172.73940574265706, 125.454260184385, 223.24062891160534, 358.3771014266376, -0.15285197115083748, 0.32248967952078067, -0.3960867013660624, 0.3434728015273687, -0.18578537266557593, 0.4906558222624209, 0.0, 0.0, 0.0, 0.0, 0.0, 0.0] - 2.4618245960143237, [(0.0, 1.0, 1.0, 1.0, 1.0, 1.0, 1.0, 1.0, 3.0, 0.0, 0.0, 1.0, 3.0, 2.0, 1.0, 3.0, 1.0, 1.0, 0.0, 1.0, 1.0, 0.686779853464492, 0.3718698864952693, 0.3766329067465445, 0.31701501308915137, 0.09549550018968311, 0.5488360677363363, 0.14449763175758712, 0.4192717020180362, 0.6560912213856348, 0.8712342165111104, 0.44906526374982536, 0.2527693609065609, 69.76714330521756, 62.93935063148954, 138.3171027816333, 43.58949656563864, 205.27420929028054, 271.2563802047541, -0.19967569704610255, -0.0253579237317475, -0.2721635302555203, -0.05292446391687655, 0.3729836180900544, -0.11968953292577844, 0.0, 0.0, 0.0, 0.0, 0.0, 0.0] - 1.9981926396951468]

[ GENERATION 49 ]
Best individual(s) (2)
[[(0.0, 1.0, 1.0, 1.0, 1.0, 1.0, 1.0, 1.0, 2.0, 1.0, 0.0, 2.0, 2.0, 1.0, 2.0, 1.0, 0.0, 0.0, 1.0, 0.0, 1.0, 0.10160472663041864, 0.18677026712308542, 0.3985609953362701, 0.10667961909409607, 0.5152122891840563, 0.8308714898862222, 0.7884276117978993, 0.030930046179042825, 0.5863278381392093, 0.809377820562265, 0.11805682735524681, 0.327654221789645, 116.23025985646109, 212.8135853477948, 172.73940574265706, 125.454260184385, 223.24062891160534, 358.3771014266376, -0.15285197115083748, 0.32248967952078067, -0.3960867013660624, 0.3434728015273687, -0.18578537266557593, 0.4906558222624209, 0.0, 0.0, 0.0, 0.0, 0.0, 0.0] - 2.4618245960143237, [(0.0, 1.0, 1.0, 1.0, 1.0, 1.0, 1.0, 1.0, 3.0, 0.0, 0.0, 1.0, 3.0, 2.0, 1.0, 3.0, 1.0, 1.0, 0.0, 1.0, 1.0, 0.686779853464492, 0.3718698864952693, 0.3766329067465445, 0.31701501308915137, 0.09549550018968311, 0.5488360677363363, 0.14449763175758712, 0.4192717020180362, 0.6560912213856348, 0.8712342165111104, 0.44906526374982536, 0.2527693609065609, 69.76714330521756, 62.93935063148954, 138.3171027816333, 43.58949656563864, 205.27420929028054, 271.2563802047541, -0.19967569704610255, -0.0253579237317475, -0.2721635302555203, -0.05292446391687655, 0.3729836180900544, -0.11968953292577844, 0.0, 0.0, 0.0, 0.0, 0.0, 0.0] - 1.9981926396951468]

